('number of tests: ', 72, '       av.Err: ', '0.76')
('           good: ', 59, ' av.Err(good): ', '0.57')
('             ok: ', 11, '   av.Err(ok): ', '1.78')
('           fail: ', 1)
('      no golden: ', 1)
test.xxx_22/LOGS/Ba_A2.xyz_xc10_asa=22.log:  a0=  8.830 Bohr  E0=   -16265.89508 Ry  B0=    0.076 Mbar  B0'=    -0.13  V0=  344.20327 :MURNAGHAN
test.xxx_22/LOGS/Ba_A2.xyz_xc10_asa=22.log:  a0=  8.830 Bohr  E0=   -16265.89508 Ry  B0=    0.076 Mbar  B0'=    -0.09  V0=  344.20287 :VINET
