Ag,A1, 7.611,-10624.64701,1.362, 110.22306,5.31
Al,A1, 7.576,-483.84459,0.800, 108.72324,4.25
Au,A1, 7.643,-38074.58262,2.023, 111.61818,5.17
Ca,A1, 10.007,-1357.53014,0.194, 250.54733,3.45
Cu,A1, 6.688,-3304.86800,1.840, 74.78010,4.80
Ir,A1, 7.231,-35695.85269,3.989, 94.53187,4.50
Li,A1, 8.010,-14.83606,0.150, 128.47239,3.18
Pb,A1, 9.030,-41833.99608,0.626, 184.06430,5.16
Pd,A1, 7.318,-10084.42778,2.185, 97.98216,4.84
Pt,A1, 7.377,-36872.60794,3.084, 100.37483,4.82
Rh,A1, 7.157,-9561.16251,3.047, 91.65727,4.48
Sr,A1, 10.879,-6352.18531,0.155, 321.91208,3.48
Th,A1, 8.981,-53045.40789,0.765, 181.09535,3.43
Ti,A1, 7.572,-1703.96911,1.143, 108.52611,3.20
fm,Co_A1, 6.525,-2782.21532,2.561, 69.43587,5.04
fm,Ni_A1, 6.515,-3036.70408,2.418, 69.14114,4.77
