Ag,A1, 7.624,-10624.64402,1.343, 110.78623,5.29
Al,A1, 7.592,-483.84032,0.789, 109.38488,4.19
Au,A1, 7.660,-38074.57570,1.981, 112.37079,5.15
Ca,A1, 10.007,-1357.52828,0.191, 250.51675,3.40
Cu,A1, 6.698,-3304.86498,1.815, 75.10843,4.80
Ir,A1, 7.245,-35695.84224,3.932, 95.05307,4.45
Li,A1, 8.013,-14.83537,0.149, 128.60544,3.18
Pb,A1, 9.052,-41833.99046,0.613, 185.45683,5.12
Pd,A1, 7.336,-10084.42430,2.015, 98.69964,5.27
Pt,A1, 7.392,-36872.59926,3.066, 100.97796,4.66
Rh,A1, 7.166,-9561.15776,3.013, 92.00173,4.45
Sr,A1, 10.871,-6352.18359,0.151, 321.17463,3.39
Th,A1, 9.016,-53045.39566,0.745, 183.20604,3.30
Ti,A1, 7.564,-1703.96578,1.125, 108.17196,3.17
fm,Co_A1, 6.531,-2782.21163,2.539, 69.64038,5.09
fm,Ni_A1, 6.523,-3036.70073,2.392, 69.37870,4.92
