C1ES1,A4_ES2, 6.737,-75.62985,4.492, 38.22209,3.39
Ge1ES1,A4_ES2, 10.765,-4192.24661,0.670, 155.92180,4.26
Si1ES1,A4_ES2, 10.308,-578.07842,0.886, 136.89779,4.18
Sn1ES1,A4_ES2, 12.402,-12347.31827,0.432, 238.46988,3.99
