AlLi,B1, 10.121,-249.31025,0.268, 129.59655,3.26
CaO,B1, 8.609,-753.74756,1.222, 79.76149,5.01
HfC,B1, 8.729,-15126.51406,2.536, 83.12544,4.17
HfN,B1, 8.506,-15143.25878,3.344, 76.94116,4.12
LiCl,B1, 9.273,-467.73974,0.509, 99.68315,6.95
LiF,B1, 7.438,-106.95236,0.977, 51.43501,4.92
LiH,B1, 7.357,-8.03282,0.423, 49.77393,1.72
MgO,B1, 7.878,-274.54043,1.946, 61.12306,4.06
MgS,B1, 9.788,-597.65047,0.842, 117.20194,3.77
NaCl,B1, 10.215,NaN,5.000, 133.25572,5.00
NaF,B1, 8.482,-261.19100,0.518, 76.29019,4.07
NbC,B1, 8.454,-3854.24450,3.254, 75.53787,4.24
NbN,B1, 8.281,-3870.93576,3.934, 70.99362,4.04
TiC,B1, 8.192,-889.88653,2.605, 68.70859,3.49
TiN,B1, 7.966,-906.61799,3.571, 63.19924,4.20
V1C1,B1, 7.836,-985.27593,3.365, 60.14993,3.70
V1N1,B1, 7.676,-1001.97487,4.099, 56.53538,4.43
ZrC,B1, 8.901,-3633.11540,2.340, 88.15292,3.94
ZrN,B1, 8.685,-3649.84242,3.338, 81.89887,5.20
