AlLi,B1, 10.080,-249.31359,0.272, 128.01773,3.25
CaO,B1, 8.783,-753.70513,1.082, 84.69903,5.23
HfC,B1, 8.739,-15126.50266,2.471, 83.43000,3.99
HfN,B1, 8.521,-15143.22999,3.147, 77.34560,4.14
LiCl,B1, 9.368,-467.72564,0.336, 102.78137,4.20
LiF,B1, 7.501,-106.94319,1.030, 52.76441,4.20
LiH,B1, 7.382,-8.02997,0.462, 50.28843,4.17
MgO,B1, 7.930,-274.52037,1.884, 62.33802,4.04
MgS,B1, 9.870,-597.63996,0.828, 120.18146,3.13
NaCl,B1, 10.525,-622.01602,0.230, 145.73413,3.91
NaF,B1, 8.591,-261.17709,0.499, 79.26224,3.65
NbC,B1, 8.489,-3854.23019,3.152, 76.46648,4.24
NbN,B1, 8.313,-3870.91115,3.757, 71.81232,3.78
TiC,B1, 8.225,-889.87595,2.563, 69.55689,3.27
TiN,B1, 7.999,-906.59470,3.408, 63.96666,4.09
V1C1,B1, 7.869,-985.26731,3.274, 60.89648,3.76
V1N1,B1, 7.706,-1001.95710,3.940, 57.19429,4.43
ZrC,B1, 8.930,-3633.10054,2.287, 89.01447,3.88
ZrN,B1, 8.709,-3649.81356,3.052, 82.57278,4.58
