AlLi,B2, 5.840,-249.35122,0.504, 99.56940,3.23
CoAl,B2, 5.311,-1633.08095,2.014, 74.90058,4.48
CrW,B2, 5.634,-17205.37074,3.023, 89.40967,4.46
FeAl,B2, 5.344,-1512.49717,2.004, 76.31634,4.17
NiAl,B2, 5.382,-1760.32635,1.800, 77.92932,4.46
fm,FeAl_B2, 5.355,-1512.49772,1.944, 76.78656,3.81
