AlLi,B2, 5.858,-249.34717,0.511, 100.51065,2.84
CoAl,B2, 5.316,-1633.07858,2.007, 75.12391,4.56
CrW,B2, 5.641,-17205.36244,2.967, 89.75660,4.41
FeAl,B2, 5.350,-1512.49408,1.993, 76.57501,4.11
NiAl,B2, 5.387,-1760.32486,1.792, 78.14928,4.42
fm,FeAl_B2, 5.360,-1512.49462,1.945, 77.01608,4.31
