Ag,A1,7.619,-10624.64528,1.355,110.58553,5.28
Al,A1,7.594,-483.84048,0.790,109.48631,4.18
Au,A1,7.657,-38074.57721,2.003,112.24252,5.16
Ca,A1,10.019,-1357.52728,0.192,251.45333,3.54
Cu,A1,6.696,-3304.86581,1.830,75.04831,4.77
Ir,A1,7.250,-35695.84305,3.964,95.26117,4.46
Li,A1,8.004,-14.83497,0.150,128.19383,3.22
Pb,A1,9.048,-41833.99110,0.615,185.17131,5.12
Pd,A1,7.325,-10084.42577,2.214,98.24310,4.74
Pt,A1,7.393,-36872.60081,3.100,101.00163,4.65
Rh,A1,7.168,-9561.15915,3.042,92.08635,4.45
Sr,A1,10.892,-6352.18177,0.147,323.01764,3.33
Th,A1,9.025,-53045.39499,0.754,183.76635,3.38
Ti,A1,7.582,-1703.96397,1.129,108.96914,3.22
fm,Co_A1,6.532,-2782.21235,2.557,69.67222,5.18
fm,Ni_A1,6.522,-3036.70163,2.421,69.37097,4.90
Al,A2,6.060,-483.83671,0.716,111.28570,4.29
Ba,A2,8.648,-16265.89474,0.049,323.37178,-1.89
Cr,A2,5.297,-2097.70417,2.790,74.30009,4.43
K,A2,9.520,-1201.18548,0.045,431.38910,4.01
Li,A2,6.359,-14.83481,0.147,128.55861,2.58
Mo,A2,5.910,-8090.63197,2.681,103.23430,2.83
Na,A2,7.665,-323.42518,0.092,225.15078,3.79
Nb,A2,6.144,-7632.66826,1.545,115.96552,4.16
Rb,A2,10.123,-5955.69140,0.035,518.71244,3.15
Ta,A2,6.158,-31233.35846,2.171,116.76948,2.51
V,A2,5.549,-1894.78042,1.967,85.41560,3.22
W,A2,5.954,-32313.02317,3.061,105.51167,3.50
fm,Fe_A2,5.249,-2541.08736,2.219,72.30614,4.14
C1ES1,A4_ES2,6.732,-75.66025,4.619,38.14035,3.46
Ge1ES1,A4_ES2,10.699,-4192.27195,0.730,153.10079,4.42
Si1ES1,A4_ES2,10.273,-578.10320,0.948,135.51132,4.08
Sn1ES1,A4_ES2,12.306,-12347.34249,0.466,232.93582,4.27
AlLi,B1,12.506,-249.31372,0.000,244.51151,13.68
CaO,B1,8.552,-753.74884,1.163,78.19195,4.65
HfC,B1,8.763,-15126.50248,2.529,84.12638,4.06
HfN,B1,8.551,-15143.22960,3.384,78.16403,3.62
LiCl,B1,9.224,-467.74118,0.343,98.11240,2.59
LiF,B1,7.283,-106.95414,1.141,48.28592,4.95
LiH,B1,7.364,-8.03197,0.423,49.91683,3.50
MgO,B1,7.867,-274.52673,1.940,60.84999,3.99
MgS,B1,9.692,-597.65774,0.905,113.81450,4.06
NaCl,B1,10.260,-622.03029,0.299,134.99389,4.48
NaF,B1,8.445,-261.19144,0.456,75.29712,2.79
NbC,B1,8.504,-3854.22984,3.204,76.87201,3.87
NbN,B1,8.342,-3870.90918,3.832,72.55129,4.21
TiC,B1,8.218,-889.87872,2.647,69.38577,3.74
TiN,B1,8.006,-906.59682,3.479,64.13843,4.27
V1C1,B1,7.869,-985.26674,3.385,60.90284,3.69
V1N1,B1,7.718,-1001.95409,4.067,57.46917,4.09
ZrC,B1,8.932,-3633.10521,2.306,89.06650,3.80
ZrN,B1,8.732,-3649.81936,3.254,83.21152,5.53
AlLi,B2,5.858,-249.34717,0.511,100.51065,2.84
CoAl,B2,5.316,-1633.07858,2.007,75.12391,4.56
CrW,B2,5.641,-17205.36244,2.967,89.75660,4.41
FeAl,B2,5.350,-1512.49408,1.993,76.57501,4.11
NiAl,B2,5.387,-1760.32486,1.792,78.14928,4.42
fm,FeAl_B2,5.360,-1512.49462,1.945,77.01608,4.31
AlAsES1ES1,B3_ES,10.566,-2500.00140,0.824,147.46636,3.89
AlP1ES1ES1,B3_ES,10.246,-583.01496,0.948,134.45942,3.82
B1AsES1ES1,B3_ES,8.640,-2282.74446,1.874,80.60841,4.54
B1N1ES1ES1,B3_ES,6.813,-79.18021,4.055,39.52754,3.50
B1P1ES1ES1,B3_ES,8.279,-365.76814,2.065,70.92538,3.84
GaAsES1ES1,B3_ES,10.313,-4199.37402,0.950,137.09316,4.53
GaN1ES1ES1,B3_ES,8.194,-1995.84619,2.597,68.77168,4.62
GaP1ES1ES1,B3_ES,9.956,-2282.38687,1.094,123.37210,4.36
InAsES1ES1,B3_ES,10.957,-8136.08578,0.864,164.42570,5.11
InP1ES1ES1,B3_ES,10.596,-6219.09855,0.981,148.70441,4.87
SiC1ES1ES1,B3_ES,8.154,-326.97936,2.577,67.76673,3.68
CeO2ES,C1_ES,10.100,-6005.70820,2.412,85.85380,4.61
AlLi,L1_0,7.501,-249.35015,0.478,105.50465,4.44
AlLi3,L1_2,7.613,-132.09238,0.285,110.31437,3.94
LiAl3,L1_2,7.563,-366.59882,0.667,108.15574,4.31
AlLi,B32,11.818,-249.36197,0.540,103.15997,4.02
Ti,A3,5.378,-1703.96543,1.158,110.00029,3.10
