CeO2ES,C1_ES, 10.048,-6005.70004,2.428, 84.54848,4.98
AlLi,L1_0, 7.478,-249.35150,0.483, 104.55819,4.10
AlLi3,L1_2, 7.566,-132.09461,0.292, 108.25913,3.95
LiAl3,L1_2, 7.542,-366.60111,0.673, 107.25014,4.41
AlLi,B32, 11.786,-249.36091,0.536, 102.32566,3.88
Ti,A3, 5.371,-1703.97060,1.175, 109.54225,3.23
