Ag,A1, 7.626,-10624.64485,1.354, 110.85640,5.10
Al,A1, 7.590,-483.84038,0.809, 109.30638,3.98
Au,A1, 7.659,-38074.57696,1.976, 112.32692,5.08
Ca,A1, 10.058,-1357.52713,0.196, 254.38112,3.51
Cu,A1, 6.700,-3304.86611,1.809, 75.19236,4.81
Ir,A1, 7.232,-35695.84501,3.870, 94.55695,4.38
Li,A1, 8.014,-14.83535,0.155, 128.65054,3.64
Pb,A1, 9.049,-41833.98899,0.601, 185.22347,6.26
Pd,A1, 7.326,-10084.42490,2.170, 98.30527,4.73
Pt,A1, 7.385,-36872.60092,3.161, 100.67905,4.00
Rh,A1, 7.161,-9561.15866,2.984, 91.80608,4.39
Sr,A1, 10.966,-6352.18158,0.160, 329.69002,3.52
Th,A1, 9.000,-53045.39596,0.720, 182.23759,2.90
Ti,A1, 7.588,-1703.96375,1.147, 109.23745,3.32
fm,Co_A1, 6.535,-2782.21207,3.168, 69.77349,9.64
fm,Ni_A1, 6.524,-3036.70154,2.542, 69.41209,6.14
Al,A2, 6.058,-483.83642,0.719, 111.16740,4.16
Ba,A2, 9.126,-16265.88816,0.114, 380.03764,1.32
Cr,A2, 5.293,-2097.70409,2.762, 74.13849,4.20
K,A2, 9.588,-1201.18478,0.043, 440.71319,5.52
Li,A2, 6.364,-14.83501,0.154, 128.87202,3.64
Mo,A2, 5.887,-8090.63504,2.600, 102.00994,3.09
Na,A2, 7.675,-323.42496,0.099, 226.05611,6.75
Nb,A2, 6.129,-7632.67006,1.561, 115.10035,4.19
Rb,A2, 10.266,-5955.69015,0.037, 540.99149,4.04
Ta,A2, 6.129,-31233.35499,2.202, 115.12173,1.92
V,A2, 5.550,-1894.77980,1.978, 85.46616,3.68
W,A2, 5.920,-32313.02993,3.017, 103.73430,3.41
fm,Fe_A2, 5.251,-2541.08649,2.221, 72.39138,3.59
C1ES1,A4_ES2, 6.742,-75.63828,4.427, 38.30812,3.53
Ge1ES1,A4_ES2, 10.802,-4192.25015,0.672, 157.55200,4.19
Si1ES1,A4_ES2, 10.326,-578.08283,0.895, 137.61193,4.10
Sn1ES1,A4_ES2, 12.462,-12347.32047,0.439, 241.94737,3.93
CaO,B1, 8.913,-753.72437,1.163, 88.49779,4.77
HfC,B1, 8.722,-15126.51450,2.559, 82.92779,4.07
LiCl,B1, 9.486,-467.72966,0.420, 106.69958,6.80
LiF,B1, 7.524,-106.90334,0.739, 53.23695,3.72
LiH,B1, 7.360,-8.03253,0.411, 49.83273,8.14
MgO,B1, 7.887,-274.53998,1.974, 61.32850,3.94
MgS,B1, 9.798,-597.65048,0.795, 117.58934,4.31
NaCl,B1, 10.448,-622.02215,0.293, 142.55470,4.35
NbC,B1, 8.451,-3854.24512,3.258, 75.45338,4.16
NbN,B1, 8.272,-3870.93728,3.942, 70.74088,4.10
TiC,B1, 8.211,-889.88464,2.654, 69.19497,3.66
TiN,B1, 7.980,-906.61638,3.598, 63.52591,4.25
V1C1,B1, 7.846,-985.27474,3.386, 60.38331,3.76
V1N1,B1, 7.683,-1001.97395,4.103, 56.69004,4.50
ZrC,B1, 8.914,-3633.11452,2.391, 88.52494,4.04
ZrN,B1, 8.692,-3649.84245,3.403, 82.07770,5.31
AlLi,B2, 5.855,-249.34781,0.489, 100.36772,2.47
CoAl,B2, 5.317,-1633.07824,1.998, 75.14765,4.27
CrW,B2, 5.625,-17205.36597,3.021, 88.97403,4.64
FeAl,B2, 5.350,-1512.49366,1.983, 76.57478,3.97
NiAl,B2, 5.385,-1760.32456,1.784, 78.06352,4.11
fm,FeAl_B2, 5.361,-1512.49440,1.931, 77.02313,4.26
AlAsES1ES1,B3_ES, 10.677,-2499.97392,0.777, 152.14481,3.81
AlP1ES1ES1,B3_ES, 10.317,-582.98891,0.898, 137.26685,3.81
B1AsES1ES1,B3_ES, 9.035,-2282.65053,1.455, 92.20543,3.70
B1N1ES1ES1,B3_ES, 6.813,-79.14796,3.990, 39.52635,3.45
B1P1ES1ES1,B3_ES, 8.576,-365.68785,1.750, 78.85579,3.48
GaAsES1ES1,B3_ES, 10.489,-4199.33626,0.832, 144.25132,4.51
GaN1ES1ES1,B3_ES, 8.359,-1995.75503,2.149, 72.99812,4.32
GaP1ES1ES1,B3_ES, 10.091,-2282.35095,0.985, 128.44350,4.30
InAsES1ES1,B3_ES, 11.137,-8136.04564,0.739, 172.66442,4.75
InP1ES1ES1,B3_ES, 10.780,-6219.05364,0.844, 156.57823,4.42
SiC1ES1ES1,B3_ES, 8.262,-326.89046,2.193, 70.49790,3.59
CeO2ES,C1_ES, 10.058,-6005.70380,2.312, 84.80014,4.26
Ti,A3, 5.382,-1703.96449,1.208, 110.22385,3.44
AlLi,L1_0, 7.489,-249.35083,0.485, 105.01979,4.55
AlLi3,L1_2, 7.589,-132.09356,0.290, 109.25332,4.01
LiAl3,L1_2, 7.554,-366.59923,0.656, 107.74629,4.64
AlLi,B32, 11.787,-249.36241,0.541, 102.33974,4.30
