Ag,A1, 7.613,-10624.64786,1.365, 110.29494,5.19
Al,A1, 7.575,-483.84465,0.839, 108.65576,3.48
Au,A1, 7.641,-38074.58390,2.025, 111.54880,5.04
Ca,A1, 10.057,-1357.52903,0.202, 254.28307,3.78
Cu,A1, 6.689,-3304.86916,1.855, 74.83069,4.75
Ir,A1, 7.217,-35695.85577,3.932, 93.97371,4.39
Li,A1, 8.011,-14.83604,0.157, 128.53215,3.10
Pb,A1, 9.025,-41833.99463,0.620, 183.74445,6.57
Pd,A1, 7.348,-10084.42901,1.610, 99.20238,6.67
Pt,A1, 7.372,-36872.60970,2.900, 100.15034,5.44
Rh,A1, 7.148,-9561.16361,3.117, 91.30910,4.00
Sr,A1, 10.971,-6352.18332,0.151, 330.13802,1.74
Th,A1, 8.962,-53045.40827,0.762, 179.97674,3.67
Ti,A1, 7.591,-1703.96733,1.157, 109.36596,3.56
fm,Co_A1, 6.528,-2782.21580,2.894, 69.55594,7.11
fm,Ni_A1, 6.517,-3036.70488,2.354, 69.18760,4.00
Al,A2, 6.039,-483.84046,0.737, 110.10045,4.43
Ba,A2, 9.171,-16265.88807,0.114, 385.64156,2.09
Cr,A2, 5.292,-2097.70798,2.724, 74.08383,3.89
K,A2, 9.608,-1201.18498,0.047, 443.46677,3.72
Li,A2, 6.358,-14.83567,0.156, 128.50218,4.03
Mo,A2, 5.887,-8090.64023,2.643, 102.02367,3.02
Na,A2, 7.668,-323.42534,0.098, 225.42294,7.93
Nb,A2, 6.136,-7632.67365,1.623, 115.49660,3.63
Rb,A2, 10.294,-5955.69011,0.038, 545.47266,3.48
Ta,A2, 6.128,-31233.36247,2.255, 115.07044,1.91
V,A2, 5.554,-1894.78304,2.009, 85.66437,3.60
W,A2, 5.916,-32313.03945,3.091, 103.51344,3.25
fm,Fe_A2, 5.245,-2541.08977,2.063, 72.14348,2.10
C1ES1,A4_ES2, 6.723,-75.63626,4.533, 37.98060,3.41
Ge1ES1,A4_ES2, 10.810,-4192.24547,0.657, 157.90999,4.25
Si1ES1,A4_ES2, 10.299,-578.08059,0.902, 136.54227,3.98
Sn1ES1,A4_ES2, 12.501,-12347.31391,0.429, 244.20839,3.89
CaO,B1, 9.004,-753.68918,0.966, 91.25767,3.97
HfC,B1, 8.725,-15126.50361,2.458, 83.01960,3.64
HfN,B1, 21.922,-15307.14885,62.340, 1316.95291,-2.13
LiCl,B1, 9.596,-467.71731,0.308, 110.44074,5.15
LiF,B1, 7.697,-106.88340,0.665, 57.00409,4.00
LiH,B1, 7.166,-8.03173,12.632, 46.00601,293.86
MgO,B1, 7.940,-274.51991,1.881, 62.56583,4.12
MgS,B1, 9.873,-597.63997,0.824, 120.31320,3.18
NaCl,B1, 10.736,-622.01062,0.215, 154.66396,4.20
NbC,B1, 8.472,-3854.23199,3.128, 75.99809,4.31
NbN,B1, 8.292,-3870.91390,3.708, 71.27517,3.68
TiC,B1, 8.237,-889.87460,2.586, 69.86564,3.39
TiN,B1, 8.006,-906.59374,3.424, 64.14038,4.19
V1C1,B1, 7.871,-985.26672,3.306, 60.96309,3.62
V1N1,B1, 7.707,-1001.95668,3.921, 57.23347,4.48
ZrC,B1, 8.930,-3633.10059,2.311, 89.02405,4.03
ZrN,B1, 8.702,-3649.81502,3.088, 82.35887,4.68
AlLi,B2, 5.845,-249.35118,0.436, 99.82899,4.51
CoAl,B2, 5.312,-1633.08127,2.017, 74.95922,4.32
CrW,B2, 5.622,-17205.37330,3.026, 88.84131,4.51
FeAl,B2, 5.345,-1512.49724,2.003, 76.36240,4.24
NiAl,B2, 5.380,-1760.32696,1.818, 77.85631,4.64
fm,FeAl_B2, 5.356,-1512.49803,1.974, 76.80473,4.27
AlAsES1ES1,B3_ES, 10.660,-2499.96777,0.760, 151.41126,3.99
AlP1ES1ES1,B3_ES, 10.290,-582.98162,0.895, 136.19625,3.87
B1AsES1ES1,B3_ES, 9.022,-2282.64674,1.461, 91.80269,3.70
B1N1ES1ES1,B3_ES, 6.787,-79.13829,4.030, 39.08099,3.54
B1P1ES1ES1,B3_ES, 8.559,-365.68528,1.756, 78.38091,3.52
GaAsES1ES1,B3_ES, 10.485,-4199.33083,0.825, 144.09300,4.50
GaN1ES1ES1,B3_ES, 8.364,-1995.73405,2.079, 73.13548,4.31
GaP1ES1ES1,B3_ES, 10.076,-2282.34517,0.977, 127.87209,4.50
InAsES1ES1,B3_ES, 11.143,-8136.03775,0.723, 172.95679,4.58
InP1ES1ES1,B3_ES, 10.772,-6219.04472,0.830, 156.24730,4.58
SiC1ES1ES1,B3_ES, 8.266,-326.87438,2.177, 70.58707,3.47
CeO2ES,C1_ES, 10.010,-6005.69908,2.531, 83.57981,5.37
Ti,A3, 5.420,-1703.96540,1.244, 112.57741,3.62
AlLi,L1_0, 7.482,-249.35134,0.476, 104.72530,4.38
AlLi3,L1_2, 7.570,-132.09454,0.295, 108.46892,4.11
LiAl3,L1_2, 7.543,-366.60112,0.670, 107.30965,4.46
AlLi,B32, 11.788,-249.36088,0.534, 102.38394,4.12
