Ag,A1, 7.626,-10624.64337,1.321, 110.86847,5.44
Al,A1, 7.593,-483.84030,0.783, 109.43479,4.22
Au,A1, 7.660,-38074.57511,1.996, 112.36686,5.11
Ca,A1, 10.007,-1357.52827,0.191, 250.52886,3.41
Cu,A1, 6.699,-3304.86446,1.818, 75.14425,4.74
fm,Co_A1, 6.531,-2782.21138,2.530, 69.65226,4.91
fm,Ni_A1, 6.524,-3036.70041,2.386, 69.43444,4.66
Ir,A1, 7.245,-35695.84187,3.930, 95.07501,4.46
Li,A1, 8.013,-14.83537,0.149, 128.60802,3.16
Pb,A1, 9.053,-41833.98652,0.611, 185.48829,5.16
Pd,A1, 7.328,-10084.42387,2.181, 98.36496,4.77
Pt,A1, 7.395,-36872.59893,2.997, 101.09785,4.83
Rh,A1, 7.167,-9561.15747,3.020, 92.01794,4.42
Sr,A1, 10.871,-6352.18358,0.150, 321.16591,3.31
Th,A1, 9.015,-53045.39440,0.746, 183.16444,3.32
Ti,A1, 7.564,-1703.96575,1.125, 108.18151,3.16
Al,A2, 6.058,-483.83634,0.715, 111.14160,4.33
Ba,A2, 8.589,-16265.89667,0.046, 316.75881,-1.86
Cr,A2, 5.292,-2097.70458,2.855, 74.12124,4.67
fm,Fe_A2, 5.248,-2541.08623,2.235, 72.26234,4.37
K,A2, 9.505,-1201.18575,0.045, 429.34722,3.84
Li,A2, 6.361,-14.83505,0.153, 128.71017,3.45
Mo,A2, 5.902,-8090.63264,2.671, 102.81148,2.86
Na,A2, 7.662,-323.42526,0.091, 224.94484,3.45
Nb,A2, 6.133,-7632.66977,1.575, 115.33304,3.98
Rb,A2, 10.095,-5955.69180,0.035, 514.37725,3.65
Ta,A2, 6.145,-31233.34323,2.199, 116.03303,2.34
V,A2, 5.542,-1894.78134,1.966, 85.09410,3.23
W,A2, 5.944,-32313.02480,3.063, 104.98180,3.49
C1ES1,A4_ES2, 6.757,-75.62972,4.414, 38.56099,3.46
Ge1ES1,A4_ES2, 10.761,-4192.24986,0.683, 155.75089,4.13
Si1ES1,A4_ES2, 10.341,-578.07886,0.881, 138.21589,4.05
Sn1ES1,A4_ES2, 12.357,-12347.32383,0.447, 235.83797,3.93
AlLi,B1, 10.122,-249.31021,0.253, 129.61924,4.04
CaO,B1, 8.615,-753.74750,1.250, 79.91187,5.21
HfC,B1, 8.723,-15126.50977,2.552, 82.95910,4.09
HfN,B1, 8.503,-15143.25374,3.344, 76.84046,4.22
LiCl,B1, 9.256,-467.73978,0.472, 99.13646,6.25
LiF,B1, 7.408,-106.95227,1.056, 50.82654,8.74
LiH,B1, 7.346,-8.03293,0.438, 49.55964,4.37
MgO,B1, 7.879,-274.54033,1.932, 61.13654,4.14
MgS,B1, 9.794,-597.65040,0.815, 117.43188,3.83
NaCl,B1, 10.217,-622.02912,0.299, 133.30299,4.24
NaF,B1, 8.486,-261.19098,0.539, 76.37373,4.58
NbC,B1, 8.455,-3854.24439,3.241, 75.56460,4.29
NbN,B1, 8.282,-3870.93565,3.938, 71.00160,4.05
TiC,B1, 8.191,-889.88646,2.618, 68.70193,3.30
TiN,B1, 7.966,-906.61788,3.564, 63.19885,4.17
V1C1,B1, 7.837,-985.27587,3.372, 60.15807,3.68
V1N1,B1, 7.676,-1001.97479,4.080, 56.52792,4.56
ZrC,B1, 8.901,-3633.11539,2.339, 88.14885,3.71
ZrN,B1, 8.687,-3649.84238,3.320, 81.95477,4.94
AlLi,B2, 5.855,-249.34787,0.435, 100.33709,4.18
CoAl,B2, 5.316,-1633.07780,1.999, 75.10368,4.32
CrW,B2, 5.636,-17205.36375,3.027, 89.49852,4.61
FeAl,B2, 5.348,-1512.49345,1.984, 76.49699,4.21
fm,FeAl_B2, 5.359,-1512.49422,1.953, 76.93882,4.31
NiAl,B2, 5.384,-1760.32390,1.791, 78.02596,4.56
AlAsES1ES1,B3_ES, 10.680,-2499.97193,0.773, 152.27662,3.79
AlP1ES1ES1,B3_ES, 10.323,-582.98669,0.901, 137.52685,3.73
B1AsES1ES1,B3_ES, 9.041,-2282.64700,1.447, 92.36545,3.67
B1N1ES1ES1,B3_ES, 6.827,-79.14189,3.954, 39.77495,3.44
B1P1ES1ES1,B3_ES, 8.592,-365.68326,1.718, 79.28793,3.52
GaAsES1ES1,B3_ES, 10.513,-4199.33010,0.824, 145.24518,4.47
GaN1ES1ES1,B3_ES, 8.384,-1995.74586,2.103, 73.67130,4.31
GaP1ES1ES1,B3_ES, 10.122,-2282.34415,0.978, 129.63837,4.19
InAsES1ES1,B3_ES, 11.174,-8136.03846,0.722, 174.37638,4.94
InP1ES1ES1,B3_ES, 10.822,-6219.04583,0.823, 158.44954,4.60
SiC1ES1ES1,B3_ES, 8.270,-326.88552,2.173, 70.70464,3.58
CeO2ES,C1_ES, 10.110,-6005.69753,2.350, 86.11437,4.86
AlLi3,L1_2, 7.584,-132.09363,0.289, 109.04867,3.96
AlLi,L1_0, 7.488,-249.35087,0.481, 104.95443,3.98
LiAl3,L1_2, 7.553,-366.59921,0.656, 107.71277,4.62
AlLi,B32, 11.785,-249.36244,0.543, 102.29152,3.94
