Ag,A1, 7.613,-10624.64635,1.339, 110.29882,5.49
Al,A1, 7.577,-483.84456,0.799, 108.73400,4.26
Au,A1, 7.644,-38074.58203,2.017, 111.65984,5.20
Ca,A1, 10.007,-1357.53014,0.195, 250.55890,3.46
Cu,A1, 6.689,-3304.86750,1.872, 74.82313,4.43
fm,Co_A1, 6.525,-2782.21507,2.557, 69.44319,4.99
fm,Ni_A1, 6.517,-3036.70375,2.399, 69.18282,4.58
Ir,A1, 7.232,-35695.85231,3.990, 94.55656,4.48
Li,A1, 8.010,-14.83606,0.150, 128.47506,3.16
Pb,A1, 9.030,-41833.99216,0.625, 184.09678,5.18
Pd,A1, 7.314,-10084.42735,2.257, 97.81241,4.68
Pt,A1, 7.377,-36872.60753,3.109, 100.38334,4.72
Rh,A1, 7.158,-9561.16223,3.057, 91.67170,4.44
Sr,A1, 10.879,-6352.18530,0.154, 321.90244,3.45
Th,A1, 8.983,-53045.40660,0.775, 181.23964,3.52
Ti,A1, 7.572,-1703.96908,1.144, 108.54864,3.09
Al,A2, 6.038,-483.84038,0.736, 110.09217,4.43
Ba,A2, 8.831,-16265.89507,0.076, 344.33784,-0.03
Cr,A2, 5.294,-2097.70804,2.787, 74.18492,4.10
fm,Fe_A2, 5.245,-2541.08941,2.205, 72.13987,3.84
K,A2, 9.521,-1201.18589,0.046, 431.54904,3.85
Li,A2, 6.356,-14.83570,0.154, 128.41747,3.47
Mo,A2, 5.907,-8090.63694,2.724, 103.03743,2.96
Na,A2, 7.662,-323.42566,0.092, 224.89499,3.54
Nb,A2, 6.149,-7632.67240,1.601, 116.24609,3.89
Rb,A2, 10.133,-5955.69167,0.036, 520.20135,3.67
Ta,A2, 6.149,-31233.34999,2.220, 116.24297,2.55
V,A2, 5.549,-1894.78417,2.003, 85.41607,3.27
W,A2, 5.943,-32313.03354,3.159, 104.94444,3.36
C1ES1,A4_ES2, 6.737,-75.62980,4.477, 38.21778,3.46
Ge1ES1,A4_ES2, 10.764,-4192.24657,0.678, 155.91131,4.13
Si1ES1,A4_ES2, 10.309,-578.07839,0.885, 136.93696,4.19
Sn1ES1,A4_ES2, 12.403,-12347.31822,0.430, 238.47726,4.08
AlLi,B1, 10.080,-249.31356,0.261, 128.03630,4.06
CaO,B1, 8.784,-753.70513,1.086, 84.71007,5.27
HfC,B1, 8.733,-15126.49834,2.490, 83.25704,4.00
HfN,B1, 8.518,-15143.22494,3.137, 77.25008,4.29
LiCl,B1, 9.372,-467.72564,0.369, 102.88468,6.06
LiF,B1, 7.501,-106.94306,1.030, 52.76236,4.22
LiH,B1, 7.364,-8.03008,0.419, 49.92230,3.28
MgO,B1, 7.932,-274.52025,1.833, 62.37818,4.33
MgS,B1, 9.866,-597.63992,0.860, 120.05368,2.77
NaCl,B1, 10.528,-622.01603,0.228, 145.85117,3.96
NaF,B1, 8.588,-261.17707,0.494, 79.16969,3.89
NbC,B1, 8.488,-3854.23013,3.151, 76.44308,4.25
NbN,B1, 8.313,-3870.91106,3.756, 71.81231,3.77
TiC,B1, 8.224,-889.87590,2.560, 69.53608,3.35
TiN,B1, 7.999,-906.59461,3.404, 63.96890,4.03
V1C1,B1, 7.868,-985.26724,3.314, 60.88113,3.61
V1N1,B1, 7.706,-1001.95696,3.939, 57.20336,4.45
ZrC,B1, 8.929,-3633.10057,2.290, 88.98529,3.92
ZrN,B1, 8.710,-3649.81362,3.082, 82.59776,4.76
AlLi,B2, 5.843,-249.35124,0.430, 99.71691,4.66
CoAl,B2, 5.311,-1633.08080,2.023, 74.92401,4.43
CrW,B2, 5.636,-17205.37053,3.076, 89.53272,4.65
FeAl,B2, 5.344,-1512.49698,2.001, 76.29816,4.49
fm,FeAl_B2, 5.355,-1512.49777,1.981, 76.78886,4.10
NiAl,B2, 5.378,-1760.32627,1.832, 77.77759,5.21
AlAsES1ES1,B3_ES, 10.656,-2499.96724,0.771, 151.26692,3.83
AlP1ES1ES1,B3_ES, 10.293,-582.98097,0.894, 136.31653,3.87
B1AsES1ES1,B3_ES, 9.024,-2282.64498,1.445, 91.84648,3.80
B1N1ES1ES1,B3_ES, 6.800,-79.13419,4.021, 39.30154,3.37
B1P1ES1ES1,B3_ES, 8.570,-365.68243,1.750, 78.66650,3.46
GaAsES1ES1,B3_ES, 10.504,-4199.32606,0.812, 144.86005,4.55
GaN1ES1ES1,B3_ES, 8.385,-1995.72747,2.046, 73.67901,4.44
GaP1ES1ES1,B3_ES, 10.102,-2282.33990,0.970, 128.86185,4.30
InAsES1ES1,B3_ES, 11.174,-8136.03196,0.712, 174.39052,4.55
InP1ES1ES1,B3_ES, 10.808,-6219.03845,0.817, 157.82873,4.53
SiC1ES1ES1,B3_ES, 8.270,-326.87206,2.154, 70.69562,3.56
CeO2ES,C1_ES, 10.048,-6005.69961,2.426, 84.53267,4.96
AlLi3,L1_2, 7.565,-132.09461,0.294, 108.25445,4.12
AlLi,L1_0, 7.481,-249.35138,0.478, 104.66642,4.01
LiAl3,L1_2, 7.542,-366.60109,0.671, 107.25875,4.47
AlLi,B32, 11.786,-249.36090,0.536, 102.31686,3.95
