Ag,A1, 7.626,-10624.64485,1.354, 110.85640,5.10
Al,A1, 7.590,-483.84038,0.809, 109.30647,3.98
Au,A1, 7.659,-38074.57696,1.976, 112.32692,5.08
Ca,A1, 10.058,-1357.52713,0.196, 254.38112,3.51
Co,A1, 6.427,-2782.20660,3.001, 66.35531,5.02
Cu,A1, 6.700,-3304.86611,1.810, 75.19250,4.81
Ir,A1, 7.232,-35695.84501,3.870, 94.55695,4.38
Li,A1, 8.014,-14.83535,0.155, 128.64935,3.62
Ni,A1, 6.512,-3036.69821,2.378, 69.04759,4.60
Pb,A1, 9.049,-41833.98899,0.601, 185.22347,6.26
Pd,A1, 7.325,-10084.42491,2.205, 98.26575,4.59
Pt,A1, 7.387,-36872.60091,3.027, 100.75885,4.62
Rh,A1, 7.161,-9561.15866,2.984, 91.80608,4.39
Sr,A1, 10.966,-6352.18159,0.160, 329.69360,3.52
Th,A1, 9.002,-53045.39595,0.744, 182.40022,3.39
Ti,A1, 7.588,-1703.96375,1.147, 109.23745,3.32
Al,A2, 6.058,-483.83642,0.719, 111.16740,4.16
Ba,A2, 9.126,-16265.88816,0.114, 380.03764,1.32
Cr,A2, 5.293,-2097.70410,2.783, 74.15785,4.28
Fe,A2, 5.125,-2541.06516,3.244, 67.32346,7.21
K,A2, 9.588,-1201.18478,0.043, 440.66413,5.57
Li,A2, 6.364,-14.83501,0.154, 128.87199,3.64
Mo,A2, 5.887,-8090.63504,2.600, 102.00994,3.09
Na,A2, 7.677,-323.42496,0.098, 226.26233,5.42
Nb,A2, 6.129,-7632.67006,1.561, 115.10035,4.19
Rb,A2, 10.266,-5955.69015,0.037, 540.99149,4.04
Ta,A2, 6.129,-31233.35499,2.202, 115.12173,1.92
V,A2, 5.550,-1894.77980,1.981, 85.46013,3.80
W,A2, 5.920,-32313.02993,3.017, 103.73430,3.41
C1ES1,A4_ES2, 6.742,-75.63828,4.427, 38.30812,3.53
Ge1ES1,A4_ES2, 10.802,-4192.25015,0.672, 157.55200,4.19
Si1ES1,A4_ES2, 10.326,-578.08283,0.895, 137.61193,4.10
Sn1ES1,A4_ES2, 12.462,-12347.32047,0.439, 241.94737,3.93
AlLi,B1, 10.125,-249.31018,0.265, 129.74065,3.53
CaO,B1, 8.620,-753.82943,1.995, 80.06525,6.52
HfC,B1, 8.722,-15126.51450,2.559, 82.92779,4.07
HfN,B1, 8.593,-15145.45941,1.738, 79.32274,6.92
LiCl,B1, 9.489,-467.72963,0.378, 106.81609,4.40
LiF,B1, 7.529,-106.90336,0.688, 53.35193,4.46
LiH,B1, 7.360,-8.03253,0.411, 49.83277,8.14
MgO,B1, 7.887,-274.53998,1.974, 61.32867,3.94
MgS,B1, 9.798,-597.65048,0.795, 117.58637,4.30
NaCl,B1, 10.449,-622.02215,0.289, 142.59620,4.45
NbC,B1, 8.451,-3854.24512,3.258, 75.45338,4.16
NbN,B1, 8.272,-3870.93728,3.942, 70.74075,4.11
TiC,B1, 8.211,-889.88464,2.654, 69.19478,3.65
TiN,B1, 7.980,-906.61638,3.598, 63.52591,4.25
V1C1,B1, 7.846,-985.27474,3.386, 60.38331,3.76
V1N1,B1, 7.683,-1001.97395,4.103, 56.69004,4.50
ZrC,B1, 8.915,-3633.11452,2.378, 88.58145,3.57
ZrN,B1, 8.691,-3649.84245,3.377, 82.06767,5.16
AlLi,B2, 5.855,-249.34781,0.489, 100.36787,2.48
CoAl,B2, 5.317,-1633.07824,2.009, 75.14454,4.16
CrW,B2, 5.625,-17205.36597,3.021, 88.97403,4.64
FeAl,B2, 5.350,-1512.49366,1.982, 76.55496,4.15
NiAl,B2, 5.385,-1760.32456,1.784, 78.06352,4.11
fm,FeAl_B2, 5.361,-1512.49446,1.957, 77.03366,3.94
AlAsES1ES1,B3_ES, 10.677,-2499.97392,0.777, 152.14481,3.81
AlP1ES1ES1,B3_ES, 10.317,-582.98891,0.898, 137.26685,3.81
B1AsES1ES1,B3_ES, 9.035,-2282.65053,1.455, 92.20543,3.70
B1N1ES1ES1,B3_ES, 6.813,-79.14796,3.990, 39.52635,3.45
B1P1ES1ES1,B3_ES, 8.576,-365.68785,1.750, 78.85624,3.48
GaAsES1ES1,B3_ES, 10.489,-4199.33626,0.832, 144.25132,4.51
GaN1ES1ES1,B3_ES, 8.359,-1995.75503,2.149, 72.99812,4.32
GaP1ES1ES1,B3_ES, 10.091,-2282.35095,0.985, 128.44350,4.30
InAsES1ES1,B3_ES, 11.137,-8136.04564,0.739, 172.66442,4.75
InP1ES1ES1,B3_ES, 10.780,-6219.05364,0.844, 156.57823,4.42
SiC1ES1ES1,B3_ES, 8.262,-326.89046,2.193, 70.49790,3.59
CeO2ES,C1_ES, 10.058,-6005.70380,2.312, 84.80014,4.26
Ti,A3, 5.382,-1703.96449,1.208, 110.22385,3.44
AlLi,L1_0, 7.489,-249.35083,0.485, 105.01979,4.55
AlLi3,L1_2, 7.589,-132.09356,0.290, 109.25332,4.01
LiAl3,L1_2, 7.554,-366.59923,0.656, 107.74629,4.64
AlLi,B32, 11.787,-249.36241,0.541, 102.33974,4.30
