Ag,A1, 7.632,-10624.64394,1.360, 111.15458,4.89
Al,A1, 7.600,-483.83826,0.846, 109.75418,3.32
Au,A1, 7.675,-38074.57356,1.983, 113.02520,4.96
Ca,A1, 10.051,-1357.52652,0.171, 253.88209,0.48
Co,A1, 6.432,-2782.20519,2.985, 66.52224,5.00
Cu,A1, 6.705,-3304.86518,1.836, 75.36427,4.57
Ir,A1, 7.251,-35695.83771,3.848, 95.32254,4.37
Li,A1, 8.007,-14.83521,0.157, 128.31864,0.08
Ni,A1, 6.518,-3036.69729,2.457, 69.21816,4.87
Pb,A1, 9.073,-41833.98675,0.587, 186.71677,6.39
Pd,A1, 7.332,-10084.42397,2.186, 98.52041,4.68
Pt,A1, 7.403,-36872.59585,3.045, 101.41072,4.55
Rh,A1, 7.169,-9561.15690,2.972, 92.12363,4.39
Sr,A1, 10.954,-6352.18035,0.152, 328.58382,3.52
Th,A1, 9.060,-53045.38940,0.775, 185.93676,3.87
Ti,A1, 7.589,-1703.96285,1.140, 109.27614,3.09
Al,A2, 6.065,-483.83513,0.700, 111.52991,4.48
Ba,A2, 9.074,-16265.88802,0.103, 373.59891,-0.18
Cr,A2, 5.294,-2097.70305,2.725, 74.19282,4.06
Fe,A2, 5.134,-2541.06460,3.091, 67.67005,4.84
K,A2, 9.604,-1201.18458,0.046, 442.87225,3.87
Li,A2, 6.357,-14.83500,0.152, 128.42398,2.96
Mo,A2, 5.889,-8090.63343,2.566, 102.11242,2.74
Na,A2, 7.685,-323.42483,0.093, 226.97457,4.05
Nb,A2, 6.122,-7632.66977,1.523, 114.73032,3.82
Rb,A2, 10.287,-5955.68985,0.039, 544.23446,3.47
Ta,A2, 6.134,-31233.35212,2.103, 115.38718,2.36
V,A2, 5.548,-1894.77982,1.977, 85.37896,3.15
W,A2, 5.929,-32313.02476,3.008, 104.19334,2.84
C1ES1,A4_ES2, 6.785,-75.62459,4.428, 39.04785,3.38
Ge1ES1,A4_ES2, 10.873,-4192.24202,0.709, 160.67695,3.76
Si1ES1,A4_ES2, 10.361,-578.07811,0.880, 139.04702,4.22
Sn1ES1,A4_ES2, 12.557,-12347.31357,0.437, 247.51252,3.97
AlLi,B1, 10.234,-249.31182,0.207, 133.99758,5.50
CaO,B1, 8.973,-753.71619,1.142, 90.32167,5.39
HfC,B1, 8.799,-15126.49236,2.466, 85.15311,3.69
HfN,B1, 8.477,-15145.47955,1.744, 76.13226,4.00
LiCl,B1, 9.518,-467.72975,0.381, 107.78877,6.03
LiF,B1, 7.560,-106.90220,0.733, 54.00382,3.03
LiH,B1, 7.417,-8.02959,0.382, 51.00080,5.81
MgO,B1, 7.918,-274.51993,1.890, 62.06106,3.99
MgS,B1, 9.729,-597.65691,0.907, 115.11801,3.71
NaCl,B1, 10.499,-622.02297,0.284, 144.65161,4.16
NaF,B1, 8.749,-261.18040,0.487, 83.71069,4.00
NbC,B1, 0.436,-3854.81658,2.710, 0.01035,2.42
NbN,B1, 0.672,-3871.56711,3.183, 0.03796,2.49
TiC,B1, 8.272,-889.86832,2.623, 70.76256,3.82
TiN,B1, 8.058,-906.58354,3.428, 65.39328,4.23
V1C1,B1, 7.911,-985.25576,3.341, 61.88676,3.60
V1N1,B1, 7.761,-1001.94134,3.936, 58.43374,4.10
ZrC,B1, 1.033,-3633.62437,4.005, 0.13796,4.84
ZrN,B1, 0.029,-3650.43644,1.587, 0.00000,1.55
AlLi,B2, 5.871,-249.34641,0.423, 101.16326,4.29
CoAl,B2, 5.321,-1633.07732,2.015, 75.31345,3.75
CrW,B2, 5.630,-17205.36212,2.955, 89.21639,4.51
FeAl,B2, 5.352,-1512.49283,1.979, 76.65621,4.05
NiAl,B2, 5.388,-1760.32381,1.798, 78.20310,4.64
fm,FeAl_B2, 5.363,-1512.49363,1.960, 77.12841,4.23
AlAsES1ES1,B3_ES, 10.663,-2499.99952,0.782, 151.53429,4.50
AlP1ES1ES1,B3_ES, 10.304,-583.01443,0.964, 136.74573,3.73
B1AsES1ES1,B3_ES, 9.062,-2282.67444,1.490, 93.02259,3.96
B1N1ES1ES1,B3_ES, 6.850,-79.16317,4.095, 40.18402,3.32
B1P1ES1ES1,B3_ES, 8.600,-365.71307,1.824, 79.50158,3.49
GaAsES1ES1,B3_ES, 10.422,-4199.36700,0.928, 141.51293,4.51
GaN1ES1ES1,B3_ES, 8.376,-1995.77024,2.202, 73.44956,4.39
GaP1ES1ES1,B3_ES, 10.035,-2282.38241,1.083, 126.31580,4.00
InAsES1ES1,B3_ES, 11.030,-8136.08029,0.811, 167.76000,3.88
InP1ES1ES1,B3_ES, 10.682,-6219.08887,0.942, 152.35514,4.53
SiC1ES1ES1,B3_ES, 8.303,-326.91000,2.269, 71.56359,3.40
CeO2ES,C1_ES, 10.102,-6005.70730,2.423, 85.91027,4.48
Ti,A3, 5.384,-1703.96410,1.166, 110.34147,3.11
AlLi,L1_0, 7.513,-249.34914,0.483, 106.01753,3.92
AlLi3,L1_2, 7.640,-132.09160,0.289, 111.48539,1.25
LiAl3,L1_2, 7.578,-366.59694,0.669, 108.77422,3.99
AlLi,B32, 11.836,-249.36090,0.534, 103.62115,3.98
