('number of tests: ', 71, '       av.Err: ', '0.71')
('           good: ', 63, ' av.Err(good): ', '0.63')
('             ok: ', 5, '   av.Err(ok): ', '1.80')
('           fail: ', 2)
('      no golden: ', 1)
test.xxx_12/LOGS/Ba_A2.xyz_xc10_asa=12.log:  a0= -9.936 Bohr  E0=   -16265.89609 Ry  B0=    0.001 Mbar  B0'=     4.00  V0= -490.40739 :MURNAGHAN
test.xxx_12/LOGS/Ba_A2.xyz_xc10_asa=12.log:  a0=  9.443 Bohr  E0=   -16265.89174 Ry  B0=   -0.605 Mbar  B0'=   -35.51  V0=  420.99182 :VINET
