chem. ID,str. ID,"a, Bohr","Etot, Ry",B0,"V, Bohr^3",B0',"a, A", ,"err(gold), %","err(exp), %", ,"a_gold, A","a_Exp, A"
Ag,A1,7.611,-10624.64701,1.36,110.223,5.31,4.028,,0.5,-0.8,,4.007,4.062
Al,A1,7.576, -483.84459,0.80,108.723,4.25,4.009,,0.7,-0.2,,3.983,4.019
Au,A1,7.643,-38074.58262,2.02,111.618,5.17,4.044,,-0.1,-0.4,,4.047,4.062
Ca,A1,10.007,-1357.53014,0.19,250.547,3.45,5.295,,-0.7,-4.7,,5.333,5.556
Cu,A1,6.688,-3304.86800,1.84,74.780,4.80,3.539,,0.5,-1.6,,3.522,3.596
Ir,A1,7.231,-35695.85269,3.99,94.532,4.50,3.826,,-0.0,-0.1,,3.828,3.831
Li,A1,8.010,  -14.83606,0.15,128.472,3.18,4.239,,0.2,-2.3,,4.231,4.338
Pb,A1,9.030,-41833.99608,0.63,184.064,5.16,4.778,,-2.0,-2.7,,4.874,4.912
Pd,A1,7.318,-10084.42778,2.19,97.981,4.84,3.873,,0.6,-0.1,,3.848,3.876
Pt,A1,7.378,-36872.60794,3.07,100.386,4.86,3.904,,-0.1,-0.2,,3.909,3.913
Rh,A1,7.157,-9561.16251,3.05,91.657,4.48,3.787,,0.8,-0.1,,3.759,3.793
Sr,A1,10.879,-6352.18531,0.15,321.912,3.48,5.757,,-0.5,-4.7,,5.786,6.040
Th,A1,8.981,-53045.40789,0.76,181.095,3.43,4.753,,-3.4,-6.3,FAIL,4.920,5.071
Ti,A1,7.572,-1703.96911,1.14,108.526,3.20,4.007,,-0.2,,,4.016,
fm,Co_A1,6.525,-2782.21532,2.56,69.436,5.04,3.453,,-1.3,-2.4,,3.500,3.538
fm,Ni_A1,6.515,-3036.70408,2.42,69.141,4.77,3.448,,0.7,-1.7,,3.423,3.508
Al,A2,6.038, -483.84040,0.74,110.083,4.45,3.195,,0.7,,,3.172,
Ba,A2,8.830,-16265.89508,0.08,344.194,-0.14,4.673,,-1.7,-6.6,,4.754,5.002
Cr,A2,5.294,-2097.70816,2.85,74.176,4.54,2.801,,0.0,-3.7,,2.801,2.910
K,A2,9.521,-1201.18589,0.05,431.536,3.86,5.038,,-0.1,-3.3,,5.045,5.212
Li,A2,6.356,  -14.83570,0.15,128.417,3.47,3.363,,0.0,-2.5,,3.363,3.451
Mo,A2,5.906,-8090.63705,2.73,103.020,2.96,3.125,,0.3,-0.5,,3.116,3.141
Na,A2,7.661, -323.42566,0.09,224.790,3.81,4.054,,0.2,-3.7,,4.047,4.209
Nb,A2,6.149,-7632.67246,1.60,116.233,3.88,3.254,,0.1,-1.2,,3.250,3.294
Rb,A2,10.133,-5955.69167,0.04,520.160,3.68,5.362,,-0.2,-3.9,,5.374,5.577
Ta,A2,6.152,-31233.36723,2.17,116.408,2.75,3.255,,-0.0,-1.3,,3.257,3.299
V,A2,5.548,-1894.78421,2.00,85.399,3.28,2.936,,0.1,-2.9,,2.932,3.024
W,A2,5.943,-32313.03366,3.12,104.945,3.54,3.145,,0.1,-0.5,,3.143,3.160
fm,Fe_A2,5.244,-2541.08960,2.24,72.097,4.30,2.775,,0.8,-2.7,,2.754,2.853
C,A4_ES2,6.737,  -75.62985,4.49,38.221,3.38,3.565,,0.8,0.6,,3.536,3.544
Ge,A4_ES2,10.765,-4192.24655,0.67,155.927,4.25,5.697,,1.1,1.0,,5.632,5.639
Si,A4_ES2,10.308, -578.07839,0.89,136.901,4.18,5.455,,0.9,0.7,,5.407,5.415
Sn,A4_ES2,12.403,-12347.31820,0.43,238.515,3.99,6.563,,1.3,1.4,,6.481,6.474
CaO,B1,8.784, -753.70510,1.08,84.715,5.25,4.648,,-1.5,-2.9,,4.719,4.787
HfC,B1,8.738,-15126.50274,2.47,83.394,4.02,4.624,,1.0,-0.1,,4.578,4.627
HfN,B1,8.519,-15143.23030,3.27,77.290,3.82,4.508,,0.6,-0.1,,4.482,4.512
LiCl,B1,9.369, -467.72560,0.34,102.801,4.27,4.958,,-0.6,-2.3,,4.986,5.072
LiF,B1,7.501, -106.94322,1.04,52.751,4.07,3.969,,1.3,0.2,,3.919,3.960
LiH,B1,7.382,   -8.02997,0.46,50.280,4.10,3.906,,-0.5,-2.6,,3.927,4.010
MgO,B1,7.930, -274.52040,1.89,62.325,4.02,4.196,,0.7,0.2,,4.169,4.186
MgS,B1,9.870, -597.64003,0.82,120.176,3.21,5.223,,1.6,0.8,,5.139,5.182
NaCl,B1,10.523, -622.01600,0.23,145.656,3.81,5.569,,1.5,0.1,,5.484,5.565
NaF,B1,8.591, -261.17709,0.50,79.270,3.73,4.546,,0.9,-0.7,,4.507,4.576
NbC,B1,8.496,-3854.22825,3.16,76.648,3.84,4.496,,1.4,0.8,,4.432,4.462
NbN,B1,8.317,-3870.90972,3.82,71.916,4.43,4.401,,0.9,0.4,,4.361,4.383
TiC,B1,8.225, -889.87603,2.56,69.545,3.26,4.352,,2.0,0.8,,4.266,4.317
TiN,B1,7.998, -906.59484,3.41,63.950,4.06,4.232,,1.3,0.1,,4.178,4.228
VC,B1,7.868, -985.26744,3.29,60.877,3.72,4.164,,1.7,0.4,,4.095,4.148
VN,B1,7.705,-1001.95729,3.94,57.172,4.46,4.077,,0.7,-1.2,,4.050,4.126
ZrC,B1,8.929,-3633.10064,2.29,88.986,3.91,4.725,,1.7,0.8,,4.647,4.688
ZrN,B1,8.709,-3649.81372,3.06,82.572,4.53,4.609,,1.7,0.8,,4.532,4.574
AlLi,B2,5.840, -249.35122,0.50,99.572,3.24,3.090,,-0.0,,,3.091,
CoAl,B2,5.311,-1633.08094,2.02,74.891,4.54,2.810,,0.6,-1.6,,2.795,2.855
CrW,B2,5.634,-17205.37093,3.04,89.438,4.52,2.981,,0.0,,,2.980,
NiAl,B2,5.381,-1760.32632,1.80,77.925,4.46,2.848,,0.5,-1.2,,2.834,2.882
fm,FeAl_B2,5.357,-1512.49770,1.92,76.852,2.59,2.835,,0.8,-1.6,,2.812,2.882
AlAs,B3_ES,10.656,-2499.96713,0.78,151.237,3.73,5.639,,0.1,-0.1,,5.636,5.646
AlP,B3_ES,10.292, -582.98096,0.90,136.277,3.82,5.446,,0.1,0.0,,5.440,5.445
BAs,B3_ES,9.022,-2282.64578,1.46,91.787,3.68,4.774,,0.7,0.3,,4.740,4.760
BN,B3_ES,6.800,  -79.13417,3.94,39.301,3.70,3.598,,0.4,0.4,,3.585,3.585
BP,B3_ES,8.570, -365.68253,1.74,78.687,3.47,4.535,,0.9,0.3,,4.496,4.520
GaAs,B3_ES,10.503,-4199.32778,0.81,144.817,4.63,5.558,,-1.0,-1.4,,5.616,5.637
GaN,B3_ES,8.385,-1995.73004,2.05,73.700,4.35,4.437,,-0.6,-1.8,,4.463,4.520
GaP,B3_ES,10.102,-2282.34172,0.97,128.858,4.30,5.346,,-1.0,-1.6,,5.401,5.435
InAs,B3_ES,11.174,-8136.03397,0.71,174.405,4.74,5.913,,-2.1,-2.2,,6.038,6.044
InP,B3_ES,10.809,-6219.04128,0.81,157.850,4.60,5.720,,-2.0,-2.3,,5.839,5.856
SiC,B3_ES,8.270, -326.87215,2.15,70.703,3.59,4.376,,1.0,0.8,,4.333,4.340
CeO2,C1_ES,10.044,-6005.69956,2.76,84.441,6.26,5.315,,-1.0,-1.4,,5.371,5.393
AlLi,L1_0,7.478, -249.35148,0.48,104.538,4.25,3.957,,0.2,,,3.950,
AlLi3,L1_2,7.566, -132.09459,0.29,108.269,3.96,4.004,,-1.0,,,4.043,
LiAl3,L1_2,7.542, -366.60110,0.67,107.252,4.40,3.991,,0.4,0.5,,3.974,3.973
AlLi,B32,11.786, -249.36090,0.54,102.327,3.89,6.237,,,-2.0,NO_INFO,,6.361
