C1ES1,A4_ES2, 6.737,-75.62985,4.493, 38.22147,3.38
Ge1ES1,A4_ES2, 10.765,-4192.24655,0.670, 155.92659,4.25
Si1ES1,A4_ES2, 10.308,-578.07839,0.886, 136.90138,4.18
Sn1ES1,A4_ES2, 12.403,-12347.31820,0.431, 238.51503,3.99
