AlLi,B1, 10.202,-249.78098,0.266, 132.72661,3.08
CaO,B1, 8.924,-754.68317,0.901, 88.82150,4.74
HfC,B1, 8.820,-15132.35288,2.474, 85.78038,0.09
HfN,B1, 8.642,-15149.11047,1.773, 80.68169,7.35
LiCl,B1, 9.581,-468.38825,0.284, 109.92134,2.07
LiF,B1, 7.603,-107.21905,1.052, 54.92856,3.07
LiH,B1, 7.464,-8.06700,0.320, 51.97916,1.85
MgO,B1, 8.011,-275.09161,1.741, 64.27510,4.33
MgS,B1, 9.959,-598.58842,0.799, 123.46306,3.12
NaCl,B1, 10.759,-622.97387,0.234, 155.65863,3.17
NaF,B1, 8.838,-261.74802,0.395, 86.29145,5.19
NbC,B1, 8.536,-3856.46032,3.068, 77.74848,3.70
NbN,B1, 8.356,-3873.17153,3.627, 72.94116,4.08
TiC,B1, 8.282,-890.89047,2.438, 71.01773,3.59
TiN,B1, 8.049,-907.63928,3.208, 65.19103,4.20
V1C1,B1, 7.918,-986.33225,3.249, 62.05198,3.32
V1N1,B1, 7.756,-1003.05247,3.760, 58.32572,4.15
ZrC,B1, 8.977,-3635.26128,2.189, 90.43147,4.03
ZrN,B1, 8.752,-3652.00411,2.928, 83.78993,4.59
