AlLi,B2, 5.907,-249.81788,0.493, 103.07985,3.10
CoAl,B2, 5.365,-1634.66584,1.889, 77.21096,3.89
CrW,B2, 5.678,-17212.50343,3.150, 91.51941,5.68
FeAl,B2, 5.396,-1514.02545,1.898, 78.55750,3.73
NiAl,B2, 5.436,-1761.97079,1.675, 80.31728,4.42
fm,FeAl_B2, 5.408,-1514.02648,1.847, 79.09715,3.88
