AlAsES1ES1,B3_ES, 10.681,-2499.97191,0.768, 152.33141,3.85
AlP1ES1ES1,B3_ES, 10.325,-582.98666,0.891, 137.57876,3.86
B1AsES1ES1,B3_ES, 9.039,-2282.64786,1.445, 92.31254,3.71
B1N1ES1ES1,B3_ES, 6.827,-79.14187,3.925, 39.77551,3.53
B1P1ES1ES1,B3_ES, 8.592,-365.68335,1.731, 79.27922,3.42
GaAsES1ES1,B3_ES, 10.513,-4199.33179,0.830, 145.26123,4.14
GaN1ES1ES1,B3_ES, 8.385,-1995.74835,2.104, 73.67966,4.29
GaP1ES1ES1,B3_ES, 10.122,-2282.34588,0.972, 129.64275,4.25
InAsES1ES1,B3_ES, 11.175,-8136.04031,0.721, 174.44141,4.66
InP1ES1ES1,B3_ES, 10.821,-6219.04845,0.822, 158.38267,4.63
SiC1ES1ES1,B3_ES, 8.270,-326.88559,2.179, 70.69571,3.55
