Ag,A1,7.611,-10624.64701,1.362,110.22306,5.31
Al,A1,7.576,-483.84459,0.800,108.72318,4.25
Au,A1,7.643,-38074.58262,2.023,111.61817,5.17
Ca,A1,10.007,-1357.53014,0.194,250.54720,3.45
Cu,A1,6.688,-3304.86800,1.840,74.78010,4.80
Ir,A1,7.231,-35695.85269,3.989,94.53188,4.50
Li,A1,8.010,-14.83606,0.150,128.47239,3.18
Pb,A1,9.030,-41833.99608,0.626,184.06398,5.16
Pd,A1,7.318,-10084.42778,2.186,97.98084,4.84
Pt,A1,7.378,-36872.60794,3.073,100.38609,4.86
Rh,A1,7.157,-9561.16251,3.047,91.65727,4.48
Sr,A1,10.879,-6352.18531,0.155,321.91208,3.48
Th,A1,8.981,-53045.40789,0.764,181.09505,3.43
Ti,A1,7.572,-1703.96911,1.143,108.52611,3.20
fm,Co_A1,6.525,-2782.21532,2.561,69.43590,5.04
fm,Ni_A1,6.515,-3036.70408,2.418,69.14114,4.77
Al,A2,6.038,-483.84040,0.736,110.08254,4.45
Ba,A2,8.830,-16265.89508,0.076,344.19374,-0.14
Cr,A2,5.294,-2097.70816,2.850,74.17576,4.54
K,A2,9.521,-1201.18589,0.046,431.53566,3.86
Li,A2,6.356,-14.83570,0.154,128.41713,3.47
Mo,A2,5.906,-8090.63705,2.726,103.02006,2.96
Na,A2,7.661,-323.42566,0.093,224.78985,3.81
Nb,A2,6.149,-7632.67246,1.603,116.23262,3.88
Rb,A2,10.133,-5955.69167,0.036,520.16012,3.68
Ta,A2,6.152,-31233.36723,2.175,116.40825,2.75
V,A2,5.548,-1894.78421,1.999,85.39891,3.28
W,A2,5.943,-32313.03366,3.122,104.94476,3.54
fm,Fe_A2,5.244,-2541.08960,2.244,72.09660,4.30
C1ES1,A4_ES2,6.737,-75.62985,4.493,38.22147,3.38
Ge1ES1,A4_ES2,10.765,-4192.24655,0.670,155.92659,4.25
Si1ES1,A4_ES2,10.308,-578.07839,0.886,136.90138,4.18
Sn1ES1,A4_ES2,12.403,-12347.31820,0.431,238.51503,3.99
AlLi,B1,10.080,-249.31361,0.271,128.02940,3.32
CaO,B1,8.784,-753.70510,1.084,84.71499,5.25
HfC,B1,8.738,-15126.50274,2.471,83.39410,4.02
HfN,B1,8.519,-15143.23030,3.266,77.29033,3.82
LiCl,B1,9.369,-467.72560,0.336,102.80135,4.27
LiF,B1,7.501,-106.94322,1.038,52.75125,4.07
LiH,B1,7.382,-8.02997,0.459,50.27989,4.10
MgO,B1,7.930,-274.52040,1.889,62.32500,4.02
MgS,B1,9.870,-597.64003,0.824,120.17563,3.21
NaCl,B1,10.523,-622.01600,0.234,145.65603,3.81
NaF,B1,8.591,-261.17709,0.500,79.27006,3.73
NbC,B1,8.496,-3854.22825,3.160,76.64815,3.84
NbN,B1,8.317,-3870.90972,3.817,71.91595,4.43
TiC,B1,8.225,-889.87603,2.563,69.54478,3.26
TiN,B1,7.998,-906.59484,3.408,63.95019,4.06
V1C1,B1,7.868,-985.26744,3.285,60.87652,3.72
V1N1,B1,7.705,-1001.95729,3.944,57.17211,4.46
ZrC,B1,8.929,-3633.10064,2.291,88.98569,3.91
ZrN,B1,8.709,-3649.81372,3.065,82.57184,4.53
AlLi,B2,5.840,-249.35122,0.503,99.57232,3.24
CoAl,B2,5.311,-1633.08094,2.022,74.89101,4.54
CrW,B2,5.634,-17205.37093,3.038,89.43769,4.52
FeAl,B2,5.342,-1512.49716,2.000,76.22932,4.95
NiAl,B2,5.381,-1760.32632,1.798,77.92531,4.46
fm,FeAl_B2,5.357,-1512.49770,1.915,76.85179,2.59
AlAsES1ES1,B3_ES,10.656,-2499.96713,0.780,151.23664,3.73
AlP1ES1ES1,B3_ES,10.292,-582.98096,0.903,136.27724,3.82
B1AsES1ES1,B3_ES,9.022,-2282.64578,1.460,91.78748,3.68
B1N1ES1ES1,B3_ES,6.800,-79.13417,3.940,39.30148,3.70
B1P1ES1ES1,B3_ES,8.570,-365.68253,1.740,78.68653,3.47
GaAsES1ES1,B3_ES,10.503,-4199.32778,0.809,144.81683,4.63
GaN1ES1ES1,B3_ES,8.385,-1995.73004,2.052,73.70048,4.35
GaP1ES1ES1,B3_ES,10.102,-2282.34172,0.971,128.85795,4.30
InAsES1ES1,B3_ES,11.174,-8136.03397,0.708,174.40491,4.74
InP1ES1ES1,B3_ES,10.809,-6219.04128,0.813,157.85047,4.60
SiC1ES1ES1,B3_ES,8.270,-326.87215,2.146,70.70258,3.59
CeO2ES,C1_ES,10.044,-6005.69956,2.757,84.44108,6.26
AlLi,L1_0,7.478,-249.35148,0.483,104.53844,4.25
AlLi3,L1_2,7.566,-132.09459,0.292,108.26878,3.96
LiAl3,L1_2,7.542,-366.60110,0.673,107.25225,4.40
AlLi,B32,11.786,-249.36090,0.536,102.32734,3.89
Ti,A3,5.371,-1703.97060,1.175,109.54231,3.23
