Ag,A1,7.619,-10624.64528,1.355,110.58545,5.28
Al,A1,7.594,-483.84048,0.790,109.48631,4.18
Au,A1,7.657,-38074.57721,2.003,112.24252,5.16
Ca,A1,10.019,-1357.52728,0.192,251.45385,3.54
Cu,A1,6.696,-3304.86581,1.830,75.04831,4.77
Ir,A1,7.250,-35695.84305,3.964,95.26110,4.46
Li,A1,8.004,-14.83497,0.150,128.19383,3.22
Pb,A1,9.048,-41833.99110,0.615,185.17132,5.13
Pd,A1,7.325,-10084.42576,2.184,98.25312,4.93
Pt,A1,7.394,-36872.60084,3.073,101.04576,4.70
Rh,A1,7.168,-9561.15915,3.042,92.08635,4.45
Sr,A1,10.892,-6352.18177,0.147,323.01661,3.33
Th,A1,9.025,-53045.39499,0.754,183.76645,3.38
Ti,A1,7.582,-1703.96397,1.129,108.96914,3.22
fm,Co_A1,6.532,-2782.21235,2.557,69.67232,5.17
fm,Ni_A1,6.522,-3036.70163,2.421,69.37086,4.90
Al,A2,6.060,-483.83671,0.716,111.28570,4.29
Ba,A2,8.648,-16265.89474,0.049,323.33901,-1.90
Cr,A2,5.297,-2097.70417,2.779,74.29571,4.36
K,A2,9.520,-1201.18548,0.045,431.39261,4.01
Li,A2,6.359,-14.83481,0.147,128.55861,2.58
Mo,A2,5.910,-8090.63197,2.681,103.23430,2.83
Na,A2,7.665,-323.42518,0.092,225.15254,3.78
Nb,A2,6.144,-7632.66826,1.545,115.96552,4.16
Rb,A2,10.123,-5955.69140,0.035,518.70667,3.14
Ta,A2,6.158,-31233.35846,2.171,116.76969,2.51
V,A2,5.549,-1894.78042,1.967,85.41582,3.21
W,A2,5.954,-32313.02317,3.061,105.51167,3.50
fm,Fe_A2,5.249,-2541.08736,2.219,72.30616,4.14
Ge1ES1,A4_ES2,10.062,-4192.45437,1.365,127.34195,5.42
Si1ES1,A4_ES2,9.785,-578.29017,1.571,117.10978,5.23
Sn1ES1,A4_ES2,11.539,-12347.50637,0.867,192.03224,5.53
AlLi,B1,10.001,-248.08364,0.384,125.02631,3.58
CaO,B1,8.641,-746.66847,0.819,80.64220,4.00
HfC,B1,8.727,-15122.52476,2.700,83.07474,3.60
HfN,B1,8.607,-15137.84866,3.512,79.70604,3.14
LiH,B1,7.658,-7.86229,0.421,56.13637,2.76
MgO,B1,7.997,-267.57067,2.272,63.91895,3.65
MgS,B1,9.738,-598.23372,9065.920,115.41732,-46.32
NaCl,B1,9.623,-609.92518,10.426,111.38616,45.70
NaF,B1,8.486,-252.40202,0.727,76.38687,3.60
NbC,B1,8.604,-3850.25154,3.486,79.62325,3.44
NbN,B1,8.498,-3865.54077,3.926,76.69928,3.77
TiC,B1,8.240,-885.89945,2.961,69.93414,3.50
TiN,B1,8.104,-901.22718,3.615,66.53101,3.80
V1C1,B1,7.834,-981.36135,3.989,60.08770,3.50
V1N1,B1,7.734,-996.66728,4.660,57.83089,3.83
ZrC,B1,9.066,-3629.06301,2.465,93.15680,3.49
ZrN,B1,8.938,-3644.37967,2.945,89.26950,3.50
AlLi,B2,5.792,-248.06644,0.640,97.15895,3.22
CoAl,B2,4.690,-1579.91336,3.617,51.56526,2.59
CrW,B2,5.502,-17162.42409,5.687,83.28157,4.88
NiAl,B2,4.833,-1703.42945,5.220,56.42976,4.87
AlAsES1ES1,B3_ES,9.815,-2484.46990,1.889,118.20247,4.61
B1AsES1ES1,B3_ES,8.168,-2280.34297,3.912,68.12924,5.21
B1P1ES1ES1,B3_ES,7.817,-363.38598,3.835,59.69857,4.45
GaAsES1ES1,B3_ES,6.605,-4131.51962,9.081,36.01719,12.47
GaN1ES1ES1,B3_ES,7.637,-1991.09372,9.856,55.67334,8.68
GaP1ES1ES1,B3_ES,8.182,-2214.42535,25.488,68.47056,29.14
InAsES1ES1,B3_ES,8.622,-8060.35983,14.488,80.12336,22.31
InP1ES1ES1,B3_ES,9.136,-6199.74281,24.145,95.31290,36.70
SiC1ES1ES1,B3_ES,7.767,-323.48775,4.497,58.56891,3.91
CeO2ES,C1_ES,7.982,-5997.55671,28.521,42.38370,21.65
AlLi,L1_0,7.280,-248.04813,0.771,96.46745,7.66
AlLi3,L1_2,7.492,-130.10266,0.449,105.11737,4.22
LiAl3,L1_2,7.439,-365.96348,0.805,102.91816,4.21
AlLi,B32,11.555,-248.05167,0.683,96.41582,4.08
Ti,A3,5.378,-1703.96543,1.158,110.00025,3.10
