CeO2ES,C1_ES, 10.092,-6008.40599,2.536, 85.64634,5.70
AlLi,L1_0, 7.570,-249.81860,0.468, 108.44368,3.23
AlLi3,L1_2, 7.696,-132.36994,0.279, 113.95782,3.05
LiAl3,L1_2, 7.610,-367.26141,0.655, 110.15921,4.08
AlLi,B32, 11.928,-249.82812,0.502, 106.06142,3.98
Ti,A3, 5.440,-1705.75011,1.120, 113.83406,3.15
