chem. ID,str. ID,"a, Bohr","Etot, Ry",B0,"V, Bohr^3",B0',"a, A", ,"err(gold), %","err(exp), %", ,"a_gold, A","a_Exp, A"
Ag,A1,7.622,-10624.64756,1.35,110.713,5.22,4.033,,0.7,-0.7,,4.007,4.062
Al,A1,7.591, -483.84006,0.79,109.352,4.35,4.017,,0.9,-0.1,,3.983,4.019
Au,A1,7.647,-38074.60798,2.03,111.783,5.11,4.047,,-0.0,-0.4,,4.047,4.062
Ca,A1,10.009,-1357.52818,0.19,250.638,3.44,5.297,,-0.7,-4.7,,5.333,5.556
Cu,A1,6.698,-3304.86562,1.82,75.112,4.72,3.544,,0.6,-1.4,,3.522,3.596
fm,Co_A1,6.531,-2782.21212,2.53,69.656,5.12,3.456,,-1.3,-2.3,,3.500,3.538
fm,Ni_A1,6.524,-3036.70132,2.39,69.411,4.72,3.452,,0.9,-1.6,,3.423,3.508
Ir,A1,7.245,-35695.86994,3.91,95.084,4.42,3.834,,0.2,0.1,,3.828,3.831
Li,A1,8.014,  -14.83531,0.15,128.656,3.15,4.241,,0.2,-2.2,,4.231,4.338
Pb,A1,9.050,-41834.04750,0.60,185.295,4.45,4.789,,-1.7,-2.5,,4.874,4.912
Pd,A1,7.318,-10084.42754,2.38,97.959,4.17,3.873,,0.6,-0.1,,3.848,3.876
Pt,A1,7.389,-36872.63018,3.11,100.844,4.56,3.910,,0.0,-0.1,,3.909,3.913
Rh,A1,7.167,-9561.16063,3.02,92.018,4.40,3.793,,0.9,-0.0,,3.759,3.793
Sr,A1,10.871,-6352.18352,0.15,321.171,3.30,5.753,,-0.6,-4.8,,5.786,6.040
Th,A1,9.004,-53045.61762,0.73,182.510,3.18,4.765,,-3.2,-6.0,FAIL,4.920,5.071
Ti,A1,7.564,-1703.96565,1.12,108.195,3.12,4.003,,-0.3,,,4.016,
Al,A2,6.057, -483.83609,0.71,111.112,4.42,3.205,,1.0,,,3.172,
Cr,A2,5.292,-2097.70470,2.76,74.095,4.18,2.800,,-0.0,-3.8,,2.801,2.910
fm,Fe_A2,5.249,-2541.08676,2.23,72.325,3.97,2.778,,0.9,-2.6,,2.754,2.853
K,A2,9.505,-1201.18571,0.05,429.378,4.07,5.030,,-0.3,-3.5,,5.045,5.212
Li,A2,6.362,  -14.83499,0.15,128.768,3.41,3.367,,0.1,-2.4,,3.363,3.451
Mo,A2,5.903,-8090.63398,2.66,102.837,2.91,3.124,,0.2,-0.5,,3.116,3.141
Na,A2,7.662, -323.42521,0.09,224.896,3.82,4.055,,0.2,-3.7,,4.047,4.209
Nb,A2,6.133,-7632.67025,1.57,115.327,3.96,3.245,,-0.1,-1.5,,3.250,3.294
Rb,A2,10.095,-5955.69175,0.04,514.361,3.74,5.342,,-0.6,-4.2,,5.374,5.577
Ta,A2,6.144,-31233.37828,2.02,115.986,3.17,3.251,,-0.2,-1.4,,3.257,3.299
V,A2,5.542,-1894.78127,1.96,85.091,3.23,2.933,,0.0,-3.0,,2.932,3.024
W,A2,5.946,-32313.03893,2.97,105.105,3.80,3.146,,0.1,-0.4,,3.143,3.160
C,A4_ES2,6.759,  -75.62922,4.79,38.603,-1.43,3.577,,1.2,0.9,,3.536,3.544
Ge,A4_ES2,10.760,-4192.24964,0.68,155.743,4.24,5.694,,1.1,1.0,,5.632,5.639
Si,A4_ES2,10.340, -578.07845,0.88,138.193,4.05,5.472,,1.2,1.0,,5.407,5.415
Sn,A4_ES2,12.360,-12347.32557,0.43,236.052,4.15,6.541,,0.9,1.0,,6.481,6.474
CaO,B1,8.615, -753.74746,1.26,79.936,5.39,4.559,,-3.4,-4.8,FAIL,4.719,4.787
HfC,B1,8.726,-15126.51974,2.51,83.045,3.95,4.618,,0.9,-0.2,,4.578,4.627
HfN,B1,8.503,-15143.26549,3.54,76.844,3.10,4.500,,0.4,-0.3,,4.482,4.512
LiCl,B1,9.160, -467.73997,0.23,96.061,-1.42,4.847,,-2.8,-4.4,FAIL,4.986,5.072
LiF,B1,7.447, -106.95128,0.82,51.620,6.28,3.941,,0.6,-0.5,,3.919,3.960
LiH,B1,7.350,   -8.03266,0.43,49.635,3.83,3.889,,-1.0,-3.0,,3.927,4.010
MgS,B1,9.788, -597.65006,0.85,117.208,3.56,5.180,,0.8,-0.0,,5.139,5.182
NaCl,B1,10.366, -622.03251,5.21,139.242,-127.37,5.485,,0.0,-1.4,,5.484,5.565
NaF,B1,8.536, -261.19015,0.56,77.742,5.82,4.517,,0.2,-1.3,,4.507,4.576
NbC,B1,8.459,-3854.24477,3.25,75.668,3.88,4.476,,1.0,0.3,,4.432,4.462
NbN,B1,8.285,-3870.93584,3.99,71.094,4.42,4.384,,0.5,0.0,,4.361,4.383
TiC,B1,8.192, -889.88612,2.61,68.720,3.44,4.335,,1.6,0.4,,4.266,4.317
TiN,B1,7.966, -906.61750,3.56,63.198,4.15,4.215,,0.9,-0.3,,4.178,4.228
VC,B1,7.836, -985.27563,3.36,60.155,3.69,4.147,,1.3,-0.0,,4.095,4.148
VN,B1,7.676,-1001.97446,4.10,56.533,4.42,4.062,,0.3,-1.6,,4.050,4.126
ZrC,B1,8.902,-3633.11493,2.34,88.166,3.89,4.711,,1.4,0.5,,4.647,4.688
ZrN,B1,7.561,-3650.00110,32.62,54.028,47.16,4.001,,-11.7,-12.5,FAIL,4.532,4.574
AlLi,B2,5.850, -249.34766,0.50,100.075,3.14,3.096,,0.2,,,3.091,
CoAl,B2,5.315,-1633.07808,2.00,75.082,4.45,2.813,,0.6,-1.5,,2.795,2.855
CrW,B2,5.638,-17205.37093,2.98,89.610,4.67,2.983,,0.1,,,2.980,
fm,FeAl_B2,5.358,-1512.49428,1.94,76.923,4.90,2.835,,0.8,-1.6,,2.812,2.882
NiAl,B2,5.386,-1760.32416,1.78,78.140,4.44,2.850,,0.6,-1.1,,2.834,2.882
AlAs,B3_ES,10.681,-2499.97189,0.77,152.309,3.77,5.652,,0.3,0.1,,5.636,5.646
AlP,B3_ES,10.324, -582.98628,0.90,137.542,3.79,5.463,,0.4,0.3,,5.440,5.445
BAs,B3_ES,9.039,-2282.64782,1.45,92.300,3.65,4.783,,0.9,0.5,,4.740,4.760
BN,B3_ES,6.827,  -79.14130,3.94,39.769,3.52,3.613,,0.8,0.8,,3.585,3.585
BP,B3_ES,8.593, -365.68293,1.72,79.300,3.44,4.547,,1.1,0.6,,4.496,4.520
GaAs,B3_ES,10.513,-4199.33227,0.82,145.256,4.28,5.563,,-0.9,-1.3,,5.616,5.637
GaN,B3_ES,8.384,-1995.74842,2.10,73.670,4.26,4.437,,-0.6,-1.8,,4.463,4.520
GaP,B3_ES,10.122,-2282.34599,0.97,129.628,4.21,5.356,,-0.8,-1.4,,5.401,5.435
InAs,B3_ES,11.172,-8136.04282,0.72,174.318,4.67,5.912,,-2.1,-2.2,,6.038,6.044
InP,B3_ES,10.819,-6219.05059,0.83,158.279,4.49,5.725,,-1.9,-2.2,,5.839,5.856
SiC,B3_ES,8.270, -326.88518,2.18,70.697,3.55,4.376,,1.0,0.8,,4.333,4.340
CeO2,C1_ES,10.105,-6005.70958,2.52,85.977,5.73,5.347,,-0.4,-0.8,,5.371,5.393
AlLi3,L1_2,7.584, -132.09350,0.29,109.052,4.19,4.013,,-0.7,,,4.043,
AlLi,L1_0,7.486, -249.35080,0.49,104.859,3.75,3.961,,0.3,,,3.950,
LiAl3,L1_2,7.552, -366.59900,0.67,107.682,4.36,3.996,,0.6,0.6,,3.974,3.973
AlLi,B32,11.785, -249.36227,0.54,102.304,3.92,6.236,,,-2.0,NO_INFO,,6.361
