           2   1.00000000000000        1.00000000000000        STRUCTURE DATA
  0.500000000000000       0.500000000000000       0.000000000000000E+000
  0.500000000000000E+000 -0.500000000000000       0.000000000000000     
  0.000000000000000       0.000000000000000E+000  1.000000000000000     
  --------------------- 
     1    0.0000000000        0.0000000000        0.0000000000    
     2    0.5000000000        0.0000000000        0.5000000000    
   1.00000000000000                0
