           12  1.00000000000000        1.00000000000000        STRUCTURE DATA
  1.000000000000000       0.000000000000000       0.000000000000000
  0.000000000000000       1.000000000000000       0.000000000000000     
  0.500000000000000       0.500000000000000       3.000000000000000     
  --------------------- 
 1   0.00    0.00    0.00
 4   0.50    0.50    0.00
 7   0.50    0.00    0.50
 7   0.00    0.50    0.50
 2   0.00    0.00    1.00
 5   0.50    0.50    1.00
 8   0.50    0.00    1.50
 8   0.00    0.50    1.50
 3   0.00    0.00    2.00
 6   0.50    0.50    2.00
 9   0.50    0.00    2.50
 9   0.00    0.50    2.50
   1.00000000000000                0
