Ag,A1,7.607,-10624.65065,1.375,110.03570,5.19
Al,A1,7.591,-483.84019,0.785,109.35173,4.24
Au,A1,7.617,-38074.62039,2.100,110.46503,5.22
Ca,A1,10.005,-1357.52855,0.193,250.39690,3.47
Cu,A1,6.691,-3304.86734,1.850,74.87173,4.67
Ir,A1,7.212,-35695.86910,4.010,93.78420,4.48
Li,A1,8.013,-14.83536,0.149,128.61188,3.16
Pb,A1,9.054,-41834.04633,0.584,185.56645,5.36
Pd,A1,7.312,-10084.43289,2.220,97.73629,4.72
Pt,A1,7.366,-36872.64083,3.103,99.91202,4.74
Rh,A1,7.151,-9561.16046,3.064,91.40938,4.43
Sr,A1,10.861,-6352.18450,0.152,320.28538,3.40
Th,A1,9.095,-53045.61854,0.758,188.08212,3.81
Ti,A1,7.563,-1703.96718,1.128,108.14908,3.12
Al,A2,6.057,-483.83620,0.713,111.08212,4.44
Ba,A2,8.484,-16265.89959,0.035,305.35133,-3.12
Cr,A2,5.289,-2097.70413,2.854,73.96268,4.40
K,A2,9.502,-1201.18581,0.046,428.98627,4.08
Li,A2,6.362,-14.83503,0.152,128.72626,3.41
Mo,A2,5.889,-8090.63516,2.723,102.12183,3.05
Na,A2,7.661,-323.42526,0.092,224.79209,3.80
Nb,A2,6.127,-7632.67716,1.663,115.01093,3.04
Rb,A2,10.085,-5955.69206,0.036,512.90649,3.96
Ta,A2,6.134,-31233.40073,2.185,115.40469,1.87
V,A2,5.542,-1894.78378,1.975,85.09850,2.93
W,A2,5.915,-32313.04682,3.124,103.47058,3.58
C1ES1,A4_ES2,6.759,-75.62936,4.788,38.59252,-1.43
Ge1ES1,A4_ES2,10.745,-4192.25223,0.683,155.07976,4.22
Si1ES1,A4_ES2,10.338,-578.07897,0.881,138.09683,4.06
Sn1ES1,A4_ES2,12.320,-12347.33130,0.443,233.72192,4.11
AlLi,B1,10.121,-249.31014,0.273,129.57592,3.01
CaO,B1,8.608,-753.74847,1.263,79.74171,5.33
HfC,B1,8.680,-15126.53382,2.540,81.73505,4.03
HfN,B1,8.451,-15143.27740,3.510,75.45870,3.07
LiCl,B1,9.184,-467.74076,0.271,96.81437,-0.43
LiF,B1,7.444,-106.95178,0.853,51.55192,5.89
LiH,B1,7.351,-8.03275,0.439,49.65504,3.17
MgO,B1,7.877,-274.54016,1.943,61.08785,4.05
MgS,B1,9.785,-597.65069,0.845,117.11173,3.73
NaCl,B1,10.101,-622.03120,0.815,128.82307,5.61
NaF,B1,8.530,-261.19059,0.591,77.56910,6.70
NbC,B1,8.441,-3854.24777,3.284,75.17217,3.86
NbN,B1,8.263,-3870.93728,4.049,70.53267,4.48
TiC,B1,8.188,-889.88766,2.610,68.61049,3.47
TiN,B1,7.961,-906.61829,3.576,63.05796,4.17
V1C1,B1,7.830,-985.27580,3.371,60.01287,3.72
V1N1,B1,7.669,-1001.97393,4.116,56.38131,4.45
ZrC,B1,8.884,-3633.11987,2.343,87.65531,3.88
ZrN,B1,7.571,-3650.00209,32.207,54.25589,46.75
AlLi,B2,5.848,-249.34775,0.506,100.01806,3.05
CoAl,B2,5.312,-1633.07810,2.005,74.96178,4.32
CrW,B2,5.620,-17205.37620,3.066,88.75455,4.53
FeAl,B2,5.344,-1512.49492,2.012,76.31006,3.89
NiAl,B2,5.384,-1760.32454,1.796,78.01714,4.55
AlAsES1ES1,B3_ES,10.672,-2499.97435,0.781,151.91518,3.74
AlP1ES1ES1,B3_ES,10.322,-582.98694,0.894,137.47111,3.83
B1AsES1ES1,B3_ES,9.032,-2282.64999,1.456,92.09414,3.66
B1N1ES1ES1,B3_ES,6.826,-79.14153,3.964,39.75818,3.42
B1P1ES1ES1,B3_ES,8.590,-365.68339,1.739,79.23088,3.36
GaAsES1ES1,B3_ES,10.503,-4199.33491,0.832,144.83252,4.30
GaN1ES1ES1,B3_ES,8.378,-1995.75002,2.122,73.51972,4.18
GaP1ES1ES1,B3_ES,10.117,-2282.34731,0.977,129.45212,4.21
InAsES1ES1,B3_ES,11.159,-8136.04657,0.729,173.67263,4.65
InP1ES1ES1,B3_ES,10.809,-6219.05323,0.835,157.85064,4.48
SiC1ES1ES1,B3_ES,8.268,-326.88560,2.181,70.65519,3.55
CeO2ES,C1_ES,10.090,-6005.71432,2.551,85.59909,5.88
AlLi,L1_0,7.484,-249.35092,0.490,104.81089,3.76
AlLi3,L1_2,7.583,-132.09358,0.289,109.00255,4.17
LiAl3,L1_2,7.551,-366.59913,0.667,107.63860,4.36
AlLi,B32,11.783,-249.36238,0.543,102.25652,3.92
Ti,A3,5.365,-1703.96841,1.154,109.18678,3.16
