Ag,A1, 7.620,-10624.64635,1.334, 110.63011,5.49
Al,A1, 7.594,-483.84056,0.789, 109.48801,4.19
Au,A1, 7.657,-38074.57858,2.011, 112.24213,5.13
Ca,A1, 10.019,-1357.52734,0.188, 251.40110,3.16
Cu,A1, 6.697,-3304.86713,1.831, 75.07785,4.72
Ir,A1, 7.250,-35695.84407,3.959, 95.26984,4.47
Li,A1, 8.004,-14.83498,0.149, 128.19666,3.33
Pb,A1, 9.048,-41833.99001,0.615, 185.17422,5.10
Pd,A1, 7.328,-10084.42686,2.104, 98.36440,5.29
Pt,A1, 7.394,-36872.60208,3.036, 101.06147,4.87
Rh,A1, 7.169,-9561.16006,3.043, 92.09565,4.44
Sr,A1, 10.891,-6352.18183,0.147, 322.98131,3.29
Th,A1, 9.023,-53045.39497,0.748, 183.62160,3.26
Ti,A1, 7.582,-1703.96421,1.129, 108.96305,3.22
fm,Co_A1, 6.530,-2782.21304,2.578, 69.61378,5.47
fm,Ni_A1, 6.524,-3036.70270,2.393, 69.42435,4.22
Al,A2, 6.060,-483.83680,0.716, 111.27374,4.33
Ba,A2, 8.663,-16265.89480,0.054, 325.03224,-1.21
Cr,A2, 5.296,-2097.70464,2.729, 74.29082,3.97
K,A2, 9.521,-1201.18550,0.045, 431.47062,3.79
Li,A2, 6.355,-14.83482,0.153, 128.31879,4.34
Mo,A2, 5.910,-8090.63243,2.667, 103.22927,2.96
Na,A2, 7.666,-323.42519,0.091, 225.22899,3.57
Nb,A2, 6.144,-7632.66863,1.554, 115.95088,4.09
Rb,A2, 10.122,-5955.69142,0.035, 518.51515,3.65
Ta,A2, 6.155,-31233.35076,2.232, 116.58611,2.19
V,A2, 5.549,-1894.78079,1.966, 85.42541,3.18
W,A2, 5.953,-32313.02374,3.065, 105.50829,3.48
fm,Fe_A2, 5.249,-2541.08809,2.153, 72.29131,3.33
C1ES1,A4_ES2, 6.733,-75.66033,4.629, 38.15531,3.40
Ge1ES1,A4_ES2, 10.700,-4192.27209,0.730, 153.11681,4.36
Si1ES1,A4_ES2, 10.272,-578.10328,0.943, 135.46930,4.18
Sn1ES1,A4_ES2, 12.305,-12347.34267,0.469, 232.91245,4.20
AlLi,B1, 10.170,-249.31325,0.268, 131.49690,3.50
CaO,B1, 8.563,-753.74885,1.203, 78.48471,4.91
HfC,B1, 8.757,-15126.50264,2.535, 83.94859,4.07
HfN,B1, 8.546,-15143.22921,3.451, 78.00920,3.48
LiCl,B1, 9.247,-467.74131,0.421, 98.83989,4.90
LiF,B1, 7.309,-106.95432,1.015, 48.80129,-4.88
LiH,B1, 7.365,-8.03204,0.439, 49.93333,3.23
MgO,B1, 7.624,-274.52368,15.107, 55.38281,4.00
MgS,B1, 9.694,-597.65783,0.882, 113.87668,4.48
NaCl,B1, 10.261,-622.03041,0.296, 135.02889,4.56
NaF,B1, 8.489,-261.19156,0.678, 76.45732,7.83
NbC,B1, 8.503,-3854.23000,3.210, 76.84897,3.82
NbN,B1, 8.341,-3870.90943,3.843, 72.54102,4.36
TiC,B1, 8.219,-889.87891,2.641, 69.40113,3.81
TiN,B1, 8.006,-906.59713,3.481, 64.13313,4.27
V1C1,B1, 7.868,-985.26694,3.403, 60.89204,3.63
V1N1,B1, 7.718,-1001.95437,4.054, 57.46449,4.19
ZrC,B1, 8.933,-3633.10535,2.309, 89.09089,3.75
ZrN,B1, 8.728,-3649.81940,2.999, 83.12213,3.93
AlLi,B2, 5.865,-249.34728,0.432, 100.87818,4.11
CoAl,B2, 5.317,-1633.07912,2.013, 75.16765,4.22
CrW,B2, 5.643,-17205.36287,3.022, 89.86785,4.61
FeAl,B2, 5.350,-1512.49442,1.976, 76.57086,4.30
NiAl,B2, 5.384,-1760.32558,1.798, 78.05010,4.48
fm,FeAl_B2, 5.362,-1512.49520,1.964, 77.09604,3.31
AlAsES1ES1,B3_ES, 10.566,-2500.00156,0.826, 147.45738,3.86
AlP1ES1ES1,B3_ES, 10.246,-583.01507,0.945, 134.45154,3.85
B1AsES1ES1,B3_ES, 8.639,-2282.74459,1.882, 80.60692,4.55
B1N1ES1ES1,B3_ES, 6.812,-79.18034,4.094, 39.52011,3.33
B1P1ES1ES1,B3_ES, 8.278,-365.76828,2.083, 70.91569,4.03
GaAsES1ES1,B3_ES, 10.313,-4199.37362,0.958, 137.11254,4.58
GaN1ES1ES1,B3_ES, 8.193,-1995.84607,2.589, 68.74454,4.57
GaP1ES1ES1,B3_ES, 9.955,-2282.38647,1.098, 123.32756,4.55
InAsES1ES1,B3_ES, 10.957,-8136.08567,0.859, 164.40931,5.00
InP1ES1ES1,B3_ES, 10.596,-6219.09843,0.974, 148.68777,4.79
SiC1ES1ES1,B3_ES, 8.153,-326.97953,2.581, 67.75033,3.70
CeO2ES,C1_ES, 10.099,-6005.70833,2.428, 85.84184,4.80
AlLi,L1_0, 7.503,-249.35013,0.474, 105.61401,4.36
AlLi3,L1_2, 7.615,-132.09240,0.283, 110.38757,3.54
LiAl3,L1_2, 7.563,-366.59888,0.665, 108.14581,4.38
AlLi,B32, 11.818,-249.36201,0.540, 103.16713,3.87
