number of tests:  72        av.Err:  0.71
           good:  63  av.Err(good):  0.62
             ok:  5    av.Err(ok):  1.78
           fail:  3
      no golden:  1
test.xxx_12/LOGS/Ba_A2.xyz_xc10_asa=12.log:  a0=  8.637 Bohr  E0=   -16265.89656 Ry  B0=    0.056 Mbar  B0'=    -0.95  V0=  322.10293 :MURNAGHAN
test.xxx_12/LOGS/Ba_A2.xyz_xc10_asa=12.log:  a0=  8.637 Bohr  E0=   -16265.89656 Ry  B0=    0.056 Mbar  B0'=    -0.85  V0=  322.16910 :VINET
