chem. ID,str. ID,"a, Bohr","Etot, Ry",B0,"V, Bohr^3",B0',"a, A", ,"err(gold), %","err(exp), %", ,"a_gold, A","a_Exp, A"
Ag,A1,7.851,-10643.28462,0.92,120.999,4.57,4.155,,2.4,2.3,,4.058,4.062
Al,A1,7.442, -485.94594,1.24,103.057,3.37,3.938,,-2.0,-2.0,,4.018,4.019
Au,A1,7.736,-38126.82806,1.91,115.729,3.51,4.094,,0.3,0.8,,4.081,4.062
Cu,A1,6.902,-3312.63601,1.26,82.183,4.22,3.652,,2.3,1.6,,3.570,3.596
fm,Co_A1,6.672,-2788.97861,1.78,74.250,5.88,3.531,,,-0.2,NO_INFO,,3.538
fm,Ni_A1,6.647,-3043.94607,1.78,73.426,4.74,3.517,,1.6,0.3,,3.463,3.508
Ir,A1,7.241,-35744.81322,3.53,94.906,4.32,3.832,,-0.4,0.0,,3.847,3.831
Pb,A1,10.770,-41891.89177,0.04,312.281,4.75,5.699,,15.6,16.0,FAIL,4.931,4.912
Pd,A1,7.388,-10102.30640,1.86,100.825,4.76,3.910,,0.7,0.9,,3.882,3.876
Pt,A1,7.409,-36923.16577,2.95,101.680,3.99,3.921,,-0.3,0.2,,3.932,3.913
Rh,A1,7.201,-9578.31232,2.49,93.370,4.80,3.811,,0.7,0.5,,3.785,3.793
Th,A1,9.278,-53127.12943,0.91,199.637,-4.80,4.910,,-1.0,-3.2,,4.959,5.071
Ti,A1,7.700,-1708.67034,0.96,114.116,3.69,4.075,,,,NO_INFO,,
Al,A2,5.914, -485.94141,1.16,103.431,3.60,3.130,,,,NO_INFO,,
Cr,A2,5.317,-2103.13750,2.47,75.164,4.10,2.814,,,-3.3,NO_INFO,,2.910
fm,Fe_A2,5.452,-2547.41099,1.60,81.021,3.63,2.885,,3.4,1.1,FAIL,2.790,2.853
Mo,A2,5.905,-8105.75332,2.65,102.974,3.89,3.125,,-0.3,-0.5,,3.133,3.141
Nb,A2,6.196,-7647.15693,1.49,118.935,5.31,3.279,,0.1,-0.5,,3.274,3.294
Ta,A2,6.169,-31276.73121,1.94,117.389,3.52,3.264,,-0.6,-1.0,,3.285,3.299
V,A2,5.601,-1899.83746,1.95,87.847,4.60,2.964,,0.0,-2.0,,2.963,3.024
W,A2,5.918,-32357.69567,3.27,103.651,2.24,3.132,,-1.0,-0.9,,3.162,3.160
C,A4_ES2,6.750,  -76.21926,4.07,38.441,3.79,3.572,,0.4,0.8,,3.557,3.544
Ge,A4_ES2,11.004,-4201.59630,0.53,166.534,4.03,5.823,,2.4,3.3,,5.684,5.639
Si,A4_ES2,10.369, -580.38017,0.77,139.362,4.13,5.487,,0.9,1.3,,5.438,5.415
Sn,A4_ES2,12.745,-12368.15280,0.32,258.763,3.79,6.744,,3.0,4.2,FAIL,6.547,6.474
CaO,B1,10.025, -756.24714,0.17,125.951,4.00,5.305,,11.0,10.8,FAIL,4.778,4.787
HfC,B1,9.045,-15147.86908,3.02,92.493,-1.83,4.786,,3.8,3.4,FAIL,4.613,4.627
HfN,B1,8.803,-15164.70490,2.67,85.259,4.36,4.658,,3.2,3.2,FAIL,4.515,4.512
MgO,B1,8.072, -275.94240,1.88,65.747,-0.38,4.272,,1.2,2.0,,4.222,4.186
MgS,B1,9.909, -600.00850,1.39,121.612,0.08,5.244,,1.0,1.2,,5.190,5.182
NbC,B1,8.669,-3861.75186,2.57,81.444,3.27,4.587,,2.9,2.8,FAIL,4.457,4.462
NbN,B1,8.464,-3878.53167,3.40,75.792,3.43,4.479,,2.1,2.2,,4.385,4.383
TiC,B1,8.494, -892.52724,2.16,76.598,2.78,4.495,,4.5,4.1,FAIL,4.302,4.317
TiN,B1,8.212, -909.34694,3.14,69.224,3.33,4.346,,3.2,2.8,FAIL,4.210,4.228
VC,B1,8.114, -988.06698,2.61,66.777,2.35,4.294,,4.1,3.5,FAIL,4.123,4.148
VN,B1,7.927,-1004.86023,3.36,62.269,3.21,4.195,,2.8,1.7,FAIL,4.081,4.126
ZrC,B1,9.155,-3640.35144,2.00,95.922,3.06,4.845,,3.6,3.3,FAIL,4.675,4.688
ZrN,B1,8.897,-3657.16248,2.85,88.026,3.79,4.708,,3.2,2.9,FAIL,4.560,4.574
CoAl,B2,5.371,-1637.50926,1.90,77.458,3.82,2.842,,0.6,-0.4,,2.824,2.855
CrW,B2,5.623,-17230.41723,2.69,88.905,3.84,2.976,,,,NO_INFO,,
fm,FeAl_B2,5.424,-1516.69546,1.72,79.789,3.86,2.870,,1.1,-0.4,,2.840,2.882
NiAl,B2,5.445,-1765.00324,1.74,80.722,3.90,2.881,,0.6,-0.0,,2.864,2.882
AlAs,B3_ES,10.669,-2505.95997,0.83,151.810,3.93,5.646,,-0.6,-0.0,,5.681,5.646
AlP,B3_ES,10.318, -585.31438,0.94,137.297,3.98,5.460,,-0.3,0.3,,5.476,5.445
BAs,B3_ES,9.127,-2287.81955,1.30,95.041,3.51,4.830,,1.1,1.5,,4.775,4.760
BN,B3_ES,6.800,  -79.75986,4.11,39.311,3.58,3.598,,-0.3,0.4,,3.610,3.585
BP,B3_ES,8.623, -367.19388,1.53,80.153,3.41,4.563,,0.8,1.0,,4.525,4.520
GaAs,B3_ES,10.719,-4208.68975,0.70,153.957,4.04,5.672,,0.0,0.6,,5.670,5.637
GaN,B3_ES,8.428,-2000.52465,1.74,74.844,4.76,4.460,,-0.9,-1.3,,4.502,4.520
GaP,B3_ES,10.281,-2288.03894,0.81,135.856,4.20,5.440,,-0.1,0.1,,5.447,5.435
InAs,B3_ES,11.408,-8151.03495,0.60,185.588,4.08,6.037,,-1.0,-0.1,,6.098,6.044
InP,B3_ES,10.994,-6230.37731,0.74,166.087,3.67,5.818,,-1.2,-0.7,,5.890,5.856
SiC,B3_ES,8.184, -328.35176,2.54,68.526,3.35,4.331,,-0.7,-0.2,,4.360,4.340
CeO2,C1_ES,10.098,-6015.31364,2.05,85.804,9.59,5.344,,-1.2,-0.9,,5.410,5.393
LiAl3,L1_2,7.468, -368.22695,0.84,104.132,4.00,3.952,,,-0.5,NO_INFO,,3.973
