number of tests:  72        av.Err:  0.74
           good:  52  av.Err(good):  0.55
             ok:  9    av.Err(ok):  1.86
           fail:  10
      no golden:  1
test.xxx_11/LOGS/Ba_A2.xyz_xc10_asa=11.log:  a0=  8.649 Bohr  E0=   -16265.89474 Ry  B0=    0.049 Mbar  B0'=    -1.82  V0=  323.50150 :MURNAGHAN
test.xxx_11/LOGS/Ba_A2.xyz_xc10_asa=11.log:  a0=  8.649 Bohr  E0=   -16265.89474 Ry  B0=    0.049 Mbar  B0'=    -1.75  V0=  323.54215 :VINET
