chem. ID,str. ID,"a, Bohr","Etot, Ry",B0,"V, Bohr^3",B0',"a, A", ,"err(gold), %","err(exp), %", ,"a_gold, A","a_Exp, A"
Ag,A1,7.627,-10624.42205,1.35,110.919,5.14,4.036,,0.7,-0.6,,4.007,4.062
Al,A1,7.597, -483.75222,0.79,109.609,4.15,4.020,,0.9,0.0,,3.983,4.019
Au,A1,7.663,-38074.36219,1.98,112.508,5.14,4.055,,0.2,-0.2,,4.047,4.062
Ca,A1,10.020,-1357.40173,0.19,251.524,2.84,5.302,,-0.6,-4.6,,5.333,5.556
Cu,A1,6.700,-3304.69546,1.83,75.185,4.68,3.545,,0.7,-1.4,,3.522,3.596
fm,Co_A1,6.531,-2782.04935,2.58,69.645,5.34,3.456,,-1.3,-2.3,,3.500,3.538
fm,Ni_A1,6.523,-3036.53518,2.48,69.386,5.88,3.452,,0.8,-1.6,,3.423,3.508
Ir,A1,7.247,-35695.62324,3.89,95.167,4.58,3.835,,0.2,0.1,,3.828,3.831
Li,A1,8.023,  -14.81406,0.16,129.125,0.88,4.246,,0.3,-2.1,,4.231,4.338
Pb,A1,9.056,-41833.78596,0.60,185.689,5.83,4.792,,-1.7,-2.4,,4.874,4.912
Pd,A1,7.330,-10084.20406,2.17,98.474,4.76,3.879,,0.8,0.1,,3.848,3.876
Pt,A1,7.396,-36872.38304,3.04,101.138,4.70,3.914,,0.1,0.0,,3.909,3.913
Rh,A1,7.169,-9560.93935,2.98,92.116,4.54,3.794,,0.9,0.0,,3.759,3.793
Sr,A1,10.885,-6351.98382,0.15,322.462,3.17,5.760,,-0.4,-4.6,,5.786,6.040
Th,A1,9.022,-53045.22038,0.76,183.616,3.61,4.774,,-3.0,-5.9,FAIL,4.920,5.071
Ti,A1,7.567,-1703.82822,1.11,108.341,3.59,4.004,,-0.3,,,4.016,
Al,A2,6.063, -483.74830,0.69,111.447,4.81,3.208,,1.1,,,3.172,
Ba,A2,8.639,-16265.66372,0.04,322.336,-3.14,4.572,,-3.8,-8.6,FAIL,4.754,5.002
Cr,A2,5.293,-2097.55705,2.74,74.142,4.13,2.801,,-0.0,-3.7,,2.801,2.910
fm,Fe_A2,5.244,-2540.92769,2.23,72.084,4.13,2.775,,0.8,-2.7,,2.754,2.853
K,A2,9.526,-1201.06489,0.05,432.194,4.21,5.041,,-0.1,-3.3,,5.045,5.212
Li,A2,6.369,  -14.81369,0.15,129.170,3.45,3.370,,0.2,-2.3,,3.363,3.451
Mo,A2,5.905,-8090.42093,2.64,102.944,3.04,3.125,,0.3,-0.5,,3.116,3.141
Na,A2,7.673, -323.35012,0.09,225.876,3.77,4.060,,0.3,-3.5,,4.047,4.209
Nb,A2,6.135,-7632.46062,1.52,115.467,4.54,3.247,,-0.1,-1.4,,3.250,3.294
Rb,A2,10.121,-5955.49539,0.04,518.353,3.41,5.356,,-0.3,-4.0,,5.374,5.577
Ta,A2,6.150,-31233.13351,2.17,116.320,2.44,3.254,,-0.1,-1.4,,3.257,3.299
V,A2,5.544,-1894.63876,1.97,85.210,3.11,2.934,,0.1,-3.0,,2.932,3.024
W,A2,5.946,-32312.79952,3.05,105.104,3.54,3.146,,0.1,-0.4,,3.143,3.160
C,A4_ES2,6.760,  -75.58644,4.44,38.608,3.37,3.577,,1.2,0.9,,3.536,3.544
Ge,A4_ES2,10.765,-4192.06909,0.69,155.918,3.96,5.697,,1.1,1.0,,5.632,5.639
Si,A4_ES2,10.345, -577.98499,0.87,138.407,3.95,5.474,,1.2,1.1,,5.407,5.415
Sn,A4_ES2,12.361,-12347.09741,0.46,236.061,3.66,6.541,,0.9,1.0,,6.481,6.474
CaO,B1,8.639, -753.65547,1.32,80.582,5.66,4.572,,-3.1,-4.5,FAIL,4.719,4.787
HfC,B1,8.730,-15126.37834,2.54,83.177,4.15,4.620,,0.9,-0.2,,4.578,4.627
HfN,B1,8.509,-15143.11946,3.52,77.005,3.28,4.503,,0.5,-0.2,,4.482,4.512
LiCl,B1,9.258, -467.67359,0.46,99.183,5.87,4.899,,-1.7,-3.4,,4.986,5.072
LiF,B1,7.440, -106.91012,0.98,51.489,4.59,3.937,,0.5,-0.6,,3.919,3.960
LiH,B1,7.350,   -8.01847,0.42,49.628,3.41,3.889,,-1.0,-3.0,,3.927,4.010
MgO,B1,7.878, -274.47130,1.91,61.125,4.07,4.169,,-0.0,-0.4,,4.169,4.186
MgS,B1,9.791, -597.55692,0.84,117.321,3.89,5.181,,0.8,-0.0,,5.139,5.182
NaCl,B1,10.220, -621.93601,0.29,133.447,4.83,5.408,,-1.4,-2.8,,5.484,5.565
NaF,B1,8.486, -261.12180,0.54,76.400,4.66,4.491,,-0.4,-1.9,,4.507,4.576
NbC,B1,8.459,-3854.11825,3.26,75.656,4.01,4.476,,1.0,0.3,,4.432,4.462
NbN,B1,8.285,-3870.80597,3.98,71.081,4.26,4.384,,0.5,0.0,,4.361,4.383
TiC,B1,8.193, -889.79624,2.62,68.741,3.64,4.336,,1.6,0.4,,4.266,4.317
TiN,B1,7.967, -906.52410,3.52,63.216,4.15,4.216,,0.9,-0.3,,4.178,4.228
VC,B1,7.840, -985.18291,3.32,60.240,3.80,4.149,,1.3,0.0,,4.095,4.148
VN,B1,7.679,-1001.87840,4.10,56.591,4.63,4.064,,0.3,-1.5,,4.050,4.126
ZrC,B1,8.902,-3632.99080,2.34,88.195,4.03,4.711,,1.4,0.5,,4.647,4.688
ZrN,B1,8.685,-3649.71421,3.27,81.886,4.92,4.596,,1.4,0.5,,4.532,4.574
AlLi,B2,5.852, -249.29307,0.51,100.209,2.82,3.097,,0.2,,,3.091,
CoAl,B2,5.317,-1632.95316,1.99,75.169,4.47,2.814,,0.7,-1.4,,2.795,2.855
CrW,B2,5.636,-17205.17745,2.99,89.503,4.51,2.982,,0.1,,,2.980,
fm,FeAl_B2,5.360,-1512.37154,1.92,77.004,4.08,2.836,,0.9,-1.6,,2.812,2.882
NiAl,B2,5.388,-1760.19712,1.78,78.221,4.51,2.851,,0.6,-1.1,,2.834,2.882
AlAs,B3_ES,10.681,-2499.83590,0.80,152.311,3.46,5.652,,0.3,0.1,,5.636,5.646
AlP,B3_ES,10.330, -582.89295,0.88,137.802,3.91,5.466,,0.5,0.4,,5.440,5.445
BAs,B3_ES,9.045,-2282.53673,1.46,92.506,3.50,4.786,,1.0,0.6,,4.740,4.760
BN,B3_ES,6.828,  -79.09880,3.94,39.797,3.58,3.613,,0.8,0.8,,3.585,3.585
BP,B3_ES,8.597, -365.61525,1.72,79.412,3.46,4.549,,1.2,0.6,,4.496,4.520
GaAs,B3_ES,10.518,-4199.15120,0.86,145.438,3.74,5.566,,-0.9,-1.3,,5.616,5.637
GaN,B3_ES,8.387,-1995.63388,2.10,73.758,4.27,4.438,,-0.6,-1.8,,4.463,4.520
GaP,B3_ES,10.127,-2282.20745,0.98,129.817,3.94,5.359,,-0.8,-1.4,,5.401,5.435
InAs,B3_ES,11.180,-8135.83514,0.72,174.691,4.66,5.916,,-2.0,-2.1,,6.038,6.044
InP,B3_ES,10.827,-6218.88477,0.81,158.638,4.73,5.729,,-1.9,-2.2,,5.839,5.856
SiC,B3_ES,8.274, -326.81686,2.16,70.793,3.59,4.378,,1.0,0.9,,4.333,4.340
CeO2,C1_ES,10.113,-6005.58199,2.35,86.197,4.83,5.352,,-0.4,-0.8,,5.371,5.393
AlLi3,L1_2,7.587, -132.05559,0.30,109.176,5.35,4.015,,-0.7,,,4.043,
AlLi,L1_0,7.494, -249.29626,0.50,105.215,2.80,3.966,,0.4,,,3.950,
LiAl3,L1_2,7.558, -366.52781,0.65,107.937,4.53,4.000,,0.6,0.7,,3.974,3.973
AlLi,B32,11.793, -249.30765,0.54,102.507,4.01,6.241,,,-1.9,NO_INFO,,6.361
