Ag,A1,7.619,-10624.64527,1.356,110.58546,5.27
Al,A1,7.594,-483.84047,0.790,109.49084,4.19
Au,A1,7.657,-38074.57721,2.004,112.24243,5.15
Ca,A1,10.019,-1357.52728,0.192,251.44824,3.56
Cu,A1,6.696,-3304.86580,1.830,75.04838,4.77
fm,Co_A1,6.532,-2782.21234,2.549,69.67686,5.03
fm,Ni_A1,6.522,-3036.70162,2.422,69.37015,4.91
Ir,A1,7.250,-35695.84304,3.961,95.26249,4.46
Li,A1,8.004,-14.83497,0.150,128.19523,3.20
Pb,A1,9.048,-41833.99110,0.615,185.17174,5.12
Pd,A1,7.325,-10084.42574,2.169,98.26215,5.02
Pt,A1,7.393,-36872.60080,3.090,101.00322,4.70
Rh,A1,7.168,-9561.15915,3.042,92.08542,4.45
Sr,A1,10.892,-6352.18177,0.147,323.01574,3.33
Th,A1,9.025,-53045.39499,0.754,183.76663,3.38
Ti,A1,7.582,-1703.96397,1.129,108.96914,3.22
Al,A2,6.060,-483.83671,0.716,111.28570,4.29
Ba,A2,8.649,-16265.89474,0.049,323.50150,-1.82
Cr,A2,5.297,-2097.70417,2.772,74.29465,4.31
fm,Fe_A2,5.249,-2541.08736,2.219,72.30606,4.14
K,A2,9.520,-1201.18548,0.045,431.37551,4.03
Li,A2,6.359,-14.83481,0.147,128.55861,2.58
Mo,A2,5.911,-8090.63198,2.683,103.24027,2.81
Na,A2,7.665,-323.42518,0.092,225.14330,3.83
Nb,A2,6.144,-7632.66826,1.549,115.96452,4.11
Rb,A2,10.123,-5955.69140,0.035,518.73242,3.13
Ta,A2,6.159,-31233.35846,2.156,116.78876,2.60
V,A2,5.549,-1894.78042,1.965,85.42564,3.21
W,A2,5.953,-32313.02317,3.067,105.50505,3.49
C1ES1,A4_ES2,6.732,-75.66025,4.620,38.14038,3.46
Ge1ES1,A4_ES2,10.699,-4192.27195,0.730,153.10079,4.42
Si1ES1,A4_ES2,10.273,-578.10320,0.948,135.51155,4.08
Sn1ES1,A4_ES2,12.306,-12347.34249,0.466,232.93278,4.27
AlLi,B1,10.163,-249.31320,0.275,131.21785,3.41
CaO,B1,8.552,-753.74885,1.160,78.17397,4.63
HfC,B1,8.763,-15126.50248,2.529,84.12638,4.06
HfN,B1,8.551,-15143.22960,3.383,78.16478,3.63
LiCl,B1,9.228,-467.74118,0.350,98.21895,2.77
LiF,B1,7.283,-106.95414,1.141,48.29125,4.82
LiH,B1,7.364,-8.03197,0.425,49.91398,3.40
MgO,B1,7.623,-274.52357,15.106,55.38118,4.00
MgS,B1,9.692,-597.65774,0.905,113.81398,4.07
NaCl,B1,10.260,-622.03029,0.299,135.00152,4.48
NaF,B1,8.460,-261.19140,0.498,75.68558,3.63
NbC,B1,8.504,-3854.22984,3.204,76.87201,3.87
NbN,B1,8.342,-3870.90918,3.832,72.55129,4.21
TiC,B1,8.218,-889.87872,2.647,69.38577,3.74
TiN,B1,8.006,-906.59682,3.479,64.13843,4.27
V1C1,B1,7.869,-985.26674,3.385,60.90284,3.69
V1N1,B1,7.718,-1001.95409,4.067,57.46918,4.09
ZrC,B1,8.932,-3633.10521,2.306,89.06649,3.80
ZrN,B1,8.731,-3649.81936,3.215,83.19414,5.25
AlLi,B2,5.858,-249.34717,0.511,100.51065,2.84
CoAl,B2,5.316,-1633.07858,2.007,75.12391,4.56
CrW,B2,5.641,-17205.36245,2.974,89.75960,4.45
FeAl,B2,5.350,-1512.49408,1.989,76.57488,4.15
fm,FeAl_B2,5.357,-1512.49460,1.951,76.87992,6.58
NiAl,B2,5.387,-1760.32486,1.792,78.14925,4.42
AlAsES1ES1,B3_ES,10.566,-2500.00140,0.824,147.46654,3.89
AlP1ES1ES1,B3_ES,10.246,-583.01496,0.948,134.45945,3.81
B1AsES1ES1,B3_ES,8.640,-2282.74446,1.874,80.60841,4.54
B1N1ES1ES1,B3_ES,6.813,-79.18021,4.097,39.52209,3.37
B1P1ES1ES1,B3_ES,8.279,-365.76813,2.062,70.93002,3.80
GaAsES1ES1,B3_ES,10.313,-4199.37402,0.950,137.09316,4.53
GaN1ES1ES1,B3_ES,8.194,-1995.84619,2.597,68.77168,4.62
GaP1ES1ES1,B3_ES,9.956,-2282.38687,1.094,123.37209,4.36
InAsES1ES1,B3_ES,10.957,-8136.08578,0.864,164.42520,5.12
InP1ES1ES1,B3_ES,10.596,-6219.09855,0.981,148.70514,4.87
SiC1ES1ES1,B3_ES,8.154,-326.97935,2.577,67.76518,3.68
CeO2ES,C1_ES,10.100,-6005.70820,2.412,85.85244,4.61
AlLi3,L1_2,7.613,-132.09238,0.285,110.31233,3.94
AlLi,L1_0,7.501,-249.35015,0.478,105.50321,4.45
LiAl3,L1_2,7.563,-366.59882,0.667,108.15675,4.31
AlLi,B32,11.818,-249.36197,0.540,103.15997,4.02
Ti,A3,5.378,-1703.96543,1.158,110.00511,3.11
