Ag,A1,7.627,-10624.42205,1.349,110.91861,5.14
Al,A1,7.597,-483.75222,0.787,109.60888,4.15
Au,A1,7.663,-38074.36219,1.975,112.50761,5.14
Ca,A1,10.020,-1357.40173,0.187,251.52429,2.84
Cu,A1,6.700,-3304.69546,1.830,75.18467,4.68
fm,Co_A1,6.531,-2782.04935,2.577,69.64454,5.34
fm,Fe_A1,6.753,-2540.90861,2.692,76.98179,8.19
fm,Ni_A1,6.523,-3036.53518,2.477,69.38608,5.88
Ir,A1,7.247,-35695.62324,3.891,95.16695,4.58
Li,A1,8.023,-14.81406,0.156,129.12545,0.88
Pb,A1,9.056,-41833.78596,0.598,185.68946,5.83
Pd,A1,7.330,-10084.20406,2.174,98.47400,4.76
Pt,A1,7.396,-36872.38304,3.038,101.13755,4.70
Rh,A1,7.169,-9560.93935,2.977,92.11594,4.54
Sr,A1,10.885,-6351.98382,0.149,322.46158,3.17
Th,A1,9.022,-53045.22038,0.755,183.61644,3.61
Ti,A1,7.567,-1703.82822,1.114,108.34111,3.59
Al,A2,6.063,-483.74830,0.687,111.44736,4.81
Ba,A2,8.639,-16265.66372,0.045,322.33552,-3.14
Cr,A2,5.293,-2097.55705,2.741,74.14232,4.13
fm,Fe_A2,5.244,-2540.92769,2.225,72.08447,4.13
K,A2,9.526,-1201.06489,0.047,432.19429,4.21
Li,A2,6.369,-14.81369,0.151,129.17046,3.45
Mo,A2,5.905,-8090.42093,2.638,102.94427,3.04
Na,A2,7.673,-323.35012,0.091,225.87626,3.77
Nb,A2,6.135,-7632.46062,1.521,115.46733,4.54
Rb,A2,10.121,-5955.49539,0.035,518.35293,3.41
Ta,A2,6.150,-31233.13351,2.174,116.31966,2.44
V,A2,5.544,-1894.63876,1.968,85.20989,3.11
W,A2,5.946,-32312.79952,3.052,105.10424,3.54
C1ES1,A4_ES2,6.760,-75.58644,4.437,38.60818,3.37
Ge1ES1,A4_ES2,10.765,-4192.06909,0.691,155.91795,3.96
Si1ES1,A4_ES2,10.345,-577.98499,0.874,138.40686,3.95
Sn1ES1,A4_ES2,12.361,-12347.09741,0.458,236.06112,3.66
AlLi,B1,10.136,-249.25565,0.248,130.15698,4.20
CaO,B1,8.639,-753.65547,1.320,80.58250,5.66
HfC,B1,8.730,-15126.37834,2.541,83.17682,4.15
HfN,B1,8.509,-15143.11946,3.516,77.00493,3.28
LiCl,B1,9.258,-467.67359,0.457,99.18332,5.87
LiF,B1,7.440,-106.91012,0.983,51.48894,4.59
LiH,B1,7.350,-8.01847,0.420,49.62840,3.41
MgO,B1,7.878,-274.47130,1.906,61.12533,4.07
MgS,B1,9.791,-597.55692,0.836,117.32082,3.89
NaCl,B1,10.220,-621.93601,0.293,133.44731,4.83
NaF,B1,8.486,-261.12180,0.535,76.40038,4.66
NbC,B1,8.459,-3854.11825,3.260,75.65550,4.01
NbN,B1,8.285,-3870.80597,3.975,71.08068,4.26
TiC,B1,8.193,-889.79624,2.618,68.74060,3.64
TiN,B1,7.967,-906.52410,3.517,63.21625,4.15
V1C1,B1,7.840,-985.18291,3.319,60.24024,3.80
V1N1,B1,7.679,-1001.87840,4.099,56.59126,4.63
ZrC,B1,8.902,-3632.99080,2.341,88.19479,4.03
ZrN,B1,8.685,-3649.71421,3.267,81.88638,4.92
AlLi,B2,5.852,-249.29307,0.514,100.20883,2.82
CoAl,B2,5.317,-1632.95316,1.992,75.16950,4.47
CrW,B2,5.636,-17205.17745,2.989,89.50295,4.51
FeAl,B2,5.350,-1512.37112,1.982,76.57647,4.07
fm,FeAl_B2,5.360,-1512.37154,1.923,77.00406,4.08
NiAl,B2,5.388,-1760.19712,1.784,78.22084,4.51
AlAsES1ES1,B3_ES,10.681,-2499.83590,0.799,152.31064,3.46
AlP1ES1ES1,B3_ES,10.330,-582.89295,0.879,137.80221,3.91
B1AsES1ES1,B3_ES,9.045,-2282.53673,1.457,92.50570,3.50
B1N1ES1ES1,B3_ES,6.828,-79.09880,3.938,39.79708,3.58
B1P1ES1ES1,B3_ES,8.597,-365.61525,1.718,79.41182,3.46
GaAsES1ES1,B3_ES,10.518,-4199.15120,0.856,145.43814,3.74
GaN1ES1ES1,B3_ES,8.387,-1995.63388,2.101,73.75772,4.27
GaP1ES1ES1,B3_ES,10.127,-2282.20745,0.980,129.81655,3.94
InAsES1ES1,B3_ES,11.180,-8135.83514,0.718,174.69122,4.66
InP1ES1ES1,B3_ES,10.827,-6218.88477,0.814,158.63771,4.73
SiC1ES1ES1,B3_ES,8.274,-326.81686,2.163,70.79322,3.59
CeO2ES,C1_ES,10.113,-6005.58199,2.350,86.19668,4.83
AlLi3,L1_2,7.587,-132.05559,0.297,109.17554,5.35
AlLi,L1_0,7.494,-249.29626,0.497,105.21542,2.80
LiAl3,L1_2,7.558,-366.52781,0.654,107.93727,4.53
AlLi,B32,11.793,-249.30765,0.539,102.50677,4.01
Ti,A3,5.369,-1703.82965,1.180,109.41446,3.72
