Ag,A1,7.851,-10643.28462,0.922,120.99876,4.57
Al,A1,7.442,-485.94594,1.241,103.05680,3.37
Au,A1,7.736,-38126.82806,1.913,115.72890,3.51
Cu,A1,6.902,-3312.63601,1.259,82.18287,4.22
fm,Co_A1,6.672,-2788.97861,1.776,74.25011,5.88
fm,Fe_A1,6.953,-2547.40274,1.454,84.04661,5.12
fm,Ni_A1,6.647,-3043.94607,1.784,73.42611,4.74
Ir,A1,7.241,-35744.81322,3.533,94.90587,4.32
Pb,A1,10.770,-41891.89177,0.044,312.28067,4.75
Pd,A1,7.388,-10102.30640,1.856,100.82508,4.76
Pt,A1,7.409,-36923.16577,2.946,101.68045,3.99
Rh,A1,7.201,-9578.31232,2.493,93.37000,4.80
Th,A1,9.278,-53127.12943,0.906,199.63745,-4.80
Ti,A1,7.700,-1708.67034,0.958,114.11646,3.69
Al,A2,5.914,-485.94141,1.157,103.43127,3.60
Cr,A2,5.317,-2103.13750,2.472,75.16416,4.10
fm,Fe_A2,5.452,-2547.41099,1.600,81.02061,3.63
Mo,A2,5.905,-8105.75332,2.646,102.97406,3.89
Nb,A2,6.196,-7647.15693,1.488,118.93514,5.31
Ta,A2,6.169,-31276.73121,1.939,117.38945,3.52
V,A2,5.601,-1899.83746,1.952,87.84693,4.60
W,A2,5.918,-32357.69567,3.271,103.65119,2.24
C1ES1,A4_ES2,6.750,-76.21926,4.074,38.44063,3.79
Ge1ES1,A4_ES2,11.004,-4201.59630,0.533,166.53404,4.03
Si1ES1,A4_ES2,10.369,-580.38017,0.774,139.36234,4.13
Sn1ES1,A4_ES2,12.745,-12368.15280,0.322,258.76298,3.79
CaO,B1,10.025,-756.24714,0.166,125.95094,4.00
HfC,B1,9.045,-15147.86908,3.015,92.49266,-1.83
HfN,B1,8.803,-15164.70490,2.668,85.25941,4.36
MgO,B1,8.072,-275.94240,1.881,65.74715,-0.38
MgS,B1,9.909,-600.00850,1.392,121.61182,0.08
NbC,B1,8.669,-3861.75186,2.571,81.44384,3.27
NbN,B1,8.464,-3878.53167,3.402,75.79217,3.43
TiC,B1,8.494,-892.52724,2.161,76.59846,2.78
TiN,B1,8.212,-909.34694,3.144,69.22358,3.33
V1C1,B1,8.114,-988.06698,2.610,66.77686,2.35
V1N1,B1,7.927,-1004.86023,3.363,62.26913,3.21
ZrC,B1,9.155,-3640.35144,1.995,95.92200,3.06
ZrN,B1,8.897,-3657.16248,2.849,88.02601,3.79
CoAl,B2,5.371,-1637.50926,1.895,77.45797,3.82
CrW,B2,5.623,-17230.41723,2.686,88.90457,3.84
FeAl,B2,5.392,-1516.69249,1.923,78.37351,3.87
fm,FeAl_B2,5.424,-1516.69546,1.716,79.78903,3.86
NiAl,B2,5.445,-1765.00324,1.736,80.72209,3.90
AlAsES1ES1,B3_ES,10.669,-2505.95997,0.832,151.80987,3.93
AlP1ES1ES1,B3_ES,10.318,-585.31438,0.939,137.29717,3.98
B1AsES1ES1,B3_ES,9.127,-2287.81955,1.300,95.04082,3.51
B1N1ES1ES1,B3_ES,6.800,-79.75986,4.112,39.31057,3.58
B1P1ES1ES1,B3_ES,8.623,-367.19388,1.527,80.15323,3.41
GaAsES1ES1,B3_ES,10.719,-4208.68975,0.698,153.95740,4.04
GaN1ES1ES1,B3_ES,8.428,-2000.52465,1.741,74.84391,4.76
GaP1ES1ES1,B3_ES,10.281,-2288.03894,0.807,135.85611,4.20
InAsES1ES1,B3_ES,11.408,-8151.03495,0.597,185.58836,4.08
InP1ES1ES1,B3_ES,10.994,-6230.37731,0.737,166.08692,3.67
SiC1ES1ES1,B3_ES,8.184,-328.35176,2.539,68.52591,3.35
CeO2ES,C1_ES,10.098,-6015.31364,2.053,85.80411,9.59
LiAl3,L1_2,7.468,-368.22695,0.839,104.13225,4.00
Ti,A3,5.459,-1708.67156,1.036,115.03904,3.34
