chem. ID,str. ID,"a, Bohr","Etot, Ry",B0,"V, Bohr^3",B0',"a, A", ,"err(gold), %","err(exp), %", ,"a_gold, A","a_Exp, A"
Ag,A1,7.626,-10624.64485,1.35,110.867,5.11,4.036,,0.7,-0.7,,4.007,4.062
Al,A1,7.589, -483.84038,0.82,109.281,3.89,4.016,,0.8,-0.1,,3.983,4.019
Au,A1,7.658,-38074.57699,1.99,112.294,5.02,4.052,,0.1,-0.2,,4.047,4.062
Ca,A1,10.055,-1357.52714,0.19,254.184,3.33,5.321,,-0.2,-4.2,,5.333,5.556
Cu,A1,6.700,-3304.86611,1.81,75.192,4.79,3.545,,0.7,-1.4,,3.522,3.596
Ir,A1,7.232,-35695.84504,3.85,94.562,4.46,3.827,,-0.0,-0.1,,3.828,3.831
Li,A1,8.014,  -14.83535,0.15,128.668,3.50,4.241,,0.2,-2.2,,4.231,4.338
Pb,A1,9.055,-41833.98921,0.61,185.600,4.78,4.792,,-1.7,-2.4,,4.874,4.912
Pd,A1,7.324,-10084.42490,2.23,98.201,4.53,3.876,,0.7,-0.0,,3.848,3.876
Pt,A1,7.386,-36872.60094,3.04,100.715,4.64,3.909,,-0.0,-0.1,,3.909,3.913
Rh,A1,7.161,-9561.15865,2.98,91.810,4.40,3.789,,0.8,-0.1,,3.759,3.793
Sr,A1,10.964,-6352.18158,0.15,329.516,2.80,5.802,,0.3,-3.9,,5.786,6.040
Th,A1,8.997,-53045.39606,0.70,182.038,2.57,4.761,,-3.2,-6.1,FAIL,4.920,5.071
Ti,A1,7.588,-1703.96375,1.15,109.226,3.41,4.015,,-0.0,,,4.016,
Al,A2,6.058, -483.83642,0.72,111.155,4.28,3.206,,1.1,,,3.172,
Ba,A2,9.124,-16265.88816,0.11,379.803,1.81,4.828,,1.6,-3.5,,4.754,5.002
Cr,A2,5.293,-2097.70409,2.76,74.146,4.16,2.801,,-0.0,,,2.801,
K,A2,9.620,-1201.18479,0.04,445.127,-1.51,5.091,,0.9,-2.3,,5.045,5.212
Li,A2,6.364,  -14.83501,0.15,128.871,3.69,3.368,,0.1,-2.4,,3.363,3.451
Mo,A2,5.887,-8090.63504,2.59,102.024,3.13,3.115,,-0.0,-0.8,,3.116,3.141
Na,A2,7.682, -323.42492,0.09,226.653,3.09,4.065,,0.4,-3.4,,4.047,4.209
Nb,A2,6.129,-7632.67007,1.60,115.104,3.80,3.243,,-0.2,-1.5,,3.250,3.294
Rb,A2,10.267,-5955.69015,0.04,541.098,3.93,5.433,,1.1,-2.6,,5.374,5.577
Ta,A2,6.130,-31233.35497,2.15,115.153,2.24,3.244,,-0.4,-1.7,,3.257,3.299
V,A2,5.551,-1894.77979,1.98,85.510,3.41,2.937,,0.2,-2.9,,2.932,3.024
W,A2,5.920,-32313.02994,3.00,103.752,3.43,3.133,,-0.3,-0.9,,3.143,3.160
C,A4_ES2,6.741,  -75.63826,4.49,38.285,3.40,3.567,,0.9,0.7,,3.536,3.544
Ge,A4_ES2,10.802,-4192.25016,0.67,157.562,4.20,5.716,,1.5,1.4,,5.632,5.639
Si,A4_ES2,10.326, -578.08283,0.89,137.610,4.17,5.464,,1.1,0.9,,5.407,5.415
Sn,A4_ES2,12.479,-12347.32055,0.41,242.889,4.34,6.604,,1.9,2.0,,6.481,6.474
CaO,B1,8.916, -753.72438,1.32,88.598,7.27,4.718,,-0.0,-1.4,,4.719,4.787
HfC,B1,8.721,-15126.51452,2.57,82.915,4.27,4.615,,0.8,-0.3,,4.578,4.627
HfN,B1,0.000,    0.00000,0.00,0.000,0.00,,,,,NO_INFO,,
LiCl,B1,9.494, -467.72962,0.38,106.967,3.72,5.024,,0.8,-0.9,,4.986,5.072
LiF,B1,7.522, -106.90334,0.71,53.204,4.48,3.980,,1.6,0.5,,3.919,3.960
LiH,B1,7.354,   -8.03253,0.42,49.718,9.38,3.892,,-0.9,-3.0,,3.927,4.010
MgO,B1,7.887, -274.53998,1.97,61.329,3.93,4.174,,0.1,-0.3,,4.169,4.186
MgS,B1,9.799, -597.65047,0.79,117.619,4.33,5.185,,0.9,0.1,,5.139,5.182
NaCl,B1,10.450, -622.02215,0.29,142.639,4.56,5.530,,0.8,-0.6,,5.484,5.565
NaF,B1,0.000,    0.00000,0.00,0.000,0.00,,,,,NO_INFO,,
NbC,B1,8.451,-3854.24511,3.25,75.440,4.31,4.472,,0.9,0.2,,4.432,4.462
NbN,B1,8.272,-3870.93728,3.95,70.743,4.14,4.377,,0.4,-0.1,,4.361,4.383
TiC,B1,8.211, -889.88463,2.64,69.201,3.74,4.345,,1.9,0.7,,4.266,4.317
TiN,B1,7.980, -906.61638,3.60,63.526,4.24,4.223,,1.1,-0.1,,4.178,4.228
VC,B1,7.846, -985.27474,3.40,60.378,3.73,4.152,,1.4,0.1,,4.095,4.148
VN,B1,7.683,-1001.97394,4.07,56.693,4.58,4.066,,0.4,-1.5,,4.050,4.126
ZrC,B1,8.913,-3633.11450,2.38,88.520,4.02,4.717,,1.5,0.6,,4.647,4.688
ZrN,B1,8.693,-3649.84236,3.35,82.118,4.95,4.600,,1.5,0.6,,4.532,4.574
AlLi,B2,5.856, -249.34780,0.45,100.394,3.86,3.099,,0.3,,,3.091,
CoAl,B2,5.317,-1633.07824,2.01,75.144,4.47,2.814,,0.7,-1.4,,2.795,2.855
CrW,B2,5.625,-17205.36599,3.03,88.971,4.68,2.977,,-0.1,,,2.980,
FeAl,B2,5.350,-1512.49365,1.98,76.573,4.01,2.831,,0.7,-1.8,,2.812,2.882
NiAl,B2,5.385,-1760.32457,1.80,78.069,4.38,2.850,,0.6,-1.1,,2.834,2.882
AlAs,B3_ES,10.677,-2499.97392,0.78,152.142,3.82,5.650,,0.2,0.1,,5.636,5.646
AlP,B3_ES,10.317, -582.98891,0.90,137.267,3.79,5.460,,0.4,0.3,,5.440,5.445
BAs,B3_ES,9.035,-2282.65053,1.46,92.196,3.72,4.781,,0.9,0.4,,4.740,4.760
BN,B3_ES,6.813,  -79.14795,3.98,39.527,3.50,3.605,,0.6,0.6,,3.585,3.585
BP,B3_ES,8.576, -365.68785,1.77,78.848,3.36,4.538,,0.9,0.4,,4.496,4.520
GaAs,B3_ES,10.488,-4199.33627,0.84,144.222,4.52,5.550,,-1.2,-1.5,,5.616,5.637
GaN,B3_ES,8.358,-1995.75502,2.14,72.994,4.39,4.423,,-0.9,-2.1,,4.463,4.520
GaP,B3_ES,10.091,-2282.35095,0.99,128.448,4.24,5.340,,-1.1,-1.7,,5.401,5.435
InAs,B3_ES,11.138,-8136.04564,0.74,172.698,4.55,5.894,,-2.4,-2.5,,6.038,6.044
InP,B3_ES,10.780,-6219.05364,0.84,156.575,4.47,5.705,,-2.3,-2.6,,5.839,5.856
SiC,B3_ES,8.262, -326.89046,2.19,70.508,3.60,4.372,,0.9,0.7,,4.333,4.340
CeO2,C1_ES,10.059,-6005.70380,2.32,84.823,4.31,5.323,,-0.9,-1.3,,5.371,5.393
Ti,A3,5.383,-1703.96532,1.19,110.292,3.33,2.849,,-0.0,,,2.849,
AlLi3,L1_2,7.589, -132.09356,0.29,109.249,4.10,4.016,,-0.7,,,4.043,
AlLi,L1_0,7.490, -249.35083,0.48,105.068,4.00,3.964,,0.3,,,3.950,
LiAl3,L1_2,7.555, -366.59923,0.67,107.785,4.24,3.998,,0.6,0.6,,3.974,3.973
