Ag,A1, 7.613,-10624.64786,1.365, 110.29494,5.19
Al,A1, 7.577,-483.84464,0.797, 108.74209,4.29
Au,A1, 7.641,-38074.58393,2.030, 111.53647,5.02
Ca,A1, 10.058,-1357.52901,0.197, 254.35179,3.12
Cu,A1, 6.689,-3304.86916,1.864, 74.83148,4.66
Ir,A1, 7.217,-35695.85579,3.907, 93.97834,4.48
Li,A1, 8.012,-14.83604,0.157, 128.57082,2.91
Pb,A1, 9.032,-41833.99482,0.622, 184.17225,4.90
Pd,A1, 7.305,-10084.42853,2.433, 97.45546,4.00
Pt,A1, 7.370,-36872.60974,3.089, 100.08461,4.56
Rh,A1, 7.151,-9561.16366,3.031, 91.40774,4.24
Sr,A1, 10.971,-6352.18332,0.152, 330.14449,1.81
Th,A1, 8.964,-53045.40832,0.744, 180.06547,3.19
Ti,A1, 7.592,-1703.96732,1.157, 109.39490,3.40
fm,Co_A1, 6.523,-2782.21583,2.790, 69.38580,7.33
fm,Ni_A1, 6.506,-3036.70495,2.592, 68.83859,10.06
Al,A2, 6.039,-483.84046,0.737, 110.09703,4.47
Ba,A2, 9.173,-16265.88808,0.121, 385.88382,0.82
Cr,A2, 5.291,-2097.70796,2.675, 74.06765,3.58
K,A2, 9.607,-1201.18498,0.047, 443.37191,3.86
Li,A2, 6.358,-14.83567,0.156, 128.51171,4.01
Mo,A2, 5.887,-8090.64022,2.644, 102.03646,2.99
Na,A2, 7.675,-323.42529,0.081, 226.01188,3.40
Nb,A2, 6.137,-7632.67364,1.606, 115.55825,3.70
Rb,A2, 10.295,-5955.69011,0.038, 545.58913,3.33
Ta,A2, 6.129,-31233.36241,2.193, 115.12385,2.14
V,A2, 5.554,-1894.78303,2.007, 85.68343,3.40
W,A2, 5.916,-32313.03947,3.094, 103.52640,3.19
fm,Fe_A2, 5.245,-2541.08988,2.226, 72.14362,3.76
C1ES1,A4_ES2, 6.727,-75.63293,4.442, 38.04891,3.55
Ge1ES1,A4_ES2, 10.834,-4192.24161,0.664, 158.93983,3.98
Si1ES1,A4_ES2, 10.312,-578.07666,0.878, 137.07895,4.16
Sn1ES1,A4_ES2, 12.535,-12347.31025,0.427, 246.19835,3.84
AlLi,B1, 10.442,-249.31262,0.008, 142.32359,20.32
CaO,B1, 8.991,-753.69508,1.035, 90.85278,4.04
HfC,B1, 8.717,-15126.51120,2.525, 82.80833,4.00
HfN,B1, 16.775,-15151.85959,0.050, 590.00971,4.00
LiCl,B1, 9.590,-467.71064,0.310, 110.23392,2.11
LiF,B1, 7.738,-106.88282,0.722, 57.90890,3.23
LiH,B1, 7.403,-8.03007,0.431, 50.71535,4.21
MgO,B1, 7.983,-274.51827,1.872, 63.59304,3.65
MgS,B1, 9.954,-597.62916,0.656, 123.27146,4.33
NaCl,B1, 10.936,-622.00424,0.142, 163.46674,4.89
NaF,B1, 8.841,-261.16938,0.507, 86.36947,4.00
NbC,B1, 8.468,-3854.24040,3.177, 75.89859,4.13
NbN,B1, 8.288,-3870.92376,3.850, 71.15390,4.06
TiC,B1, 8.246,-889.87848,2.618, 70.07674,3.24
TiN,B1, 8.014,-906.59832,3.433, 64.33417,4.47
V1C1,B1, 7.871,-985.27162,3.557, 60.94870,2.91
V1N1,B1, 7.713,-1001.96226,4.009, 57.35376,4.07
ZrC,B1, 8.929,-3633.10677,2.332, 88.98685,3.91
ZrN,B1, 8.702,-3649.82260,3.017, 82.37030,3.84
AlLi,B2, 5.841,-249.35136,0.475, 99.66256,3.48
CoAl,B2, 5.313,-1633.08127,2.014, 74.97556,4.14
CrW,B2, 5.623,-17205.37342,3.079, 88.88384,4.73
FeAl,B2, 5.345,-1512.49724,2.000, 76.36449,4.13
NiAl,B2, 5.380,-1760.32695,1.817, 77.84535,4.71
fm,FeAl_B2, 5.355,-1512.49798,1.949, 76.77064,4.64
AlAsES1ES1,B3_ES, 10.673,-2499.96446,0.748, 151.96150,4.00
AlP1ES1ES1,B3_ES, 10.301,-582.97824,0.880, 136.62016,3.85
B1AsES1ES1,B3_ES, 9.030,-2282.64324,1.423, 92.04440,3.94
B1N1ES1ES1,B3_ES, 6.789,-79.13547,4.010, 39.11750,3.48
B1P1ES1ES1,B3_ES, 8.565,-365.68159,1.743, 78.54227,3.46
GaAsES1ES1,B3_ES, 10.506,-4199.32685,0.807, 144.95782,4.56
GaN1ES1ES1,B3_ES, 8.372,-1995.73097,2.061, 73.35931,4.37
GaP1ES1ES1,B3_ES, 10.095,-2282.34095,0.953, 128.60555,4.47
InAsES1ES1,B3_ES, 11.171,-8136.03356,0.709, 174.24788,4.52
InP1ES1ES1,B3_ES, 10.797,-6219.04038,0.815, 157.35001,4.60
SiC1ES1ES1,B3_ES, 8.270,-326.87074,2.132, 70.70687,3.62
CeO2ES,C1_ES, 10.010,-6005.69785,2.484, 83.58879,5.14
Ti,A3, 5.385,-1703.96897,1.202, 110.41127,3.42
AlLi3,L1_2, 7.570,-132.09456,0.293, 108.43703,3.90
AlLi,L1_0, 7.496,-249.35102,0.490, 105.28497,1.87
LiAl3,L1_2, 7.550,-366.60059,0.668, 107.57666,4.38
AlLi,B32, 11.812,-249.35959,0.529, 102.99162,3.92
