chem. ID,str. ID,"a, Bohr","Etot, Ry",B0,"V, Bohr^3",B0',"a, A", ,"err(gold), %","err(exp), %", ,"a_gold, A","a_Exp, A"
Ag,A1,7.706,-10629.77442,1.21,114.417,4.97,4.078,,1.8,0.4,,4.007,4.062
Al,A1,7.631, -484.70010,0.79,111.104,4.04,4.038,,1.4,0.5,,3.983,4.019
Au,A1,7.698,-38086.24540,1.99,114.026,4.62,4.074,,0.7,0.3,,4.047,4.062
Ca,A1,10.232,-1359.11773,0.18,267.822,3.67,5.415,,1.5,-2.5,,5.333,5.556
Cu,A1,6.772,-3307.43565,1.67,77.628,4.51,3.584,,1.7,-0.3,,3.522,3.596
fm,Co_A1,6.601,-2784.54611,2.28,71.913,4.46,3.493,,-0.2,-1.3,,3.500,3.538
fm,Ni_A1,6.588,-3039.14955,2.22,71.484,5.11,3.486,,1.8,-0.6,,3.423,3.508
Ir,A1,7.261,-35706.97031,4.03,95.694,4.06,3.842,,0.4,0.3,,3.828,3.831
Li,A1,8.184,  -14.92170,0.14,137.013,2.91,4.331,,2.4,-0.2,,4.231,4.338
Pb,A1,9.123,-41846.53547,0.38,189.800,13.18,4.828,,-1.0,-1.7,,4.874,4.912
Pd,A1,7.375,-10089.38700,2.12,100.263,4.44,3.903,,1.4,0.7,,3.848,3.876
Pt,A1,7.407,-36883.99282,3.22,101.579,4.31,3.920,,0.3,0.2,,3.909,3.913
Rh,A1,7.204,-9565.95857,2.87,93.467,4.38,3.812,,1.4,0.5,,3.759,3.793
Sr,A1,11.105,-6355.96966,0.14,342.407,2.82,5.877,,1.6,-2.7,,5.786,6.040
Th,A1,9.068,-53060.68446,0.82,186.385,3.44,4.799,,-2.5,-5.4,,4.920,5.071
Ti,A1,7.675,-1705.75344,1.08,113.042,2.99,4.061,,1.1,,,4.016,
Al,A2,6.081, -484.69601,0.72,112.433,4.54,3.218,,1.4,,,3.172,
Ba,A2,9.114,-16272.57869,0.09,378.588,-1.17,4.823,,1.4,-3.6,,4.754,5.002
Cr,A2,5.342,-2099.69977,2.70,76.207,4.37,2.827,,0.9,-2.9,,2.801,2.910
fm,Fe_A2,5.311,-2543.30906,1.96,74.886,8.50,2.810,,2.1,-1.5,,2.754,2.853
K,A2,9.840,-1202.66878,0.04,476.440,3.45,5.207,,3.2,-0.1,FAIL,5.045,5.212
Li,A2,6.493,  -14.92132,0.14,136.875,3.07,3.436,,2.2,-0.4,,3.363,3.451
Mo,A2,5.937,-8094.97619,2.72,104.641,2.68,3.142,,0.8,0.0,,3.116,3.141
Na,A2,7.891, -324.09775,0.08,245.646,4.18,4.176,,3.2,-0.8,FAIL,4.047,4.209
Nb,A2,6.199,-7636.86671,1.50,119.086,3.73,3.280,,0.9,-0.4,,3.250,3.294
Rb,A2,10.514,-5959.34041,0.04,581.107,-0.98,5.564,,3.5,-0.2,FAIL,5.374,5.577
Ta,A2,6.208,-31243.50089,1.91,119.604,3.49,3.285,,0.9,-0.4,,3.257,3.299
V,A2,5.605,-1896.67044,1.93,88.026,3.26,2.966,,1.2,-1.9,,2.932,3.024
W,A2,5.967,-32323.40362,3.77,106.216,1.07,3.158,,0.5,-0.1,,3.143,3.160
C,A4_ES2,6.768,  -75.87925,4.43,38.751,3.35,3.581,,1.3,1.1,,3.536,3.544
Ge,A4_ES2,10.855,-4195.20268,0.64,159.878,4.21,5.744,,2.0,1.9,,5.632,5.639
Si,A4_ES2,10.353, -579.02551,0.88,138.713,4.09,5.479,,1.3,1.2,,5.407,5.415
Sn,A4_ES2,12.519,-12352.95152,0.41,245.274,3.68,6.625,,2.2,2.3,,6.481,6.474
CaO,B1,8.642, -754.79420,1.59,80.671,5.56,4.573,,-3.1,-4.5,FAIL,4.719,4.787
HfC,B1,8.802,-15131.57955,2.34,85.234,4.00,4.658,,1.7,0.7,,4.578,4.627
HfN,B1,8.570,-15148.33660,3.40,78.668,2.93,4.535,,1.2,0.5,,4.482,4.512
LiCl,B1,9.573, -468.38984,0.29,109.670,4.81,5.066,,1.6,-0.1,,4.986,5.072
LiF,B1,7.620, -107.21938,0.94,55.300,3.28,4.032,,2.9,1.8,FAIL,3.919,3.960
LiH,B1,7.495,   -8.06698,0.40,52.631,3.45,3.966,,1.0,-1.1,,3.927,4.010
MgO,B1,8.012, -275.09246,1.79,64.283,3.67,4.240,,1.7,1.3,,4.169,4.186
MgS,B1,9.957, -598.59034,0.81,123.398,2.98,5.269,,2.5,1.7,FAIL,5.139,5.182
NaCl,B1,10.877, -622.97640,0.15,160.865,4.88,5.756,,5.0,3.4,FAIL,5.484,5.565
NaF,B1,8.832, -261.74884,0.41,86.123,5.23,4.674,,3.7,2.1,FAIL,4.507,4.576
NbC,B1,8.532,-3856.45241,3.07,77.631,3.85,4.515,,1.9,1.2,,4.432,4.462
NbN,B1,8.353,-3873.16328,3.67,72.862,3.88,4.420,,1.4,0.8,,4.361,4.383
TiC,B1,8.283, -890.89303,2.43,71.034,3.61,4.383,,2.7,1.5,FAIL,4.266,4.317
TiN,B1,8.050, -907.64184,3.21,65.206,4.24,4.260,,2.0,0.8,,4.178,4.228
VC,B1,7.922, -986.33496,3.11,62.158,3.70,4.192,,2.4,1.1,,4.095,4.148
VN,B1,7.757,-1003.05515,3.75,58.351,4.15,4.105,,1.4,-0.5,,4.050,4.126
ZrC,B1,8.978,-3635.25361,2.19,90.460,4.07,4.751,,2.2,1.3,,4.647,4.688
ZrN,B1,8.752,-3651.99644,2.96,83.801,4.99,4.631,,2.2,1.3,,4.532,4.574
AlLi,B2,5.900, -249.81869,0.54,102.675,2.35,3.122,,1.0,,,3.091,
CoAl,B2,5.365,-1634.66978,1.90,77.208,3.87,2.839,,1.6,-0.6,,2.795,2.855
CrW,B2,5.671,-17211.55135,2.77,91.166,3.90,3.001,,0.7,,,2.980,
fm,FeAl_B2,5.408,-1514.03036,1.84,79.104,3.92,2.862,,1.8,-0.7,,2.812,2.882
NiAl,B2,5.436,-1761.97472,1.68,80.327,4.34,2.877,,1.5,-0.2,,2.834,2.882
AlAs,B3_ES,10.729,-2501.93613,0.76,154.400,3.71,5.678,,0.7,0.6,,5.636,5.646
AlP,B3_ES,10.349, -583.92833,0.89,138.545,3.70,5.476,,0.7,0.6,,5.440,5.445
BAs,B3_ES,9.080,-2284.28427,1.38,93.582,4.14,4.805,,1.4,0.9,,4.740,4.760
BN,B3_ES,6.839,  -79.38524,3.87,39.983,3.50,3.619,,0.9,0.9,,3.585,3.585
BP,B3_ES,8.612, -366.29982,1.72,79.845,3.40,4.557,,1.4,0.8,,4.496,4.520
GaAs,B3_ES,10.596,-4202.28287,0.78,148.694,4.21,5.607,,-0.2,-0.5,,5.616,5.637
GaN,B3_ES,8.460,-1997.29810,1.96,75.696,3.89,4.477,,0.3,-1.0,,4.463,4.520
GaP,B3_ES,10.176,-2284.27451,0.93,131.723,4.23,5.385,,-0.3,-0.9,,5.401,5.435
InAs,B3_ES,11.273,-8140.30696,0.66,179.070,4.88,5.965,,-1.2,-1.3,,6.038,6.044
InP,B3_ES,10.894,-6222.29124,0.77,161.604,4.24,5.765,,-1.3,-1.6,,5.839,5.856
SiC,B3_ES,8.316, -327.47082,2.10,71.879,3.52,4.401,,1.6,1.4,,4.333,4.340
CeO2,C1_ES,10.101,-6008.29988,2.29,85.886,4.99,5.345,,-0.5,-0.9,,5.371,5.393
AlLi3,L1_2,7.694, -132.37036,0.27,113.861,3.65,4.071,,0.7,,,4.043,
AlLi,L1_0,7.570, -249.81942,0.47,108.446,3.06,4.006,,1.4,,,3.950,
LiAl3,L1_2,7.609, -367.26262,0.65,110.147,4.52,4.027,,1.3,1.3,,3.974,3.973
AlLi,B32,11.928, -249.82895,0.51,106.057,3.80,6.312,,,-0.8,NO_INFO,,6.361
