chem. ID,str. ID,"a, Bohr","Etot, Ry",B0,"V, Bohr^3",B0',"a, A", ,"err(gold), %","err(exp), %", ,"a_gold, A","a_Exp, A"
Ag,A1,7.624,-10624.64402,1.34,110.786,5.28,4.034,,0.7,-0.7,,4.007,4.062
Al,A1,7.591, -483.84031,0.79,109.364,4.32,4.017,,0.9,-0.1,,3.983,4.019
Au,A1,7.660,-38074.57570,1.98,112.371,5.15,4.053,,0.2,-0.2,,4.047,4.062
Ca,A1,10.007,-1357.52828,0.19,250.517,3.40,5.295,,-0.7,-4.7,,5.333,5.556
Cu,A1,6.698,-3304.86498,1.82,75.108,4.80,3.544,,0.6,-1.4,,3.522,3.596
fm,Co_A1,6.531,-2782.21163,2.54,69.641,5.06,3.456,,-1.3,-2.3,,3.500,3.538
fm,Ni_A1,6.523,-3036.70072,2.39,69.391,4.67,3.452,,0.8,-1.6,,3.423,3.508
Ir,A1,7.245,-35695.84223,3.93,95.054,4.46,3.834,,0.2,0.1,,3.828,3.831
Li,A1,8.013,  -14.83537,0.15,128.606,3.17,4.240,,0.2,-2.3,,4.231,4.338
Pb,A1,9.052,-41833.99046,0.61,185.457,5.12,4.790,,-1.7,-2.5,,4.874,4.912
Pd,A1,7.328,-10084.42416,2.13,98.389,4.99,3.878,,0.8,0.0,,3.848,3.876
Pt,A1,7.393,-36872.59928,3.04,101.029,4.72,3.912,,0.1,-0.0,,3.909,3.913
Rh,A1,7.166,-9561.15775,3.01,92.001,4.46,3.792,,0.9,-0.0,,3.759,3.793
Sr,A1,10.871,-6352.18359,0.15,321.175,3.39,5.753,,-0.6,-4.8,,5.786,6.040
Th,A1,9.020,-53045.39566,0.79,183.447,4.33,4.773,,-3.0,-5.9,FAIL,4.920,5.071
Ti,A1,7.564,-1703.96578,1.12,108.172,3.17,4.003,,-0.3,,,4.016,
Al,A2,6.057, -483.83636,0.71,111.133,4.34,3.205,,1.0,,,3.172,
Ba,A2,8.637,-16265.89656,0.06,322.103,-0.95,4.571,,-3.9,-8.6,FAIL,4.754,5.002
Cr,A2,5.290,-2097.70469,2.74,74.037,4.07,2.799,,-0.1,-3.8,,2.801,2.910
fm,Fe_A2,5.248,-2541.08640,2.21,72.254,3.96,2.777,,0.8,-2.7,,2.754,2.853
K,A2,9.505,-1201.18576,0.05,429.326,3.86,5.030,,-0.3,-3.5,,5.045,5.212
Li,A2,6.361,  -14.83505,0.15,128.710,3.46,3.366,,0.1,-2.5,,3.363,3.451
Mo,A2,5.902,-8090.63275,2.67,102.798,2.88,3.123,,0.2,-0.6,,3.116,3.141
Na,A2,7.661, -323.42527,0.09,224.843,3.81,4.054,,0.2,-3.7,,4.047,4.209
Nb,A2,6.133,-7632.66982,1.58,115.315,3.95,3.245,,-0.1,-1.5,,3.250,3.294
Rb,A2,10.095,-5955.69180,0.04,514.318,3.64,5.342,,-0.6,-4.2,,5.374,5.577
Ta,A2,6.148,-31233.36050,2.14,116.196,2.64,3.253,,-0.1,-1.4,,3.257,3.299
V,A2,5.542,-1894.78138,1.96,85.089,3.17,2.933,,0.0,-3.0,,2.932,3.024
W,A2,5.943,-32313.02494,3.07,104.959,3.46,3.145,,0.1,-0.5,,3.143,3.160
C,A4_ES2,6.757,  -75.62978,4.47,38.557,3.29,3.576,,1.1,0.9,,3.536,3.544
Ge,A4_ES2,10.762,-4192.24990,0.67,155.790,4.26,5.695,,1.1,1.0,,5.632,5.639
Si,A4_ES2,10.340, -578.07888,0.88,138.200,4.08,5.472,,1.2,1.0,,5.407,5.415
Sn,A4_ES2,12.365,-12347.32392,0.43,236.306,4.18,6.543,,1.0,1.1,,6.481,6.474
CaO,B1,8.584, -753.83036,1.73,79.056,5.06,4.542,,-3.7,-5.1,FAIL,4.719,4.787
HfC,B1,8.729,-15126.51406,2.54,83.125,4.17,4.619,,0.9,-0.2,,4.578,4.627
HfN,B1,8.506,-15143.25878,3.34,76.942,4.13,4.501,,0.4,-0.2,,4.482,4.512
LiCl,B1,9.269, -467.73975,0.49,99.542,6.42,4.905,,-1.6,-3.3,,4.986,5.072
LiF,B1,7.438, -106.95237,0.98,51.435,4.93,3.936,,0.4,-0.6,,3.919,3.960
LiH,B1,7.357,   -8.03281,0.42,49.774,1.69,3.893,,-0.9,-2.9,,3.927,4.010
MgO,B1,7.879, -274.54042,1.94,61.135,4.03,4.169,,0.0,-0.4,,4.169,4.186
MgS,B1,9.788, -597.65047,0.84,117.202,3.77,5.180,,0.8,-0.0,,5.139,5.182
NaCl,B1,10.215, -622.02913,0.30,133.227,5.02,5.406,,-1.4,-2.9,,5.484,5.565
NaF,B1,8.484, -261.19100,0.53,76.330,4.57,4.490,,-0.4,-1.9,,4.507,4.576
NbC,B1,8.454,-3854.24450,3.25,75.538,4.24,4.474,,0.9,0.3,,4.432,4.462
NbN,B1,8.281,-3870.93576,3.93,70.994,4.04,4.382,,0.5,-0.0,,4.361,4.383
TiC,B1,8.192, -889.88653,2.60,68.709,3.49,4.335,,1.6,0.4,,4.266,4.317
TiN,B1,7.966, -906.61799,3.57,63.199,4.20,4.215,,0.9,-0.3,,4.178,4.228
VC,B1,7.836, -985.27593,3.37,60.150,3.70,4.147,,1.3,-0.0,,4.095,4.148
VN,B1,7.676,-1001.97487,4.10,56.535,4.43,4.062,,0.3,-1.6,,4.050,4.126
ZrC,B1,8.901,-3633.11540,2.34,88.153,3.94,4.710,,1.4,0.5,,4.647,4.688
ZrN,B1,8.685,-3649.84243,3.30,81.875,5.00,4.596,,1.4,0.5,,4.532,4.574
AlLi,B2,5.849, -249.34783,0.50,100.062,3.06,3.095,,0.1,,,3.091,
CoAl,B2,5.315,-1633.07796,2.00,75.074,4.44,2.813,,0.6,-1.5,,2.795,2.855
CrW,B2,5.633,-17205.36397,2.98,89.377,4.46,2.981,,0.0,,,2.980,
fm,FeAl_B2,5.359,-1512.49418,1.93,76.932,4.12,2.836,,0.8,-1.6,,2.812,2.882
NiAl,B2,5.386,-1760.32400,1.79,78.129,4.43,2.850,,0.6,-1.1,,2.834,2.882
AlAs,B3_ES,10.682,-2499.97200,0.77,152.353,3.86,5.653,,0.3,0.1,,5.636,5.646
AlP,B3_ES,10.322, -582.98674,0.91,137.482,3.61,5.462,,0.4,0.3,,5.440,5.445
BAs,B3_ES,9.041,-2282.64707,1.42,92.366,4.19,4.784,,0.9,0.5,,4.740,4.760
BN,B3_ES,6.827,  -79.14193,3.93,39.777,3.52,3.613,,0.8,0.8,,3.585,3.585
BP,B3_ES,8.592, -365.68329,1.74,79.280,3.39,4.547,,1.1,0.6,,4.496,4.520
GaAs,B3_ES,10.513,-4199.33191,0.82,145.257,4.48,5.563,,-0.9,-1.3,,5.616,5.637
GaN,B3_ES,8.385,-1995.74747,2.10,73.691,4.19,4.437,,-0.6,-1.8,,4.463,4.520
GaP,B3_ES,10.122,-2282.34591,0.97,129.619,4.24,5.356,,-0.8,-1.4,,5.401,5.435
InAs,B3_ES,11.175,-8136.03988,0.72,174.435,4.67,5.914,,-2.1,-2.2,,6.038,6.044
InP,B3_ES,10.822,-6219.04722,0.82,158.449,4.53,5.727,,-1.9,-2.2,,5.839,5.856
SiC,B3_ES,8.270, -326.88555,2.17,70.704,3.57,4.376,,1.0,0.8,,4.333,4.340
CeO2,C1_ES,10.110,-6005.69797,2.35,86.124,4.82,5.350,,-0.4,-0.8,,5.371,5.393
AlLi3,L1_2,7.584, -132.09364,0.29,109.050,4.09,4.013,,-0.7,,,4.043,
AlLi,L1_0,7.488, -249.35098,0.49,104.943,3.20,3.962,,0.3,,,3.950,
LiAl3,L1_2,7.552, -366.59922,0.67,107.676,4.41,3.996,,0.6,0.6,,3.974,3.973
AlLi,B32,11.785, -249.36245,0.54,102.292,3.92,6.236,,,-2.0,NO_INFO,,6.361
