number of tests:  72        av.Err:  0.76
           good:  59  av.Err(good):  0.58
             ok:  10    av.Err(ok):  1.82
           fail:  2
      no golden:  1
test.xxx_22/LOGS/Ba_A2.xyz_xc10_asa=22.log:  a0=  8.830 Bohr  E0=   -16265.89508 Ry  B0=    0.075 Mbar  B0'=    -0.19  V0=  344.21946 :MURNAGHAN
test.xxx_22/LOGS/Ba_A2.xyz_xc10_asa=22.log:  a0=  8.830 Bohr  E0=   -16265.89508 Ry  B0=    0.076 Mbar  B0'=    -0.14  V0=  344.21890 :VINET
