Ag,A1,7.624,-10624.64402,1.343,110.78596,5.28
Al,A1,7.591,-483.84031,0.788,109.36423,4.32
Au,A1,7.660,-38074.57570,1.981,112.37053,5.15
Ca,A1,10.007,-1357.52828,0.191,250.51675,3.40
Cu,A1,6.698,-3304.86498,1.816,75.10849,4.80
fm,Co_A1,6.531,-2782.21163,2.537,69.64115,5.06
fm,Ni_A1,6.523,-3036.70072,2.386,69.39079,4.67
Ir,A1,7.245,-35695.84223,3.929,95.05436,4.46
Li,A1,8.013,-14.83537,0.149,128.60604,3.17
Pb,A1,9.052,-41833.99046,0.613,185.45678,5.12
Pd,A1,7.328,-10084.42416,2.133,98.38908,4.99
Pt,A1,7.393,-36872.59928,3.035,101.02921,4.72
Rh,A1,7.166,-9561.15775,3.012,92.00112,4.46
Sr,A1,10.871,-6352.18359,0.151,321.17463,3.39
Th,A1,9.020,-53045.39566,0.790,183.44737,4.33
Ti,A1,7.564,-1703.96578,1.125,108.17196,3.17
Al,A2,6.057,-483.83636,0.715,111.13253,4.34
Ba,A2,8.637,-16265.89656,0.056,322.10293,-0.95
Cr,A2,5.290,-2097.70469,2.742,74.03738,4.07
fm,Fe_A2,5.248,-2541.08640,2.205,72.25394,3.96
K,A2,9.505,-1201.18576,0.046,429.32560,3.86
Li,A2,6.361,-14.83505,0.153,128.70954,3.46
Mo,A2,5.902,-8090.63275,2.668,102.79820,2.88
Na,A2,7.661,-323.42527,0.092,224.84288,3.81
Nb,A2,6.133,-7632.66982,1.580,115.31541,3.95
Rb,A2,10.095,-5955.69180,0.035,514.31751,3.64
Ta,A2,6.148,-31233.36050,2.143,116.19639,2.64
V,A2,5.542,-1894.78138,1.962,85.08888,3.17
W,A2,5.943,-32313.02494,3.073,104.95911,3.46
C1ES1,A4_ES2,6.757,-75.62978,4.473,38.55685,3.29
Ge1ES1,A4_ES2,10.762,-4192.24990,0.673,155.79023,4.26
Si1ES1,A4_ES2,10.340,-578.07888,0.878,138.19989,4.08
Sn1ES1,A4_ES2,12.365,-12347.32392,0.430,236.30568,4.18
AlLi,B1,10.120,-249.31024,0.257,129.57210,4.40
CaO,B1,8.584,-753.83036,1.727,79.05618,5.06
HfC,B1,8.729,-15126.51406,2.536,83.12544,4.17
HfN,B1,8.506,-15143.25878,3.342,76.94150,4.13
LiCl,B1,9.269,-467.73975,0.490,99.54234,6.42
LiF,B1,7.438,-106.95237,0.977,51.43474,4.93
LiH,B1,7.357,-8.03281,0.424,49.77442,1.69
MgO,B1,7.879,-274.54042,1.944,61.13464,4.03
MgS,B1,9.788,-597.65047,0.842,117.20194,3.77
NaCl,B1,10.215,-622.02913,0.296,133.22678,5.02
NaF,B1,8.484,-261.19100,0.533,76.33039,4.57
NbC,B1,8.454,-3854.24450,3.254,75.53787,4.24
NbN,B1,8.281,-3870.93576,3.934,70.99362,4.04
TiC,B1,8.192,-889.88653,2.605,68.70857,3.49
TiN,B1,7.966,-906.61799,3.571,63.19924,4.20
V1C1,B1,7.836,-985.27593,3.365,60.14995,3.70
V1N1,B1,7.676,-1001.97487,4.099,56.53538,4.43
ZrC,B1,8.901,-3633.11540,2.340,88.15292,3.94
ZrN,B1,8.685,-3649.84243,3.302,81.87487,5.00
AlLi,B2,5.849,-249.34783,0.504,100.06195,3.06
CoAl,B2,5.315,-1633.07796,1.997,75.07412,4.44
CrW,B2,5.633,-17205.36397,2.981,89.37726,4.46
FeAl,B2,5.348,-1512.49364,1.977,76.48549,4.07
fm,FeAl_B2,5.359,-1512.49418,1.931,76.93216,4.12
NiAl,B2,5.386,-1760.32400,1.786,78.12879,4.43
AlAsES1ES1,B3_ES,10.682,-2499.97200,0.765,152.35349,3.86
AlP1ES1ES1,B3_ES,10.322,-582.98674,0.913,137.48229,3.61
B1AsES1ES1,B3_ES,9.041,-2282.64707,1.421,92.36601,4.19
B1N1ES1ES1,B3_ES,6.827,-79.14193,3.928,39.77711,3.52
B1P1ES1ES1,B3_ES,8.592,-365.68329,1.736,79.27969,3.39
GaAsES1ES1,B3_ES,10.513,-4199.33191,0.817,145.25713,4.48
GaN1ES1ES1,B3_ES,8.385,-1995.74747,2.099,73.69051,4.19
GaP1ES1ES1,B3_ES,10.122,-2282.34591,0.974,129.61883,4.24
InAsES1ES1,B3_ES,11.175,-8136.03988,0.721,174.43472,4.67
InP1ES1ES1,B3_ES,10.822,-6219.04722,0.822,158.44943,4.53
SiC1ES1ES1,B3_ES,8.270,-326.88555,2.173,70.70398,3.57
CeO2ES,C1_ES,10.110,-6005.69797,2.348,86.12418,4.82
AlLi3,L1_2,7.584,-132.09364,0.291,109.05017,4.09
AlLi,L1_0,7.488,-249.35098,0.493,104.94348,3.20
LiAl3,L1_2,7.552,-366.59922,0.666,107.67554,4.41
AlLi,B32,11.785,-249.36245,0.543,102.29161,3.92
Ti,A3,5.365,-1703.96719,1.154,109.21436,3.20
