Ag,A1,7.611,-10624.64700,1.362,110.22404,5.31
Al,A1,7.576,-483.84458,0.802,108.69960,4.31
Au,A1,7.643,-38074.58262,2.023,111.61814,5.17
Ca,A1,10.007,-1357.53014,0.194,250.54720,3.45
Cu,A1,6.688,-3304.86800,1.840,74.78009,4.80
fm,Co_A1,6.524,-2782.21532,2.568,69.43407,5.10
fm,Ni_A1,6.515,-3036.70408,2.419,69.13757,4.84
Ir,A1,7.231,-35695.85268,3.987,94.53285,4.51
Li,A1,8.010,-14.83606,0.150,128.47460,3.16
Pb,A1,9.030,-41833.99608,0.626,184.06400,5.16
Pd,A1,7.318,-10084.42778,2.184,97.98193,4.84
Pt,A1,7.377,-36872.60794,3.083,100.37722,4.82
Rh,A1,7.157,-9561.16251,3.047,91.65657,4.49
Sr,A1,10.879,-6352.18531,0.155,321.91208,3.48
Th,A1,8.988,-53045.40785,0.813,181.49819,4.34
Ti,A1,7.572,-1703.96911,1.143,108.52611,3.20
Al,A2,6.038,-483.84040,0.736,110.08254,4.45
Ba,A2,8.830,-16265.89508,0.075,344.21946,-0.19
Cr,A2,5.294,-2097.70816,2.838,74.16815,4.48
fm,Fe_A2,5.244,-2541.08960,2.239,72.09931,4.21
K,A2,9.521,-1201.18589,0.046,431.52485,3.87
Li,A2,6.356,-14.83570,0.154,128.41713,3.47
Mo,A2,5.906,-8090.63706,2.733,103.02480,2.90
Na,A2,7.661,-323.42566,0.093,224.80485,3.85
Nb,A2,6.149,-7632.67246,1.606,116.23086,3.85
Rb,A2,10.133,-5955.69167,0.036,520.28805,3.46
Ta,A2,6.152,-31233.36723,2.162,116.42102,2.83
V,A2,5.549,-1894.78421,1.998,85.40883,3.26
W,A2,5.943,-32313.03365,3.128,104.93808,3.52
C1ES1,A4_ES2,6.737,-75.62985,4.491,38.22241,3.39
Ge1ES1,A4_ES2,10.765,-4192.24661,0.669,155.92236,4.26
Si1ES1,A4_ES2,10.308,-578.07842,0.886,136.89779,4.18
Sn1ES1,A4_ES2,12.407,-12347.31828,0.420,238.74978,4.24
AlLi,B1,10.082,-249.31358,0.263,128.11592,3.50
CaO,B1,8.538,-753.81711,1.818,77.79717,5.51
HfC,B1,8.739,-15126.50266,2.471,83.43037,3.99
HfN,B1,8.521,-15143.22999,3.147,77.34567,4.14
LiCl,B1,9.368,-467.72564,0.335,102.77061,4.19
LiF,B1,7.499,-106.94320,1.045,52.71965,4.74
LiH,B1,7.372,-8.02999,0.428,50.08064,3.46
MgO,B1,7.930,-274.52037,1.879,62.33742,4.07
MgS,B1,9.869,-597.63997,0.838,120.13658,3.02
NaCl,B1,10.539,-622.01605,0.226,146.32912,3.15
NaF,B1,8.591,-261.17709,0.500,79.26601,3.71
NbC,B1,8.489,-3854.23019,3.152,76.46672,4.24
NbN,B1,8.313,-3870.91115,3.755,71.81261,3.77
TiC,B1,8.225,-889.87595,2.562,69.55608,3.28
TiN,B1,7.999,-906.59470,3.408,63.96674,4.08
V1C1,B1,7.868,-985.26731,3.277,60.89510,3.75
V1N1,B1,7.706,-1001.95710,3.940,57.19488,4.42
ZrC,B1,8.930,-3633.10054,2.287,89.01366,3.89
ZrN,B1,8.709,-3649.81356,3.053,82.57279,4.59
AlLi,B2,5.840,-249.35122,0.504,99.56940,3.23
CoAl,B2,5.311,-1633.08095,2.014,74.90053,4.48
CrW,B2,5.634,-17205.37074,3.029,89.41262,4.49
FeAl,B2,5.344,-1512.49717,2.004,76.31635,4.17
fm,FeAl_B2,5.355,-1512.49772,1.949,76.79018,3.62
NiAl,B2,5.382,-1760.32635,1.800,77.92932,4.46
AlAsES1ES1,B3_ES,10.657,-2499.96730,0.771,151.27341,3.85
AlP1ES1ES1,B3_ES,10.293,-582.98100,0.896,136.30812,3.85
B1AsES1ES1,B3_ES,9.023,-2282.64507,1.447,91.81215,4.54
B1N1ES1ES1,B3_ES,6.800,-79.13423,3.968,39.30440,3.58
B1P1ES1ES1,B3_ES,8.570,-365.68246,1.745,78.68590,3.44
GaAsES1ES1,B3_ES,10.504,-4199.32790,0.820,144.86365,4.26
GaN1ES1ES1,B3_ES,8.385,-1995.72912,2.051,73.69312,4.33
GaP1ES1ES1,B3_ES,10.101,-2282.34168,0.971,128.81847,4.31
InAsES1ES1,B3_ES,11.173,-8136.03339,0.708,174.34163,4.76
InP1ES1ES1,B3_ES,10.808,-6219.03984,0.814,157.83116,4.52
SiC1ES1ES1,B3_ES,8.270,-326.87209,2.150,70.69673,3.57
CeO2ES,C1_ES,10.048,-6005.70005,2.441,84.55069,5.08
AlLi3,L1_2,7.566,-132.09461,0.292,108.25809,3.94
AlLi,L1_0,7.478,-249.35150,0.484,104.55966,4.08
LiAl3,L1_2,7.542,-366.60110,0.673,107.25121,4.40
AlLi,B32,11.786,-249.36091,0.536,102.32566,3.88
Ti,A3,5.371,-1703.97060,1.175,109.54938,3.22
