    7         1.000000000000000       2.954235145385588  STRUCTURE DATA         7.473869659523523
      -0.500000000000000       0.500000000000000       0.500000000000000
       0.500000000000000      -0.500000000000000       0.500000000000000
       0.500000000000000       0.500000000000000      -0.500000000000000
  ---------------------
  1         0.000000000000000       0.000000000000000       0.000000000000000  Sr
  2         0.500000000000000       0.000000000000000       0.250000000000000  Co
  2         0.000000000000000       0.500000000000000       0.250000000000000  Co
  3         0.000000000000000       0.000000000000000       0.357700000000000  As
  3         0.000000000000000       0.000000000000000       0.642300000000000  As
  4         0.000000000000000       0.000000000000000       0.182000000000000  ES2
  4         0.000000000000000       0.000000000000000       0.818000000000000  ES2
       1.000000000000000       0
