9  1.0  0.5946855589231
   1.0       0.000000000       0.000
  -0.5       0.866025403784438 0.000
   0.0       0.000000000       1.000
Direct   #189  Sc3Fe3Ge3
1    0.58020000    0.00000000    0.50000000
1    0.41980000    0.41980000    0.50000000
1    0.00000000    0.58020000    0.50000000
2    0.23000000    0.00000000    0.00000000  
2    0.77000000    0.77000000    0.00000000  
2    0.00000000    0.23000000    0.00000000  
3    0.33333333    0.66666667    0.00000000  
3    0.66666667    0.33333333    0.00000000
4    0.00000000    0.00000000    0.50000000
