 4   1.00000   1.632993161
 0.5  -0.866025403784438  0.0
 0.5   0.866025403784438  0.0
 0.0   0.0                1.0
 -------------
 1   0.5  0.288675134594812  0.25
 2   0.5 -0.288675134594812  0.75
 3     0.5000000000     0.8660254038     0.0000000000
 3     0.5000000000     0.8660254038     0.5000000000
 1.000   0
