 4   1.00000   2.7276423
 0.5  -0.866025403784438  0.0
 0.5   0.866025403784438  0.0
 0.0  0.0                1.0
 --- A9 -- Prototype: C (unbuckled graphite) -- P6_3/mmc, #194 --------
 1   0.0  0.0   0.25
 1   0.0  0.0   0.75
 1   0.5  0.288675134594812  0.25
 1   0.5 -0.288675134594812  0.75
 1.000
