     5   1.00000000000000        1.00000000000000        STRUCTURE DATA
  0.500000000000000E+000  0.500000000000000E+000  0.000000000000000E+000
  0.000000000000000E+000  0.500000000000000E+000  0.500000000000000E+000
  0.500000000000000E+000  0.000000000000000E+000  0.500000000000000E+000
  --------------------- 
     1    0.125000000000000E0     0.125000000000000E0     0.125000000000000E0       
     1   -0.125000000000000E0    -0.125000000000000E0    -0.125000000000000E0       
     2    0.375000000000000E0     0.375000000000000E0     0.375000000000000E0    
     2   -0.375000000000000E0    -0.375000000000000E0    -0.375000000000000E0    
     3    0.25 -0.25   0.0
   1.00000000000000E0    0 
