 4   1.00000d0   1.632993161d0      !  u = 3/8, c/a=sqrt(8/3) (ideal wurtzite) 
 0.5d0  -0.866025403784438d0  0.0d0
 0.5d0   0.866025403784438d0  0.0d0
 0.0d0   0.0d0                1.0d0
 -------------
 1   0.5d0  0.288675134594812d0  0.0d0
 1   0.5d0 -0.288675134594812d0  0.5d0
 2   0.5d0  0.288675134594812d0  0.375d0
 2   0.5d0 -0.288675134594812d0  0.875d0
 1.000
