 4   1.00000   1.36725                       #  c/a=1.36725 for NiAs
 0.5  -0.866025403784438  0.0
 0.5   0.866025403784438  0.0
 0.0   0.0                1.0
Direct [A2B2] B8_1 - Prototype: NiAs  -- hP4, #194 -------
 1     0.0   0.0  0.0                        # Ni    (2a)
 1     0.0   0.0  0.5                        # Ni    (2a)
 2     0.5   0.288675134594812882     0.25   # As    (2c)
 2     0.5  -0.288675134594812882     0.75   # As    (2c)
 1.000   0
