    16   1.0  1.477809527           ! {N,b/a,c/a}  
    0.866025404   -0.500000000   1.000000000 !Trans Vec  (+a*sqrt[3]/2,-a/2,c)
    0.000000000    1.000000000   1.000000000 !           ( 0          , a  ,c)
   -0.866025404   -0.500000000   1.000000000 !           (-a*sqrt[3]/2,-a/2,c)
    --- Boron ------------------ B12ES4
   1   0.303592202  0.175279039 -0.324753697 
   1   0.000000000 -0.350558079 -0.324753697     
   1  -0.303592202  0.175279039 -0.324753697
   1  -0.303592202 -0.175279039  0.324753697
   1   0.000000000  0.350558079  0.324753697
   1   0.303592202 -0.175279039  0.324753697
   2   0.511058483  0.295059753  0.073214522
   2   0.000000000 -0.590119506  0.073214522
   2  -0.511058483  0.295059753  0.073214522
   2  -0.511058483 -0.295059753 -0.073214522
   2   0.000000000  0.590119506 -0.073214522
   2   0.511058483 -0.295059753 -0.073214522
   3   0.000000000  0.000000000  0.000000000
   4   0.000000000  0.000000000  1.500000000
   5   0.000000000  0.000000000  0.712800000
   5   0.000000000  0.000000000 -0.712800000

