      3   1.0        1.0        Fluorite
  0.5  0.5  0.0
  0.0  0.5  0.5
  0.5  0.0  0.5
  ---- C1 -- Prototype: CaF2 -- cF12, #225 ---
     1    0.00    0.00    0.00
     2    0.25    0.25    0.25
     2   -0.25   -0.25   -0.25
   1.00000000000000    0 
