       6   1.0D0        1.0D0        Cubic Laves
  0.5D0  0.5D0  0.0D0
  0.0D0  0.5D0  0.5D0
  0.5D0  0.0D0  0.5D0
  --- C15 -- Prototype: Cu2Mg -- cF24, #227 ----- 
     1    0.125    0.125    0.125
     1    0.875    0.875    0.875
     2    0.50    0.50    0.50
     2    0.50    0.25    0.25
     2    0.25    0.50    0.25
     2    0.25    0.25    0.50
    1.00000000000000    0                                                      
