      3   1.00000000000000        1.00000000000000        STRUCTURE DATA
  0.500000000000000E+000  0.500000000000000E+000  0.000000000000000E+000
  0.000000000000000E+000  0.500000000000000E+000  0.500000000000000E+000
  0.500000000000000E+000  0.000000000000000E+000  0.500000000000000E+000
  --------------------- 
     1    0.0000000000D+00    0.0000000000D+00    0.0000000000D+00
     2    0.2500000000D+00    0.2500000000D+00    0.2500000000D+00
     3    0.5d0               0.5d0               0.5d0
   1.00000000000000    0 
