      2   1.00000000000000        1.00000000000000        STRUCTURE DATA
  1.000000000000000E+000  0.000000000000000E+000  0.000000000000000E+000
  0.000000000000000E+000  1.000000000000000E+000  0.000000000000000E+000
  0.000000000000000E+000  0.000000000000000E+000  1.000000000000000E+000     
  --------------------- 
     1    0.0000000000D+00    0.0000000000D+00    0.0000000000D+00
     2    0.5000000000D+00    0.5000000000D+00    0.5000000000D+00
   1.00000000000000    0 
