      4   1.0        1.0    high-Tc cuprate superconductors
  1.0  0.0  0.0
  0.0  1.0  0.0
  0.0  0.0  1.0     
  --- none -- Prototype: CuCaO2 -- tP4, #123 -- 
     1    0.0    0.0    0.0
     2    0.5    0.5    0.5
     2    0.0    0.5    0.0
     2    0.5    0.0    0.0
   1.00000000000000    0 
