 8   1.0   0.816496580927726     STRUCTURE DATA (C/A~0.8)
    0.5   -0.8660254037844386    0.0
    0.5    0.8660254037844386    0.0
    0.0    0.0    1.0
Direct  ---- D0_19 -- Prototype: Ni3Sn, hP8, P63/mmc, group#194, relax=Co6W2(XC=PBEsol):
1  0.677011902187516   0.838505951093758   0.75
2  0.838505951093758   0.677011902187516   0.25
3  0.838505951093758   0.161494048906242   0.25
4  0.161494048906242   0.838505951093758   0.75
5  0.161494048906242   0.322988097812484   0.75
6  0.322988097812484   0.161494048906242   0.25
7  0.6666666666666667  0.3333333333333333  0.75
8  0.3333333333333333  0.6666666666666667  0.25
   1.0
