       4   1.0        2.0        STRUCTURE DATA (if C/A=2 ==> do22 .EQV. fcc)
  1.0  0.0  0.0
  0.0  1.0  0.0
  0.5  0.5  0.5
  ---- D0_22 -- Prototype: Al3Ti -- tI8, #139 ----- 
     1    0.50    0.00    0.25
     1    0.00    0.50    0.25
     2    0.50    0.50    0.00
     3    0.00    0.00    0.00
    1.0                                                      
