16   1.00000d0   1.6295133438d0
 0.5d0  -0.866025403784438d0  0.00
 0.5d0   0.866025403784438d0  0.00
 0.0d0   0.000000000000000d0  1.00
Direct -- #194  D0_24 hP16  prototype Ni3Ti
1   0.50000000000000   0.00000000000000   0.00000000000000
1   0.00000000000000   0.50000000000000   0.00000000000000
1   0.50000000000000   0.50000000000000   0.00000000000000
1   0.50000000000000   0.00000000000000   0.50000000000000
1   0.00000000000000   0.50000000000000   0.50000000000000
1   0.50000000000000   0.50000000000000   0.50000000000000
2  -0.16666666666667  -0.33333333333333   0.25000000000000
2   0.33333333333333   0.16666666666667   0.25000000000000
2  -0.16666666666667   0.16666666666667   0.25000000000000
2   0.16666666666667   0.33333333333333   0.75000000000000
2  -0.33333333333333  -0.16666666666667   0.75000000000000
2   0.16666666666667  -0.16666666666667   0.75000000000000
3   0.00000000000000   0.00000000000000   0.00000000000000
3   0.00000000000000   0.00000000000000   0.50000000000000
4   0.33333333333333   0.66666666666667   0.25000000000000
4   0.66666666666667   0.33333333333333   0.75000000000000
1.0000
