       4   1.0        1.0        STRUCTURE DATA
  0.50  0.50  0.00
  0.00  0.50  0.50
  0.50  0.00  0.50
  ---- D0_3 -- Prototype: AlFe3 --  Fm-3m, #225* ----
     1    0.00    0.00    0.00
     2    0.50    0.00    0.00
     2   -0.25   -0.25   -0.25
     2    0.25    0.25    0.25
    1.00000000000000    0                                                      

