      4   1.0        1.0        STRUCTURE DATA
  1.0  0.0  0.0
  0.0  1.0  0.0
  0.0  0.0  1.0     
  --- D0_9 -- Prototype: ReO3 -- cP4, #221 -- 
     1    0.0    0.0    0.0
     2    0.5    0.0    0.0
     2    0.0    0.5    0.0
     2    0.0    0.0    0.5
   1.00000000000000    0 
