      5   1.0        1.0        Perovskite
  1.0  0.0  0.0
  0.0  1.0  0.0
  0.0  0.0  1.0     
  --- E2_1 -- Prototype: CaTiO3 -- cP5, #221 -- 
     1    0.00    0.00    0.00
     2    0.50    0.50    0.50
     3    0.00    0.50    0.50
     4    0.50    0.00    0.50
     5    0.00    0.50    0.00
   1.0
