       2   1.0D0        1.0D0        STRUCTURE DATA
  0.5D0 -0.5D0  0.0D0
  0.5D0  0.5D0  0.0D0
  0.0D0  0.0D0  1.0D0
  --------------------- 
     1    0.0000000000D+00    0.0000000000D+00    0.0000000000D+00
     2    0.5000000000D+00    0.0000000000D+00    0.5000000000D+00
    1.00000000000000    0                                                      
