chem. ID,str. ID,"a, Bohr","Etot, Ry",B0,"V, Bohr^3",B0',"a, A", ,"err(gold), %","err(exp), %", ,"a_gold, A","a_Exp, A"
Ag,A1,7.706,-10629.84298,1.21,114.402,4.93,4.078,,0.5,0.4,,4.058,4.062
Al,A1,7.631, -484.69850,0.79,111.099,4.19,4.038,,0.5,0.5,,4.018,4.019
Au,A1,7.692,-38089.46748,2.10,113.772,4.21,4.070,,-0.3,0.2,,4.081,4.062
Ca,A1,10.239,-1359.11340,0.18,268.353,2.55,5.418,,-0.7,-2.5,,5.456,5.556
Cu,A1,6.772,-3307.42965,1.66,77.637,4.59,3.584,,0.4,-0.3,,3.570,3.596
Ir,A1,7.259,-35709.58669,4.13,95.616,3.83,3.841,,-0.1,0.3,,3.847,3.831
Li,A1,8.413,  -14.92178,0.02,148.851,11.78,4.452,,,2.6,NO_INFO,,4.338
Pb,A1,9.120,-41850.93326,0.31,189.667,16.94,4.826,,-2.1,-1.7,,4.931,4.912
Pd,A1,7.377,-10089.44473,2.06,100.365,4.62,3.904,,0.6,0.7,,3.882,3.876
Pt,A1,7.405,-36886.89656,3.20,101.511,4.46,3.919,,-0.3,0.1,,3.932,3.913
Rh,A1,7.204,-9566.00669,2.87,93.460,4.40,3.812,,0.7,0.5,,3.785,3.793
Sr,A1,11.105,-6355.97720,0.14,342.384,2.90,5.877,,-0.7,-2.7,,5.917,6.040
Th,A1,9.106,-53070.68558,0.75,188.745,0.42,4.819,,-2.8,-5.0,FAIL,4.959,5.071
Ti,A1,7.675,-1705.74833,1.08,113.043,2.98,4.061,,,,NO_INFO,,
fm,Co_A1,6.601,-2784.53987,2.28,71.921,4.40,3.493,,,-1.3,NO_INFO,,3.538
fm,Ni_A1,6.589,-3039.14338,2.23,71.509,4.75,3.487,,0.7,-0.6,,3.463,3.508
Al,A2,6.081, -484.69440,0.72,112.430,4.67,3.218,,,,NO_INFO,,
Ba,A2,9.114,-16272.82917,0.09,378.481,-0.70,4.823,,-1.2,-3.6,,4.881,5.002
Cr,A2,5.342,-2099.69395,2.65,76.221,4.02,2.827,,,-2.9,NO_INFO,,2.910
K,A2,9.843,-1202.66488,0.04,476.769,3.27,5.209,,-0.1,-0.1,,5.213,5.212
Li,A2,6.488,  -14.92130,0.14,136.559,3.41,3.433,,0.0,-0.5,,3.433,3.451
Mo,A2,5.937,-8095.00198,2.71,104.642,2.76,3.142,,0.3,0.0,,3.133,3.141
Na,A2,7.904, -324.09673,0.07,246.847,5.28,4.183,,0.3,-0.6,,4.170,4.209
Nb,A2,6.198,-7636.88687,1.50,119.068,3.74,3.280,,0.2,-0.4,,3.274,3.294
Rb,A2,10.528,-5959.34490,0.03,583.478,3.37,5.571,,-0.1,-0.1,,5.579,5.577
Ta,A2,6.207,-31245.21914,1.92,119.595,3.45,3.285,,-0.0,-0.4,,3.285,3.299
V,A2,5.605,-1896.66496,1.92,88.024,3.33,2.966,,0.1,-1.9,,2.963,3.024
W,A2,5.965,-32325.31294,3.91,106.126,0.64,3.157,,-0.2,-0.1,,3.162,3.160
fm,Fe_A2,5.311,-2543.30287,1.96,74.889,8.47,2.810,,0.7,-1.5,,2.790,2.853
C,A4_ES2,6.768,  -75.87907,4.44,38.749,3.33,3.581,,0.7,1.1,,3.557,3.544
Ge,A4_ES2,10.854,-4195.19837,0.64,159.858,4.15,5.744,,1.1,1.9,,5.684,5.639
Si,A4_ES2,10.353, -579.02356,0.87,138.722,4.16,5.479,,0.7,1.2,,5.438,5.415
Sn,A4_ES2,12.506,-12353.06148,0.43,244.494,3.66,6.618,,1.1,2.2,,6.547,6.474
CaO,B1,8.924, -754.68313,0.83,88.829,3.12,4.722,,-1.2,-1.3,,4.778,4.787
HfC,B1,8.819,-15132.35284,2.43,85.746,0.88,4.667,,1.2,0.9,,4.613,4.627
HfN,B1,8.640,-15149.11045,1.79,80.628,7.30,4.572,,1.3,1.3,,4.515,4.512
LiCl,B1,9.574, -468.38822,0.28,109.688,3.66,5.066,,-0.3,-0.1,,5.081,5.072
LiF,B1,7.605, -107.21906,1.03,54.975,3.10,4.024,,0.3,1.6,,4.013,3.960
LiH,B1,7.522,   -8.06695,0.54,53.195,7.89,3.980,,,-0.7,NO_INFO,,4.010
MgO,B1,8.012, -275.09164,1.75,64.286,4.26,4.240,,0.4,1.3,,4.222,4.186
MgS,B1,9.963, -598.58843,0.77,123.630,3.35,5.272,,1.6,1.7,,5.190,5.182
NaCl,B1,10.811, -622.97407,0.20,157.925,3.77,5.721,,1.8,2.8,,5.619,5.565
NaF,B1,8.844, -261.74800,0.37,86.468,5.64,4.680,,1.0,2.3,,4.635,4.576
NbC,B1,8.536,-3856.46035,3.08,77.744,3.67,4.517,,1.3,1.2,,4.457,4.462
NbN,B1,8.356,-3873.17155,3.63,72.942,4.03,4.422,,0.8,0.9,,4.385,4.383
TiC,B1,8.282, -890.89048,2.44,71.016,3.60,4.383,,1.9,1.5,,4.302,4.317
TiN,B1,8.049, -907.63930,3.21,65.187,4.22,4.259,,1.2,0.7,,4.210,4.228
VC,B1,7.915, -986.33226,3.36,61.972,3.06,4.188,,1.6,1.0,,4.123,4.148
VN,B1,7.756,-1003.05248,3.74,58.318,4.30,4.104,,0.6,-0.5,,4.081,4.126
ZrC,B1,8.977,-3635.26129,2.20,90.430,4.01,4.750,,1.6,1.3,,4.675,4.688
ZrN,B1,8.751,-3652.00409,2.90,83.772,4.54,4.631,,1.6,1.2,,4.560,4.574
AlLi,B2,5.908, -249.81788,0.49,103.092,3.15,3.126,,,,NO_INFO,,
CoAl,B2,5.365,-1634.66584,1.89,77.206,3.89,2.839,,0.5,-0.6,,2.824,2.855
CrW,B2,5.670,-17212.50333,2.66,91.163,3.22,3.000,,,,NO_INFO,,
NiAl,B2,5.436,-1761.97079,1.68,80.317,4.41,2.877,,0.4,-0.2,,2.864,2.882
fm,FeAl_B2,5.408,-1514.02647,1.84,79.090,3.97,2.862,,0.8,-0.7,,2.840,2.882
AlAs,B3_ES,10.732,-2501.93356,0.74,154.501,3.81,5.679,,-0.0,0.6,,5.681,5.646
AlP,B3_ES,10.349, -583.92633,0.89,138.560,3.70,5.476,,0.0,0.6,,5.476,5.445
BAs,B3_ES,9.077,-2284.28341,1.42,93.498,3.64,4.803,,0.6,0.9,,4.775,4.760
BN,B3_ES,6.839,  -79.38498,3.87,39.981,3.49,3.619,,0.3,0.9,,3.610,3.585
BP,B3_ES,8.612, -366.29870,1.71,79.841,3.43,4.557,,0.7,0.8,,4.525,4.520
GaAs,B3_ES,10.595,-4202.27861,0.77,148.645,4.36,5.607,,-1.1,-0.5,,5.670,5.637
GaN,B3_ES,8.460,-1997.29639,1.92,75.696,4.22,4.477,,-0.6,-1.0,,4.502,4.520
GaP,B3_ES,10.176,-2284.27089,0.93,131.724,4.12,5.385,,-1.1,-0.9,,5.447,5.435
InAs,B3_ES,11.274,-8140.35333,0.66,179.123,4.67,5.966,,-2.2,-1.3,,6.098,6.044
InP,B3_ES,10.893,-6222.33893,0.77,161.580,4.46,5.764,,-2.1,-1.6,,5.890,5.856
SiC,B3_ES,8.316, -327.46984,2.10,71.884,3.51,4.401,,0.9,1.4,,4.360,4.340
CeO2,C1_ES,10.091,-6008.40601,2.56,85.638,5.94,5.340,,-1.3,-1.0,,5.410,5.393
AlLi,L1_0,7.570, -249.81860,0.46,108.444,3.44,4.006,,,,NO_INFO,,
AlLi3,L1_2,7.697, -132.36991,0.26,114.001,3.46,4.073,,,,NO_INFO,,
LiAl3,L1_2,7.610, -367.26140,0.65,110.175,4.15,4.027,,,1.4,NO_INFO,,3.973
AlLi,B32,11.927, -249.82811,0.51,106.054,3.88,6.311,,,-0.8,NO_INFO,,6.361
