Ag,A1, 7.619,-10624.64528,1.355, 110.58554,5.28
Al,A1, 7.594,-483.84048,0.790, 109.48632,4.18
Au,A1, 7.657,-38074.57721,2.003, 112.24252,5.16
Ca,A1, 10.019,-1357.52728,0.192, 251.45296,3.56
Cu,A1, 6.696,-3304.86581,1.830, 75.04831,4.77
Ir,A1, 7.250,-35695.84305,3.964, 95.26102,4.46
Li,A1, 8.004,-14.83497,0.150, 128.19383,3.22
Pb,A1, 9.048,-41833.99110,0.615, 185.17097,5.13
Pd,A1, 7.325,-10084.42576,2.180, 98.25529,4.96
Pt,A1, 7.394,-36872.60085,3.052, 101.07212,4.76
Rh,A1, 7.168,-9561.15915,3.042, 92.08635,4.45
Sr,A1, 10.892,-6352.18177,0.147, 323.01634,3.33
Th,A1, 9.025,-53045.39499,0.754, 183.76733,3.38
Ti,A1, 7.582,-1703.96397,1.129, 108.96914,3.22
fm,Co_A1, 6.532,-2782.21235,2.557, 69.67230,5.17
fm,Ni_A1, 6.522,-3036.70160,2.410, 69.35300,4.98
