Al,A2, 6.038,-483.84040,0.736, 110.08254,4.45
Ba,A2, 8.830,-16265.89508,0.076, 344.19054,-0.15
Cr,A2, 5.294,-2097.70816,2.834, 74.16739,4.46
K,A2, 9.521,-1201.18589,0.046, 431.53566,3.86
Li,A2, 6.356,-14.83570,0.154, 128.41713,3.47
Mo,A2, 5.906,-8090.63705,2.726, 103.02006,2.96
Na,A2, 7.661,-323.42566,0.093, 224.79106,3.80
Nb,A2, 6.149,-7632.67246,1.603, 116.23250,3.88
Rb,A2, 10.133,-5955.69167,0.036, 520.15872,3.68
Ta,A2, 6.152,-31233.36723,2.175, 116.40825,2.75
V,A2, 5.548,-1894.78421,1.999, 85.39891,3.28
W,A2, 5.943,-32313.03366,3.122, 104.94476,3.54
fm,Fe_A2, 5.244,-2541.08960,2.234, 72.10333,4.09
