Al,A2, 6.060,-483.83671,0.716, 111.28570,4.29
Ba,A2, 8.648,-16265.89474,0.049, 323.37003,-1.89
Cr,A2, 5.297,-2097.70417,2.768, 74.29161,4.29
K,A2, 9.520,-1201.18548,0.045, 431.39261,4.01
Li,A2, 6.359,-14.83481,0.147, 128.55861,2.58
Mo,A2, 5.910,-8090.63197,2.681, 103.23436,2.83
Na,A2, 7.665,-323.42518,0.092, 225.15254,3.78
Nb,A2, 6.144,-7632.66826,1.545, 115.96552,4.16
Rb,A2, 10.123,-5955.69140,0.035, 518.70596,3.16
Ta,A2, 6.158,-31233.35846,2.171, 116.76944,2.51
V,A2, 5.549,-1894.78042,1.967, 85.41582,3.21
W,A2, 5.954,-32313.02317,3.061, 105.51167,3.50
fm,Fe_A2, 5.249,-2541.08736,2.219, 72.30616,4.14
