Al,A2, 6.057,-483.83636,0.715, 111.13253,4.34
Cr,A2, 5.290,-2097.70469,2.744, 74.03848,4.08
K,A2, 9.505,-1201.18576,0.046, 429.34083,3.85
Li,A2, 6.361,-14.83505,0.153, 128.70954,3.46
Mo,A2, 5.902,-8090.63275,2.669, 102.79185,2.88
Na,A2, 7.661,-323.42527,0.092, 224.82568,3.80
Nb,A2, 6.133,-7632.66982,1.573, 115.31921,4.01
Rb,A2, 10.095,-5955.69180,0.035, 514.33236,3.68
Ta,A2, 6.148,-31233.36050,2.154, 116.18557,2.57
V,A2, 5.541,-1894.78138,1.963, 85.07870,3.19
W,A2, 5.943,-32313.02494,3.069, 104.96355,3.47
fm,Fe_A2, 5.248,-2541.08640,2.211, 72.24920,4.09
