AlLi,B1, 10.203,-249.78099,0.267, 132.75316,3.04
CaO,B1, 8.924,-754.68313,0.830, 88.82949,3.12
HfC,B1, 8.819,-15132.35284,2.430, 85.74613,0.88
HfN,B1, 8.640,-15149.11045,1.794, 80.62829,7.30
LiCl,B1, 9.574,-468.38822,0.284, 109.68843,3.66
LiF,B1, 7.605,-107.21906,1.032, 54.97491,3.10
LiH,B1, 7.522,-8.06695,0.543, 53.19519,7.89
MgO,B1, 8.012,-275.09164,1.754, 64.28561,4.26
MgS,B1, 9.963,-598.58843,0.774, 123.62967,3.35
NaCl,B1, 10.811,-622.97407,0.197, 157.92525,3.77
NaF,B1, 8.844,-261.74800,0.372, 86.46796,5.64
NbC,B1, 8.536,-3856.46035,3.076, 77.74359,3.67
NbN,B1, 8.356,-3873.17155,3.626, 72.94237,4.03
TiC,B1, 8.282,-890.89048,2.437, 71.01620,3.60
TiN,B1, 8.049,-907.63930,3.208, 65.18653,4.22
V1C1,B1, 7.915,-986.33226,3.358, 61.97221,3.06
V1N1,B1, 7.756,-1003.05248,3.736, 58.31839,4.30
ZrC,B1, 8.977,-3635.26129,2.196, 90.42983,4.01
ZrN,B1, 8.751,-3652.00409,2.901, 83.77175,4.54
