AlLi,B2, 5.840,-249.35122,0.503, 99.57164,3.24
CoAl,B2, 5.311,-1633.08094,2.023, 74.89092,4.55
CrW,B2, 5.634,-17205.37093,3.026, 89.42361,4.47
FeAl,B2, 5.344,-1512.49715,1.997, 76.31333,4.20
NiAl,B2, 5.382,-1760.32632,1.796, 77.92703,4.42
fm,FeAl_B2, 5.355,-1512.49773,1.958, 76.79247,3.84
