Ag,A1,7.611,-10624.64701,1.362,110.22306,5.31
Al,A1,7.576,-483.84459,0.800,108.72318,4.25
Au,A1,7.643,-38074.58262,2.023,111.61817,5.17
Ca,A1,10.007,-1357.53014,0.194,250.54720,3.45
Cu,A1,6.688,-3304.86800,1.840,74.78010,4.80
Ir,A1,7.231,-35695.85269,3.989,94.53188,4.50
Li,A1,8.010,-14.83606,0.150,128.47239,3.18
Pb,A1,9.030,-41833.99608,0.626,184.06428,5.16
Pd,A1,7.318,-10084.42778,2.186,97.98071,4.84
Pt,A1,7.377,-36872.60794,3.084,100.37507,4.83
Rh,A1,7.157,-9561.16251,3.047,91.65727,4.48
Sr,A1,10.879,-6352.18531,0.155,321.91208,3.48
Th,A1,8.981,-53045.40789,0.764,181.09455,3.43
Ti,A1,7.572,-1703.96911,1.143,108.52611,3.20
fm,Co_A1,6.525,-2782.21532,2.561,69.43593,5.04
fm,Ni_A1,6.515,-3036.70408,2.417,69.14118,4.76
Al,A2,6.038,-483.84040,0.736,110.08254,4.45
Ba,A2,8.830,-16265.89508,0.076,344.19054,-0.15
Cr,A2,5.294,-2097.70816,2.834,74.16739,4.46
K,A2,9.521,-1201.18589,0.046,431.53566,3.86
Li,A2,6.356,-14.83570,0.154,128.41713,3.47
Mo,A2,5.906,-8090.63705,2.726,103.02006,2.96
Na,A2,7.661,-323.42566,0.093,224.79106,3.80
Nb,A2,6.149,-7632.67246,1.603,116.23250,3.88
Rb,A2,10.133,-5955.69167,0.036,520.15872,3.68
Ta,A2,6.152,-31233.36723,2.175,116.40825,2.75
V,A2,5.548,-1894.78421,1.999,85.39891,3.28
W,A2,5.943,-32313.03366,3.122,104.94476,3.54
fm,Fe_A2,5.244,-2541.08960,2.234,72.10333,4.09
C1ES1,A4_ES2,6.737,-75.62985,4.493,38.22199,3.38
Ge1ES1,A4_ES2,10.765,-4192.24657,0.670,155.91821,4.25
Si1ES1,A4_ES2,10.308,-578.07841,0.886,136.89857,4.18
Sn1ES1,A4_ES2,12.403,-12347.31821,0.431,238.51746,4.00
AlLi,B1,10.080,-249.31361,0.271,128.03105,3.32
CaO,B1,8.783,-753.70510,1.079,84.69470,5.20
HfC,B1,8.738,-15126.50274,2.468,83.40006,3.96
HfN,B1,8.519,-15143.23029,3.267,77.28909,3.82
LiCl,B1,9.369,-467.72561,0.338,102.81079,4.35
LiF,B1,7.501,-106.94321,1.045,52.75181,4.02
LiH,B1,7.382,-8.02997,0.463,50.29409,4.19
MgO,B1,7.930,-274.52036,1.886,62.33050,4.03
MgS,B1,9.868,-597.63997,0.838,120.10892,3.05
NaCl,B1,10.522,-622.01601,0.235,145.62156,3.79
NaF,B1,8.591,-261.17708,0.497,79.26482,3.59
NbC,B1,8.496,-3854.22829,3.161,76.64505,3.85
NbN,B1,8.317,-3870.90974,3.817,71.91482,4.42
TiC,B1,8.225,-889.87605,2.565,69.54210,3.25
TiN,B1,7.998,-906.59486,3.409,63.94755,4.06
V1C1,B1,7.868,-985.26747,3.271,60.87962,3.77
V1N1,B1,7.705,-1001.95732,3.947,57.17054,4.44
ZrC,B1,8.929,-3633.10065,2.291,88.98373,3.91
ZrN,B1,8.709,-3649.81373,3.060,82.56567,4.50
AlLi,B2,5.840,-249.35122,0.503,99.57164,3.24
CoAl,B2,5.311,-1633.08094,2.023,74.89092,4.55
CrW,B2,5.634,-17205.37093,3.026,89.42361,4.47
FeAl,B2,5.344,-1512.49715,1.997,76.31333,4.20
NiAl,B2,5.382,-1760.32632,1.796,77.92703,4.42
fm,FeAl_B2,5.355,-1512.49773,1.958,76.79247,3.84
AlAsES1ES1,B3_ES,10.657,-2499.96716,0.768,151.29493,3.88
AlP1ES1ES1,B3_ES,10.293,-582.98099,0.896,136.31342,3.85
B1AsES1ES1,B3_ES,9.021,-2282.64584,1.463,91.77721,3.68
B1N1ES1ES1,B3_ES,6.800,-79.13421,3.939,39.30191,3.71
B1P1ES1ES1,B3_ES,8.570,-365.68255,1.739,78.68519,3.47
GaAsES1ES1,B3_ES,10.504,-4199.32784,0.819,144.85579,4.25
GaN1ES1ES1,B3_ES,8.385,-1995.73022,2.063,73.69481,4.30
GaP1ES1ES1,B3_ES,10.102,-2282.34178,0.971,128.84899,4.29
InAsES1ES1,B3_ES,11.174,-8136.03404,0.708,174.39496,4.72
InP1ES1ES1,B3_ES,10.809,-6219.04140,0.815,157.86203,4.47
SiC1ES1ES1,B3_ES,8.270,-326.87221,2.145,70.70099,3.59
CeO2ES,C1_ES,10.043,-6005.69961,2.816,84.41796,6.67
AlLi,L1_0,7.479,-249.35149,0.484,104.57018,4.03
AlLi3,L1_2,7.566,-132.09459,0.292,108.26705,3.96
LiAl3,L1_2,7.542,-366.60110,0.673,107.25240,4.40
AlLi,B32,11.786,-249.36089,0.536,102.32709,3.89
Ti,A3,5.371,-1703.97060,1.177,109.54521,3.25
