CeO2ES,C1_ES, 10.043,-6005.69961,2.816, 84.41796,6.67
AlLi,L1_0, 7.479,-249.35149,0.484, 104.57018,4.03
AlLi3,L1_2, 7.566,-132.09459,0.292, 108.26705,3.96
LiAl3,L1_2, 7.542,-366.60110,0.673, 107.25240,4.40
AlLi,B32, 11.786,-249.36089,0.536, 102.32709,3.89
Ti,A3, 5.371,-1703.97060,1.177, 109.54521,3.25
